{
 "account" : {
   "excludedPolicyPlan" : false,
   "adminSystemId" : "OMNI",
   "affiliate" : "AUL",
   "divisionId" : "PEN",
   "name" : "SINGLE ACCOUNT WITH LOAN 403(B) RETIREMENT SAVINGS PLAN",
   "number" : "S100222",
   "homePlan" : false,
   "retirement" : true,
   "individual" : false,
   "accountAnnuity" : false,
   "accountAnnuityCare" : false,
   "accountAssetCare" : false,
   "accountFDIA" : false,
   "accountFixedAnnuity" : false,
   "accountHealth" : false,
   "accountIndexAnnuity" : false,
   "accountISL" : false,
   "accountProceedsAnnuity" : false,
   "accountRA" : false,
   "accountSPFA" : false,
   "accountSPVUL" : false,
   "accountTerm" : false,
   "accountTraditional" : false,
   "accountUL" : false,
   "accountUniversal" : false,
   "accountVariableUniversal" : false,
   "accountVariableAnnuity" : false,
   "accountWholeLife" : false
 },
 "items" : [ {
   "defaultSource": "A",
   "deferralSource" : [ {
     "sourceTaxType" : null,
     "sourceId" : "A",
     "sourceDescription" : "403(b) TRANSFERS",
     "amount" : 625.0,
     "deferralAmountType" : "DOLLAR",
     "deferralSourceType" : "NORMAL",
     "deferralAction" : "DEFERRAL_CHANGE",
     "eligibilityDate" : "01/01/2004",
     "tradeDate" : "04/30/2014",
     "deferralAmountTypes" : [ "UN_SELECTED", "DOLLAR", "NO_DEFFERAL" ]
   }, {
      "sourceTaxType" : null,
      "sourceId" : "O",
      "sourceDescription" : "403(b) TDA voluntary",
      "amount" : 0.0,
      "deferralAmountType" : "UN_SELECTED",
      "deferralSourceType" : "NORMAL",
      "deferralAction" : "DEFERRAL_CHANGE",
      "eligibilityDate" : "07/31/2005",
      "tradeDate" : "04/24/2014",
      "deferralAmountTypes" : [ "UN_SELECTED", "DOLLAR", "NO_DEFFERAL" ]
    }, {
      "sourceTaxType" : null,
      "sourceId" : "I",
      "sourceDescription" : "457 DCP  voluntary",
      "amount" : 250.0,
      "deferralAmountType" : "DOLLAR",
      "deferralSourceType" : "NORMAL",
      "deferralAction" : "DEFERRAL_CHANGE",
      "eligibilityDate" : "07/31/2005",
      "tradeDate" : "04/24/2014",
      "deferralAmountTypes" : [ "UN_SELECTED", "DOLLAR", "NO_DEFFERAL" ]
    } ],
   "generalDisclaimers" : [ {
      "disclaimerText" : "The Internal Revenue Code calendar year deferral limit for 2015 is $18000.  Your plan's deferral limit is 80%.",
      "disclaimerKey" : "deferral.deferralLimitAllowed",
      "disclaimerLocalKey" : null,
      "section" : "General"
    } ]
 } ],
 "count" : 1,
 "errors" : null,
 "errorCount" : 0
}
