{
  "account" : null,
  "items" : [ {
    "fromInvestment" : {
      "investmentId" : "I2",
      "investmentNameShort" : "FIXD",
      "investmentName" : "AUL Fixed Account",
      "assetClassName" : "Fix Int/Stable Value/Cash",
      "assetClassValue" : "FXD INT/CASH",
      "investmentStyle" : "Fixed Int/Stable Val",
      "investmentSheetURL" : "https://www1.ft.oneamerica.com/account_services/pdfs/fundDescription/R-13396.pdf",
            "investmentDisclosureURL" : "https://www.ftwcm.oneamerica.com/wps/wcm/connect/rs/Account+Services/Account+Balance/Morningstar+Disclosure?presentationtemplate=Launch%20Download%20In%20Same%20Window",
            "disclaimerLocalKey" : [ "1" ],
            "restriction" : [ ],
            "value" : 26006.01,
            "percentByTotalValue" : 59.0,
      "frozen" : false,
      "retired" : false,
      "invTypeValue" : "FIXED INTRST",
      "type" : 3
    },
    "fromInvestmentAmount" : 100.0,
    "toInvestment" : [ {
            "investmentId" : "C2",
            "investmentNameShort" : "CTI2",
            "investmentName" : "Calvert Inc A",
      "assetClassName" : "Intermediate-Term Bonds",
      "assetClassValue" : "INTERM BOND",
            "investmentStyle" : "Int Term Bond",
            "investmentSheetURL" : "https://www1.ft.oneamerica.com/account_services/pdfs/fundDescription/R-15422N.pdf",
            "investmentDisclosureURL" : "https://www.ftwcm.oneamerica.com/wps/wcm/connect/rs/Account+Services/Account+Balance/Morningstar+Disclosure?presentationtemplate=Launch%20Download%20In%20Same%20Window",
            "disclaimerLocalKey" : [ "RF" ],
            "restriction" : [ "Redemption fee 2%, holding period 30 days." ],
            "value" : 60.0,
            "percentByTotalValue" : 5.0,
      "frozen" : false,
      "retired" : false,
            "invTypeValue" : "INTERM BOND",
      "type" : 1
    }, {
            "investmentId" : "PV",
            "investmentNameShort" : "RTGS",
            "investmentName" : "Russell LP Grth Strat R1",
            "assetClassName" : "Balanced",
            "assetClassValue" : "BALANCED",
            "investmentStyle" : "Balanced",
            "investmentSheetURL" : "https://www1.ft.oneamerica.com/account_services/pdfs/fundDescription/R-21267.pdf",
            "investmentDisclosureURL" : "https://www.ftwcm.oneamerica.com/wps/wcm/connect/rs/Account+Services/Account+Balance/Morningstar+Disclosure?presentationtemplate=Launch%20Download%20In%20Same%20Window",
            "disclaimerLocalKey" : [ ],
      "restriction" : [ ],
            "value" : 40.0,
      "percentByTotalValue" : 0.0,
      "frozen" : false,
      "retired" : false,
            "invTypeValue" : "BALANCED",
      "type" : 1
    } ],
        "disclaimers" : [ {
            "disclaimerText" : "A redemption fee is assessed to a participant's account if units of a particular fund are purchased and sold within the minimum holding period determined by the fund company. Redemption fees are charged by the mutual fund company and paid out of the participant's account.",
            "disclaimerKey" : null,
            "disclaimerLocalKey" : "RF",
            "section" : "Investment"
        } ],
    "currentInvestment" : null
  } ],
  "count" : 1,
  "errors" : null,
  "errorCount" : 0
}
