{
    "items" : [ {
        "branchAware": true,
        "departmentAware": false,
        "userId" : "12345",
        "firstName" : "PolicyHolder",
        "lastName" : "Test",
        "role" : "delegates",
        "permissions" : {
            "ibill" : false,
            "benefits" : true,
            "commissions" : true,
            "registration" : false,
            "csrSiteAccess" : false,
            "eoi": true
        },
	"policyNumbers":[ "00612397-0000-000", 
			  "00612645-0000-000",
			  "00612710-0000-000",
		          "00613004-0000-000", 
			  "00613066-0000-000", 
			  "00613381-0000-000", 
			  "00613381-0001-000" 
	  ]
    } ],
    "errors" : null,
    "count" : 1,
    "errorCount" : 0
}
