{
    "displayName"  : "Leader",
    "webId"        : "ibleader",
    "capabilities" : [
        "Policy_Search",
        "Policy_Search_by_Producer",
        "Producer_Performance_View",
        "user.test",
        "Contact_List_IB_View",
        "Producer_Role_View",
        "Pathway_IB_Manager_View",
        "WCM_IB_HO_View"
    ]
}
