{
    "displayName"  : "Jason",
    "webId"        : "jbell",
    "capabilities" : [
        "IPipeline_FormsPipe(disabled)",
        "IPipeline_iGO",
        "Policy_Search",
        "Policy_View",
        "user.test",
        "Interest_Rates_All_Products_View"
    ]
}
