{
    "displayName"  : "Joe",
    "webId"        : "123abc",
    "capabilities" : [
        "Policy_Search",
        "Policy_View",
        "user.test",
        "Interest_Rates_CS_Products_View",
        "Contact_List_CS_View"
    ]
}
