[ {
    "companyCode" : "AUL",
    "sourceCode" : "813",
    "phoneNumber" : "4820",
    "vendorCode" : "106ABC",
    "payeeName" : "REPLACE 1",
    "payeeAddress1" : "REPLACE ADDRESS 1",
    "payeeAddress2" : "REPLACE ADDRESS 2",
    "payeeAddress3" : "REPLACE ADDRESS 3",
    "payeeAddress4" : "REPLACE ADDRESS 4",
    "payeeCity" : null,
    "payeeState" : "IN",
    "payeeZip" : null,
    "payeeZipPlusFour" : null,
    "payeeCountry" : null,
    "payeeAddressIndicator" : null,
    "taxId" : "100000000",
    "bankRouting" : "00001",
    "bankAccount" : "10000",
    "paymentType" : "Check",
    "mailCode" : "MA",
    "descriptionCode" : null,
    "description1" : "REPLACE LINE 1",
    "description2" : "REPLACE LINE 2",
    "status" : "Draft",
    "lastModified" : "2018-01-07T00:00:00.000-0500",
    "originalCheckNumber" : "1234",
    "originalCheckFlag" : null,
    "reason" : null,
    "checkDate" : null,
    "checkAmount" : null,
    "voidAccount" : null,
    "accountingDetails" : null,
    "clientId" : "13",
    "transactionType" : "Replacement"
  }]