{
  "reportId": 106,
  "reportName": "Kramerica",
  "template": "UBS",
  "frequency": "Monthly",
  "status": "Pending Deactivation",
  "endDate": null,
  "userId": null,
  "comment": null,
  "partners": [{
      "partnerId": "AA980398",
      "partnerName": "Albert Sims",
      "ria": true,
      "plans": [
        {
          "planNumber": "G558404",
          "planName": "Hane Inc"
        },
        {
          "planNumber": "G691293",
          "planName": "Leuschke Inc"
        },
        {
          "planNumber": "G075388",
          "planName": "Brown-Stokes"
        },
        {
          "planNumber": "G970431",
          "planName": "Rippin-Konopelski"
        },
        {
          "planNumber": "G583917",
          "planName": "Ziemann-Schmitt"
        }
      ]
    }
  ],
  "plans": [],
  "deliveries": [
    {
      "deliveryMethod": "FTP",
      "deliveryAddress": "Alice"
    }
  ]
}