{
  "reportId" : 1004,
  "recipient" : "Aggregator",
  "aggregator" : true,
  "reportName" : "Envestnet",
  "template" : "Envestnet",
  "frequency" : "Monthly",
  "status" : "Approved",
  "createDate" : "2017-03-02T14:04:36.517-0500",
  "endDate" : null,
  "userId" : "E002939",
  "comment" : null,
  "partners" : [ {
    "partnerId" : "AA19404",
    "partnerName" : "ANTHONY J MAZZALI",
    "included" : null,
    "ria" : true,
    "plans" : [ {
      "planNumber" : "G62124",
      "planName" : "FULTON COUNTY HEALTH CENTER ",
      "included" : null,
      "riaFirmId" : "AA19404"
    }, {
      "planNumber" : "G62324",
      "planName" : "MUNISING MEMORIAL HOSPITAL RETIREMENT PLAN",
      "included" : null,
      "riaFirmId" : "AA19404"
    } ]
  }, {
    "partnerId" : "AA66044",
    "partnerName" : "CAMBRIDGE INVEST RESEARCH ADVISOR",
    "included" : null,
    "ria" : false,
    "plans" : [ ]
  }, {
    "partnerId" : "AA62293",
    "partnerName" : "DAVID HEROUX",
    "included" : null,
    "ria" : false,
    "plans" : [ ]
  }, {
    "partnerId" : "AA00023",
    "partnerName" : "THOMAS E SHAUGHNESSY",
    "included" : null,
    "ria" : false,
    "plans" : [ ]
  }, {
    "partnerId" : "AA57796",
    "partnerName" : "RT JONES CAPITAL EQUITIES MGMT INC",
    "included" : null,
    "ria" : false,
    "plans" : [ ]
  }, {
    "partnerId" : "AA00112",
    "partnerName" : "KEITH DAVID SOLOMON",
    "included" : null,
    "ria" : false,
    "plans" : [ ]
  }, {
    "partnerId" : "AA16052",
    "partnerName" : "CAROLYN A BORGERT",
    "included" : null,
    "ria" : false,
    "plans" : [ ]
  } ],
  "plans" : [ {
    "planNumber" : "G33493",
    "planName" : "YAC ROBOT SYSTEMS, INC. 401 (K) PLAN",
    "included" : false,
    "riaFirmId" : null
  }, {
   	"planNumber" : "G34019",
    "planName" : "STERLING RISK ADVISORS, INC. RETIREMENT PLAN",
    "included" : false,
    "riaFirmId" : null
  }, {
   	"planNumber" : "G33233",
    "planName" : "CGM SERVICES, INC. 401(K) PLAN",
    "included" : false,
    "riaFirmId" : null
  } ],
  "deliveries" : [ {
    "deliveryMethod" : "FTP",
    "deliveryAddress" : "ftp1"
  }, {
    "deliveryMethod" : "FTP",
    "deliveryAddress" : "ftp3"
  }, {
    "deliveryMethod" : "Email",
    "deliveryAddress" : "leo1@oneamerica.com"
  }, {
    "deliveryMethod" : "Email",
    "deliveryAddress" : "leo3@oneamerica.com"
  } ]
}