{
    "data": [
        {
            "customerLexicalName": "Arthur Dent",
            "dateOfBirth": "1962-11-11",
            "relationship": "Owner",
            "productName": "Bistromatic Annuity",
            "receivedDate": "2016-01-01T00:00:00Z",
            "producerName": "Slartibartfast",
            "policyNumber": "720459750",
            "policyId": "8989898901",
            "caseId": "",
            "servicingProducerLexicalName": "LISSARRAGUE, ROY  F"
        },
        {
            "customerLexicalName": "Ford Prefect",
            "dateOfBirth": "1960-01-01",
            "relationship": "Owner",
            "productName": "Bistromatic Annuity",
            "receivedDate": "2016-01-11T00:00:00Z",
            "producerName": "Slartibartfast",
            "policyNumber": "720459750",
            "policyId": "8989898901",
            "caseId": "",
            "servicingProducerLexicalName": "STEVENS, TYRELL  D"
        },
        {
            "customerLexicalName": "Tricia McMillan",
            "dateOfBirth": "1970-05-05",
            "relationship": "Owner",
            "productName": "Heart of Gold Life",
            "receivedDate": "2016-02-11T00:00:00Z",
            "producerName": "Zaphod Beeblebrox",
            "policyNumber": "",
            "policyId": "",
            "caseId": "1212121212",
            "servicingProducerLexicalName": "HOULTON, DENNIS  P"
        },
        {
            "customerLexicalName": "Marvin",
            "dateOfBirth": "2010-01-01",
            "relationship": "Beneficiary",
            "productName": "Heart of Gold Life",
            "receivedDate": "2016-02-11T00:00:00Z",
            "producerName": "Zaphod Beeblebrox",
            "policyNumber": "",
            "policyId": "",
            "caseId": "1212121212",
            "servicingProducerLexicalName" : "UNGER, MATTHEW  ANTHONY"
        },
        {
            "customerLexicalName": "Benjy Mouse",
            "dateOfBirth": "1999-12-12",
            "relationship": "Owner",
            "productName": "Organic Computing Annuity",
            "receivedDate": "2015-01-01T00:00:00Z",
            "producerName": "Slartibartfast",
            "policyNumber": "720459751",
            "policyId": "8989898906",
            "caseId": "",
            "servicingProducerLexicalName" : "TRAVIS, MARK  EDWARD"
        },
        {
            "customerLexicalName": "Frankie Mouse",
            "dateOfBirth": "2001-10-10",
            "relationship": "Beneficiary",
            "productName": "Organic Computing Annuity",
            "receivedDate": "2015-01-01T00:00:00Z",
            "producerName": "Slartibartfast",
            "policyNumber": "720459751",
            "policyId": "8989898906",
            "caseId": "",
            "servicingProducerLexicalName" : "UNGER, MATTHEW  ANTHONY"
        },
        {
            "customerLexicalName": "Vroomfondel",
            "dateOfBirth": "1873-02-03",
            "relationship": "Owner",
            "productName": "Philosopher Guild Policy",
            "receivedDate": "2011-01-01T00:00:00Z",
            "producerName": "Slartibartfast",
            "policyNumber": "720459752",
            "policyId": "8989898907",
            "caseId": "",
            "servicingProducerLexicalName" : "COX, JERRY  L"
        },
        {
            "customerLexicalName": "Majikthise",
            "dateOfBirth": "1840-01-10",
            "relationship": "Beneficiary",
            "productName": "Philosopher Guild Policy",
            "receivedDate": "2011-01-01T00:00:00Z",
            "producerName": "Slartibartfast",
            "policyNumber": "720459752",
            "policyId": "8989898907",
            "caseId": "",
            "servicingProducerLexicalName" : "LISSARRAGUE, ROY  F"
        }
    ]
}