{
  "items" : [ {
    "partyId": "adviceplus",
    "firstName": "Joe",
    "fullName": "Participant Joe",
    "lastName": "Participant",
    "middleName": "",
    "accounts" : [ {
      "policyPlan" : {
        "excludedPolicyPlan" : false,
        "adminSystemId" : "OMNI",
        "affiliate" : "AUL",
        "divisionId" : "PEN",
        "name" : "LAKE HOSPITAL SYSTEM, INC. 403(B) RETIREMENT SAVINGS PLAN",
        "number" : "J74645",
        "homePlan" : false,
        "retirement" : true,
        "individual" : false,
        "accountAnnuity" : false,
        "accountAnnuityCare" : false,
        "accountAssetCare" : false,
        "accountFDIA" : false,
        "accountFixedAnnuity" : false,
        "accountHealth" : false,
        "accountIndexAnnuity" : false,
        "accountISL" : false,
        "accountProceedsAnnuity" : false,
        "accountRA" : false,
        "accountSPFA" : false,
        "accountSPVUL" : false,
        "accountTerm" : false,
        "accountTraditional" : false,
        "accountUL" : false,
        "accountUniversal" : false,
        "accountVariableUniversal" : false,
        "accountVariableAnnuity" : false,
        "accountWholeLife" : false
      },
      "accountBalance" : null
    }, {
      "policyPlan" : {
        "excludedPolicyPlan" : false,
        "adminSystemId" : "OMNI",
        "affiliate" : "AUL",
        "divisionId" : "PEN",
        "name" : "LAKE HOSPITAL SYSTEM, INC. 403(B) RETIREMENT SAVINGS PLAN",
        "number" : "G74645",
        "homePlan" : false,
        "retirement" : true,
        "individual" : false,
        "accountAnnuity" : false,
        "accountAnnuityCare" : false,
        "accountAssetCare" : false,
        "accountFDIA" : false,
        "accountFixedAnnuity" : false,
        "accountHealth" : false,
        "accountIndexAnnuity" : false,
        "accountISL" : false,
        "accountProceedsAnnuity" : false,
        "accountRA" : false,
        "accountSPFA" : false,
        "accountSPVUL" : false,
        "accountTerm" : false,
        "accountTraditional" : false,
        "accountUL" : false,
        "accountUniversal" : false,
        "accountVariableUniversal" : false,
        "accountVariableAnnuity" : false,
        "accountWholeLife" : false
      },
      "accountBalance" : null
    }, {
      "policyPlan" : {
        "excludedPolicyPlan" : false,
        "adminSystemId" : "OMNI",
        "affiliate" : "AUL",
        "divisionId" : "PEN",
        "name" : "APR TESTING ONLY - DO NOT TOUCH APR TESTING ONLY - DO NOT TOUCH",
        "number" : "E74645",
        "homePlan" : false,
        "retirement" : true,
        "individual" : false,
        "accountAnnuity" : false,
        "accountAnnuityCare" : false,
        "accountAssetCare" : false,
        "accountFDIA" : false,
        "accountFixedAnnuity" : false,
        "accountHealth" : false,
        "accountIndexAnnuity" : false,
        "accountISL" : false,
        "accountProceedsAnnuity" : false,
        "accountRA" : false,
        "accountSPFA" : false,
        "accountSPVUL" : false,
        "accountTerm" : false,
        "accountTraditional" : false,
        "accountUL" : false,
        "accountUniversal" : false,
        "accountVariableUniversal" : false,
        "accountVariableAnnuity" : false,
        "accountWholeLife" : false
      },
      "accountBalance" : null
    }, {
      "policyPlan" : {
        "excludedPolicyPlan" : false,
        "adminSystemId" : "OMNI",
        "affiliate" : "AUL",
        "divisionId" : "PEN",
        "name" : "LAKE HOSPITAL SYSTEM, INC. 403(B) RETIREMENT SAVINGS PLAN",
        "number" : "S74645",
        "homePlan" : false,
        "retirement" : true,
        "individual" : false,
        "accountAnnuity" : false,
        "accountAnnuityCare" : false,
        "accountAssetCare" : false,
        "accountFDIA" : false,
        "accountFixedAnnuity" : false,
        "accountHealth" : false,
        "accountIndexAnnuity" : false,
        "accountISL" : false,
        "accountProceedsAnnuity" : false,
        "accountRA" : false,
        "accountSPFA" : false,
        "accountSPVUL" : false,
        "accountTerm" : false,
        "accountTraditional" : false,
        "accountUL" : false,
        "accountUniversal" : false,
        "accountVariableUniversal" : false,
        "accountVariableAnnuity" : false,
        "accountWholeLife" : false
      },
      "accountBalance" : null
    }, {
      "policyPlan" : {
        "excludedPolicyPlan" : false,
        "adminSystemId" : "OMNI",
        "affiliate" : "AUL",
        "divisionId" : "PEN",
        "name" : "LAKE HOSPITAL SYSTEM, INC. 403(B) RETIREMENT SAVINGS PLAN",
        "number" : "Q74645",
        "homePlan" : false,
        "retirement" : true,
        "individual" : false,
        "accountAnnuity" : false,
        "accountAnnuityCare" : false,
        "accountAssetCare" : false,
        "accountFDIA" : false,
        "accountFixedAnnuity" : false,
        "accountHealth" : false,
        "accountIndexAnnuity" : false,
        "accountISL" : false,
        "accountProceedsAnnuity" : false,
        "accountRA" : false,
        "accountSPFA" : false,
        "accountSPVUL" : false,
        "accountTerm" : false,
        "accountTraditional" : false,
        "accountUL" : false,
        "accountUniversal" : false,
        "accountVariableUniversal" : false,
        "accountVariableAnnuity" : false,
        "accountWholeLife" : false
      },
      "accountBalance" : null
    }, {
      "policyPlan" : {
        "excludedPolicyPlan" : false,
        "adminSystemId" : "OMNI",
        "affiliate" : "AUL",
        "divisionId" : "PEN",
        "name" : "LAKE HOSPITAL SYSTEM - SUPRIYA 403(B) RETIREMENT SAVINGS PLAN",
        "number" : "P74645",
        "homePlan" : false,
        "retirement" : true,
        "individual" : false,
        "accountAnnuity" : false,
        "accountAnnuityCare" : false,
        "accountAssetCare" : false,
        "accountFDIA" : false,
        "accountFixedAnnuity" : false,
        "accountHealth" : false,
        "accountIndexAnnuity" : false,
        "accountISL" : false,
        "accountProceedsAnnuity" : false,
        "accountRA" : false,
        "accountSPFA" : false,
        "accountSPVUL" : false,
        "accountTerm" : false,
        "accountTraditional" : false,
        "accountUL" : false,
        "accountUniversal" : false,
        "accountVariableUniversal" : false,
        "accountVariableAnnuity" : false,
        "accountWholeLife" : false
      },
      "accountBalance" : null
    }, {
      "policyPlan" : {
        "excludedPolicyPlan" : false,
        "adminSystemId" : "OMNI",
        "affiliate" : "AUL",
        "divisionId" : "PEN",
        "name" : "SINGLE ACCOUNT WITH LOAN 403(B) RETIREMENT SAVINGS PLAN",
        "number" : "O74645",
        "homePlan" : false,
        "retirement" : true,
        "individual" : false,
        "accountAnnuity" : false,
        "accountAnnuityCare" : false,
        "accountAssetCare" : false,
        "accountFDIA" : false,
        "accountFixedAnnuity" : false,
        "accountHealth" : false,
        "accountIndexAnnuity" : false,
        "accountISL" : false,
        "accountProceedsAnnuity" : false,
        "accountRA" : false,
        "accountSPFA" : false,
        "accountSPVUL" : false,
        "accountTerm" : false,
        "accountTraditional" : false,
        "accountUL" : false,
        "accountUniversal" : false,
        "accountVariableUniversal" : false,
        "accountVariableAnnuity" : false,
        "accountWholeLife" : false
      },
      "accountBalance" : null
    } ]
  } ],
  "errors" : null,
  "count" : 1,
  "errorCount" : 0
}
