{
  "items" : [ {
    "firstName" : "TOM",
    "fullName" : "TOM N JERRY",
    "lastName" : "JERRY",
    "middleName" : "M",
    "userName" : "n.JERRY",
    "partyId" : 1311327,
    "accounts" : [ {
      "policyPlan" : {
        "excludedPolicyPlan" : false,
        "adminSystemId" : "CL$$",
        "affiliate" : "AUL",
        "divisionId" : "IND",
        "name" : "SECURE 5",
        "number" : "2052388000",
        "type" : "FPFA",
        "homePlan" : false,
        "retirement" : false,
        "individual" : true
      },
      "accountBalance" : null,
      "asOfDate" : null
    }, {
      "policyPlan" : {
        "excludedPolicyPlan" : false,
        "adminSystemId" : "CL$$",
        "affiliate" : "AUL",
        "divisionId" : "IND",
        "name" : "FREEDOM BUILDER FIXED INDEXED ANNUITY 5 YEAR",
        "number" : "2650000190",
        "type" : "INXAN",
        "homePlan" : false,
        "retirement" : false,
        "individual" : true
      },
      "accountBalance" : null,
      "asOfDate" : null
    } ]
  } ],
  "errors" : null,
  "count" : 1,
  "errorCount" : 0
}