{
    "items": [
        {
            "partyId": "c.thom",
            "firstName": "Joe",
            "fullName": "Participant Joe",
            "lastName": "Participant",
            "middleName": "",
            "accounts": [
                {
                    "policyPlan": {
                        "excludedPolicyPlan": false,
                        "adminSystemId": "OMNI",
                        "affiliate": "AUL",
                        "divisionId": "PEN",
                        "name": "ABC SAMPLE COMPANY",
                        "number": "G00006",
                        "homePlan": false,
                        "retirement": true,
                        "individual": false
                    },
                    "accountBalance": 73274.02
                },
                {
                    "policyPlan": {
                        "excludedPolicyPlan": false,
                        "adminSystemId": "OMNI",
                        "affiliate": "AUL",
                        "divisionId": "PEN",
                        "name": "YUKON-KUSKOKWIM HEALTH CORPORATION RETIREMENT PLAN",
                        "number": "G62157",
                        "homePlan": false,
                        "retirement": true,
                        "individual": false
                    },
                    "accountBalance": 28650.239999999998
                },
                {
                    "policyPlan": {
                        "excludedPolicyPlan": false,
                        "adminSystemId": "OMNI",
                        "affiliate": "AUL",
                        "divisionId": "PEN",
                        "name": "YUKON-KUSKOKWIM HEALTH CORPORATION RETIREMENT PLAN",
                        "number": "J62157",
                        "homePlan": false,
                        "retirement": true,
                        "individual": false
                    },
                    "accountBalance": 33286.72
                },
                {
                    "policyPlan": {
                        "excludedPolicyPlan": false,
                        "adminSystemId": "OMNI",
                        "affiliate": "AUL",
                        "divisionId": "PEN",
                        "name": "YUKON-KUSKOKWIM HEALTH CORPORATION RETIREMENT PLAN",
                        "number": "U62157",
                        "homePlan": false,
                        "retirement": true,
                        "individual": false
                    },
                    "accountBalance": 56986.81
                }
            ]
        }
    ],
    "errors": null,
    "count": 1,
    "errorCount": 0
}
