{
    "items":      [
        {
            "partyId": "fixed-fund-only",
            "firstName": "Joe",
            "fullName": "Participant Joe",
            "lastName": "Participant",
            "middleName": "",
            "accounts":   [
                {
                    "policyPlan":     {
                        "excludedPolicyPlan": false,
                        "adminSystemId":      "OMNI",
                        "affiliate":          "AUL",
                        "divisionId":         "PEN",
                        "name":               "SINGLE ACCOUNT WITHOUT LOAN RETIREMENT PLAN",
                        "number":             "O30889",
                        "homePlan":           false
                    },
                    "accountBalance": 67512.83
                }
            ]
        }
    ],
    "errors":     null,
    "count":      1,
    "errorCount": 0
}
