{
    "items":      [
        {
            "partyId": "not-enrolled-has-balance",
            "firstName": "Joe",
            "fullName": "Participant Joe",
            "lastName": "Participant",
            "middleName": "",
            "accounts":   [
                {
                    "policyPlan":     {
                        "excludedPolicyPlan": false,
                        "adminSystemId":      "OMNI",
                        "affiliate":          "AUL",
                        "divisionId":         "PEN",
                        "name":               "LAKE HOSPITAL SYSTEM, INC. 403(B) RETIREMENT SAVINGS PLAN",
                        "number":             "Q74645",
                        "homePlan":           false
                    },
                    "accountBalance": 50570.11
                }
            ]
        }
    ],
    "errors":     null,
    "count":      1,
    "errorCount": 0
}
