{
    "items":      [
        {
            "partyId": "1234retirementannuity",
            "firstName": "Lois",
            "fullName": "Lane Lois",
            "lastName": "Lane",
            "middleName": "",
            "accounts":   [
                {
                    "policyPlan": {
                        "excludedPolicyPlan" : false,
                        "adminSystemId" : "ALIS",
                        "affiliate" : "AUL",
                        "divisionId" : "IND",
                        "name" : "RETIREMENT ANNUITY CONTRACT",
                        "number" : "1612239310",
                        "homePlan" : false
                    }
                }
            ]
        }
    ],
    "count":      1,
    "errorCount": 0,
    "errors":     null
}

