{
    "items":      [
        {
            "partyId": "ria-pronvest",
            "firstName": "Joe",
            "fullName": "Participant Joe",
            "lastName": "Participant",
            "middleName": "",
            "accounts":   [
                {
                    "policyPlan":     {
                        "excludedPolicyPlan": false,
                        "adminSystemId":      "OMNI",
                        "affiliate":          "AUL",
                        "divisionId":         "PEN",
                        "name":               "RT JONES - SUPRIYA",
                        "number":             "O32736",
                        "homePlan":           false
                    },
                    "accountBalance": 417.65
                }
            ]
        }
    ],
    "errors":     null,
    "count":      1,
    "errorCount": 0
}
