{
  "items" : [ {
    "firstName" : "FRED",
    "fullName" : "FRED F FLINTSTONE",
    "lastName" : "FLINTSTONE",
    "middleName" : "F",
    "userName" : "f.flintstone",
    "partyId" : 28723130,
    "accounts" : [ {
      "policyPlan" : {
        "excludedPolicyPlan" : false,
        "adminSystemId" : "CL$$",
        "affiliate" : "SL",
        "divisionId" : "IND",
        "name" : "ASSET CARE LIFE 2/3",
        "number" : "5200008380",
        "type" : "WL",
        "homePlan" : false,
        "retirement" : false,
        "individual" : true
      },
      "accountBalance" : null,
      "asOfDate" : null
    }, {
      "policyPlan" : {
        "excludedPolicyPlan" : false,
        "adminSystemId" : "CL$$",
        "affiliate" : "SL",
        "divisionId" : "IND",
        "name" : "ASSET CARE ANNUITY",
        "number" : "5820005490",
        "type" : "SPFA",
        "homePlan" : false,
        "retirement" : false,
        "individual" : true
      },
      "accountBalance" : null,
      "asOfDate" : null
    }, {
      "policyPlan" : {
        "excludedPolicyPlan" : false,
        "adminSystemId" : "CL$$",
        "affiliate" : "SL",
        "divisionId" : "IND",
        "name" : "CONTINUATION OF BENEFIT",
        "number" : "5200008390",
        "type" : "WL",
        "homePlan" : false,
        "retirement" : false,
        "individual" : true
      },
      "accountBalance" : null,
      "asOfDate" : null
    } ]
  } ],
  "errors" : null,
  "count" : 1,
  "errorCount" : 0
}