{
  "items" : [ {
    "partyId": "universal-life",
    "firstName": "Captain",
    "fullName": "America Captain",
    "lastName": "America",
    "middleName": "",
    "accounts" : [ {
      "policyPlan" : {
           "excludedPolicyPlan" : false,
           "adminSystemId" : "CL$$",
           "affiliate" : "SL",
           "divisionId" : "IND",
           "name" : "STATE LIFE UL",
           "number" : "3360000116",
           "homePlan" : false
        }
    } ]
  } ],
  "errors" : null,
  "count" : 1,
  "errorCount" : 0
}
