{
  "items" : [ {
    "partyId": "v.march",
    "firstName": "Joe",
    "fullName": "Participant Joe",
    "lastName": "Participant",
    "middleName": "",
    "accounts" : [ {
      "policyPlan" : {
        "excludedPolicyPlan" : false,
        "adminSystemId" : "OMNI",
        "affiliate" : "AUL",
        "divisionId" : "PEN",
        "name" : "LARGE DEPOSIT CYCLE ISSUE 403(B) RETIREMENT SAVINGS PLAN",
        "number" : "J74645",
        "homePlan" : false,
        "retirement" : true,
        "individual" : false,
        "accountAnnuity" : false,
        "accountAnnuityCare" : false,
        "accountAssetCare" : false,
        "accountFDIA" : false,
        "accountFixedAnnuity" : false,
        "accountHealth" : false,
        "accountIndexAnnuity" : false,
        "accountISL" : false,
        "accountProceedsAnnuity" : false,
        "accountRA" : false,
        "accountSPFA" : false,
        "accountSPVUL" : false,
        "accountTerm" : false,
        "accountTraditional" : false,
        "accountUL" : false,
        "accountUniversal" : false,
        "accountVariableUniversal" : false,
        "accountVariableAnnuity" : false,
        "accountWholeLife" : false
      },
      "accountBalance" : 219405.58
    }, {
      "policyPlan" : {
        "excludedPolicyPlan" : false,
        "adminSystemId" : "OMNI",
        "affiliate" : "AUL",
        "divisionId" : "PEN",
        "name" : "LAKE HOSPITAL SYSTEM, INC. 403(B) RETIREMENT SAVINGS PLAN",
        "number" : "K74645",
        "homePlan" : false,
        "retirement" : true,
        "individual" : false,
        "accountAnnuity" : false,
        "accountAnnuityCare" : false,
        "accountAssetCare" : false,
        "accountFDIA" : false,
        "accountFixedAnnuity" : false,
        "accountHealth" : false,
        "accountIndexAnnuity" : false,
        "accountISL" : false,
        "accountProceedsAnnuity" : false,
        "accountRA" : false,
        "accountSPFA" : false,
        "accountSPVUL" : false,
        "accountTerm" : false,
        "accountTraditional" : false,
        "accountUL" : false,
        "accountUniversal" : false,
        "accountVariableUniversal" : false,
        "accountVariableAnnuity" : false,
        "accountWholeLife" : false
      },
      "accountBalance" : 205876.36
    }, {
      "policyPlan" : {
        "excludedPolicyPlan" : false,
        "adminSystemId" : "OMNI",
        "affiliate" : "AUL",
        "divisionId" : "PEN",
        "name" : "SINGLE ACCOUNT WITH LOAN 403(B) RETIREMENT SAVINGS PLAN",
        "number" : "O74645",
        "homePlan" : false,
        "retirement" : true,
        "individual" : false,
        "accountAnnuity" : false,
        "accountAnnuityCare" : false,
        "accountAssetCare" : false,
        "accountFDIA" : false,
        "accountFixedAnnuity" : false,
        "accountHealth" : false,
        "accountIndexAnnuity" : false,
        "accountISL" : false,
        "accountProceedsAnnuity" : false,
        "accountRA" : false,
        "accountSPFA" : false,
        "accountSPVUL" : false,
        "accountTerm" : false,
        "accountTraditional" : false,
        "accountUL" : false,
        "accountUniversal" : false,
        "accountVariableUniversal" : false,
        "accountVariableAnnuity" : false,
        "accountWholeLife" : false
      },
      "accountBalance" : 165207.51
    }, {
      "policyPlan" : {
        "excludedPolicyPlan" : false,
        "adminSystemId" : "OMNI",
        "affiliate" : "AUL",
        "divisionId" : "PEN",
        "name" : "LAKE HOSPITAL SYSTEM - SUPRIYA 403(B) RETIREMENT SAVINGS PLAN",
        "number" : "P74645",
        "homePlan" : false,
        "retirement" : true,
        "individual" : false,
        "accountAnnuity" : false,
        "accountAnnuityCare" : false,
        "accountAssetCare" : false,
        "accountFDIA" : false,
        "accountFixedAnnuity" : false,
        "accountHealth" : false,
        "accountIndexAnnuity" : false,
        "accountISL" : false,
        "accountProceedsAnnuity" : false,
        "accountRA" : false,
        "accountSPFA" : false,
        "accountSPVUL" : false,
        "accountTerm" : false,
        "accountTraditional" : false,
        "accountUL" : false,
        "accountUniversal" : false,
        "accountVariableUniversal" : false,
        "accountVariableAnnuity" : false,
        "accountWholeLife" : false
      },
      "accountBalance" : 212024.95
    }, {
      "policyPlan" : {
        "excludedPolicyPlan" : false,
        "adminSystemId" : "OMNI",
        "affiliate" : "AUL",
        "divisionId" : "PEN",
        "name" : "LAKE HOSPITAL SYSTEM, INC. 403(B) RETIREMENT SAVINGS PLAN",
        "number" : "U74645",
        "homePlan" : false,
        "retirement" : true,
        "individual" : false,
        "accountAnnuity" : false,
        "accountAnnuityCare" : false,
        "accountAssetCare" : false,
        "accountFDIA" : false,
        "accountFixedAnnuity" : false,
        "accountHealth" : false,
        "accountIndexAnnuity" : false,
        "accountISL" : false,
        "accountProceedsAnnuity" : false,
        "accountRA" : false,
        "accountSPFA" : false,
        "accountSPVUL" : false,
        "accountTerm" : false,
        "accountTraditional" : false,
        "accountUL" : false,
        "accountUniversal" : false,
        "accountVariableUniversal" : false,
        "accountVariableAnnuity" : false,
        "accountWholeLife" : false
      },
      "accountBalance" : 213876.55
    } ]
  } ],
  "errors" : null,
  "count" : 1,
  "errorCount" : 0
}
