{
    "items": null,
    "count": 0,
    "errors": [
        {
            "field": "confirmNewUserId",
            "code": "This is a confirm new user id error"
        }
    ],
    "errorCount": "1"
}
