{
    "items":      [
        {
            "firstName": "Joe",
            "fullName": "Participant Joe",
            "lastName": "Participant",
            "middleName": "",
            "accounts":   [
                {
                    "policyPlan":     {
                        "excludedPolicyPlan": false,
                        "adminSystemId":      "OMNI",
                        "affiliate":          "AUL",
                        "divisionId":         "PEN",
                        "name":               "APR TESTING ONLY - DO NOT TOUCH APR TESTING ONLY - DO NOT TOUCH",
                        "number":             "E74645",
                        "homePlan":           false
                    },
                    "accountBalance": 349149.89
                },
                {
                    "policyPlan":     {
                        "excludedPolicyPlan": false,
                        "adminSystemId":      "OMNI",
                        "affiliate":          "AUL",
                        "divisionId":         "PEN",
                        "name":               "LAKE HOSPITAL SYSTEM, INC. 403(B) RETIREMENT SAVINGS PLAN",
                        "number":             "G74645",
                        "homePlan":           false
                    },
                    "accountBalance": 300480.82
                },
                {
                    "policyPlan":     {
                        "excludedPolicyPlan": false,
                        "adminSystemId":      "OMNI",
                        "affiliate":          "AUL",
                        "divisionId":         "PEN",
                        "name":               "SINGLE ACCOUNT WITH LOAN 403(B) RETIREMENT SAVINGS PLAN",
                        "number":             "O74645",
                        "homePlan":           false
                    },
                    "accountBalance": 156623.24
                },
                {
                    "policyPlan":     {
                        "excludedPolicyPlan": false,
                        "adminSystemId":      "OMNI",
                        "affiliate":          "AUL",
                        "divisionId":         "PEN",
                        "name":               "LAKE HOSPITAL SYSTEM - SUPRIYA 403(B) RETIREMENT SAVINGS PLAN",
                        "number":             "P74645",
                        "homePlan":           false
                    },
                    "accountBalance": 200287.08
                },
                {
                    "policyPlan":     {
                        "excludedPolicyPlan": false,
                        "adminSystemId":      "OMNI",
                        "affiliate":          "AUL",
                        "divisionId":         "PEN",
                        "name":               "LAKE HOSPITAL SYSTEM, INC. 403(B) RETIREMENT SAVINGS PLAN",
                        "number":             "Q74645",
                        "homePlan":           false
                    },
                    "accountBalance": 195962.6
                },
                {
                    "policyPlan":     {
                        "excludedPolicyPlan": false,
                        "adminSystemId":      "OMNI",
                        "affiliate":          "AUL",
                        "divisionId":         "PEN",
                        "name":               "LAKE HOSPITAL SYSTEM, INC. 403(B) RETIREMENT SAVINGS PLAN",
                        "number":             "S74645",
                        "homePlan":           false
                    },
                    "accountBalance": 90651.61
                }
            ]
        }
    ],
    "errors":     null,
    "count":      1,
    "errorCount": 0
}
