{
  "account" : {
    "excludedPolicyPlan" : false,
    "adminSystemId" : "OMNI",
    "affiliate" : "AUL",
    "divisionId" : "PEN",
    "name": "ABC Sample Company",
    "number": "S00001",
    "homePlan" : false,
    "retirement" : true,
    "individual" : false
  },
  "items" : [ {
    "divisionId" : "PEN",
    "tranferType" : "FUND_XFER_INT_SWP",
    "asOfDate" : "2014-01-09T14:49:11.365-0500",
    "lastAllocChangeDate" : null,
    "totalAcctValue" : 40844.86,
    "totalTransferrableAcctValue" : 40844.86,
    "maxNumberOfInvestmentOptions" : 26,
    "investmentOptionChanges" : [ {
      "id" : "A2",
      "name" : "PIONEER BOND Y",
      "minValue" : 100.32,
      "maxValue" : 93314.13,
      "minAllocPercent" : 0.0,
      "maxAllocPercent" : 100.0,
      "currentValue" : 10025.32,
      "reallocValue" : 10025.32,
      "currentPercentByTotalValue" : 10.74,
      "reallocPercentByTotalValue" : 10.74,
      "currentAllocPercent" : 10.74,
      "futureAllocPercent" : 10.74,
      "fundPDFName" : "http://www1.ft.oneamerica.com/account_services/pdfs/fundDescription/factsheet.jpg",
      "minPercentByTotalValue" : 4.0,
      "maxPercentByTotalValue" : 100.0,
      "assetClassName" : "Intermediate-Term Bonds",
      "invStyleName" : "Intermediate-Term Bonds",
      "employeeMoney" : 10025.32,
      "employerMoney" : 0.0,
      "availTransferValue" : 100.32,
      "availTransferPercent" : 10.0,
      "assetClassValue" : "FXD INT/CASH",
      "planDefault" : false,
      "planDefPct" : 0.0,
      "redemptionFeePercent" : 0,
      "redemptionFeeDays" : 0,
      "nameShort" : "PBYA",
      "moneyMarketInd" : false,
      "frozen" : false,
      "retired" : false,
      "closed" : false,
      "fromValue" : 0.0,
      "toValue" : 0.0,
      "investmentFootNote" : 0,
      "investmentFootNoteDesc" : null,
      "investmentDisclosureURL": "https://www.ftwcm.oneamerica.com/wps/wcm/connect/rs/Account+Services/Account+Balance/Morningstar+Disclosure?presentationtemplate=Launch%20Download%20In%20Same%20Window",
      "investmentNameShort" : "PBYA"
    }, {
      "id" : "B2",
      "name" : "MFS Val A",
      "minValue" : 66.32,
      "maxValue" : 93314.13,
      "minAllocPercent" : 0.0,
      "maxAllocPercent" : 100.0,
      "currentValue" : 6635.32,
      "reallocValue" : 6635.32,
      "currentPercentByTotalValue" : 7.11,
      "reallocPercentByTotalValue" : 7.11,
      "currentAllocPercent" : 7.11,
      "futureAllocPercent" : 7.11,
      "fundPDFName" : "http://www1.ft.oneamerica.com/account_services/pdfs/fundDescription/factsheet.jpg",
      "minPercentByTotalValue" : 4.0,
      "maxPercentByTotalValue" : 100.0,
      "assetClassName" : "Large-Cap Stocks ",
      "invStyleName" : "Large-Cap Stocks ",
      "employeeMoney" : 0.0,
      "employerMoney" : 0.0,
      "availTransferValue" : 6635.32,
      "availTransferPercent" : 10.0,
      "assetClassValue" : "Large-Cap Stocks",
      "planDefault" : false,
      "planDefPct" : 0.0,
      "redemptionFeePercent" : 0,
      "redemptionFeeDays" : 0,
      "nameShort" : "MFV2",
      "moneyMarketInd" : false,
      "frozen" : false,
      "retired" : false,
      "closed" : false,
      "fromValue" : 0.0,
      "toValue" : 0.0,
      "investmentFootNote" : null,
      "investmentFootNoteDesc" : null,
      "investmentDisclosureURL": "https://www.ftwcm.oneamerica.com/wps/wcm/connect/rs/Account+Services/Account+Balance/Morningstar+Disclosure?presentationtemplate=Launch%20Download%20In%20Same%20Window",
      "investmentNameShort" : "MFV2"
    }, {
      "id" : "C2",
      "name" : "SSgA S&P 500 Indx",
      "minValue" : 142.05,
      "maxValue" : 93314.13,
      "minAllocPercent" : 0.0,
      "maxAllocPercent" : 100.0,
      "currentValue" : 14251.05,
      "reallocValue" : 14251.05,
      "currentPercentByTotalValue" : 15.27,
      "reallocPercentByTotalValue" : 15.27,
      "currentAllocPercent" : 15.27,
      "futureAllocPercent" : 15.27,
      "fundPDFName" : "http://www1.ft.oneamerica.com/account_services/pdfs/fundDescription/factsheet.jpg",
      "minPercentByTotalValue" : 4.0,
      "maxPercentByTotalValue" : 100.0,
      "assetClassName" : "Large-Cap Stocks ",
      "invStyleName" : "Large-Cap Stocks ",
      "employeeMoney" : 0.0,
      "employerMoney" : 0.0,
      "availTransferValue" : 14251.05,
      "availTransferPercent" : 10.0,
      "assetClassValue" : "Large-Cap Stocks",
      "planDefault" : false,
      "planDefPct" : 0.0,
      "redemptionFeePercent" : 0,
      "redemptionFeeDays" : 0,
      "nameShort" : "HINX",
      "moneyMarketInd" : false,
      "frozen" : false,
      "retired" : false,
      "closed" : false,
      "fromValue" : 0.0,
      "toValue" : 0.0,
      "investmentFootNote" : null,
      "investmentFootNoteDesc" : null,
      "investmentDisclosureURL": "https://www.ftwcm.oneamerica.com/wps/wcm/connect/rs/Account+Services/Account+Balance/Morningstar+Disclosure?presentationtemplate=Launch%20Download%20In%20Same%20Window",
      "investmentNameShort" : "HINX"
    }, {
      "id" : "D2",
      "name" : "TRowerPrice Grth Stock Adv",
      "minValue" : 236.98,
      "maxValue" : 93314.13,
      "minAllocPercent" : 0.0,
      "maxAllocPercent" : 100.0,
      "currentValue" : 23652.98,
      "reallocValue" : 23652.98,
      "currentPercentByTotalValue" : 25.35,
      "reallocPercentByTotalValue" : 25.35,
      "currentAllocPercent" : 25.35,
      "futureAllocPercent" : 25.35,
      "fundPDFName" : "http://www1.ft.oneamerica.com/account_services/pdfs/fundDescription/factsheet.jpg",
      "minPercentByTotalValue" : 4.0,
      "maxPercentByTotalValue" : 100.0,
      "assetClassName" : "Large-Cap Stocks ",
      "invStyleName" : "Large-Cap Stocks ",
      "employeeMoney" : 0.0,
      "employerMoney" : 0.0,
      "availTransferValue" : 23652.98,
      "availTransferPercent" : 10.0,
      "assetClassValue" : "Large-Cap Stocks",
      "planDefault" : false,
      "planDefPct" : 0.0,
      "redemptionFeePercent" : 0,
      "redemptionFeeDays" : 0,
      "nameShort" : "TRPS",
      "moneyMarketInd" : false,
      "frozen" : false,
      "retired" : false,
      "closed" : false,
      "fromValue" : 0.0,
      "toValue" : 0.0,
      "investmentFootNote" : null,
      "investmentFootNoteDesc" : null,
      "investmentDisclosureURL": "https://www.ftwcm.oneamerica.com/wps/wcm/connect/rs/Account+Services/Account+Balance/Morningstar+Disclosure?presentationtemplate=Launch%20Download%20In%20Same%20Window",
      "investmentNameShort" : "TRPS"
    }, {
      "id" : "E2",
      "name" : "AmerCent SmCap Val Inv ",
      "minValue" : 46.32,
      "maxValue" : 93314.13,
      "minAllocPercent" : 0.0,
      "maxAllocPercent" : 100.0,
      "currentValue" : 4682.32,
      "reallocValue" : 4682.32,
      "currentPercentByTotalValue" : 5.02,
      "reallocPercentByTotalValue" : 5.02,
      "currentAllocPercent" : 5.02,
      "futureAllocPercent" : 5.02,
      "fundPDFName" : "http://www1.ft.oneamerica.com/account_services/pdfs/fundDescription/factsheet.jpg",
      "minPercentByTotalValue" : 4.0,
      "maxPercentByTotalValue" : 100.0,
      "assetClassName" : "Small-Cap Stocks",
      "invStyleName" : "Small-Cap Stocks",
      "employeeMoney" : 0.0,
      "employerMoney" : 0.0,
      "availTransferValue" : 4682.32,
      "availTransferPercent" : 10.0,
      "assetClassValue" : "Small-Cap Stocks",
      "planDefault" : false,
      "planDefPct" : 0.0,
      "redemptionFeePercent" : 0,
      "redemptionFeeDays" : 0,
      "nameShort" : "ASV2",
      "moneyMarketInd" : false,
      "frozen" : false,
      "retired" : false,
      "closed" : false,
      "fromValue" : 0.0,
      "toValue" : 0.0,
      "investmentFootNote" : null,
      "investmentFootNoteDesc" : null,
      "investmentDisclosureURL": "https://www.ftwcm.oneamerica.com/wps/wcm/connect/rs/Account+Services/Account+Balance/Morningstar+Disclosure?presentationtemplate=Launch%20Download%20In%20Same%20Window",
      "investmentNameShort" : "ASV2"
    }, {
      "id" : "F2",
      "name" : "Templeton Foreign A",
      "minValue" : 152.24,
      "maxValue" : 93314.13,
      "minAllocPercent" : 0.0,
      "maxAllocPercent" : 100.0,
      "currentValue" : 15254.24,
      "reallocValue" : 15254.24,
      "currentPercentByTotalValue" : 16.35,
      "reallocPercentByTotalValue" : 16.35,
      "currentAllocPercent" : 16.35,
      "futureAllocPercent" : 16.35,
      "fundPDFName" : "http://www1.ft.oneamerica.com/account_services/pdfs/fundDescription/factsheet.jpg",
      "minPercentByTotalValue" : 4.0,
      "maxPercentByTotalValue" : 100.0,
      "assetClassName" : "Foreign Value",
      "invStyleName" : "Foreign Value",
      "employeeMoney" : 0.0,
      "employerMoney" : 0.0,
      "availTransferValue" : 15254.24,
      "availTransferPercent" : 10.0,
      "assetClassValue" : "Foreign Value",
      "planDefault" : false,
      "planDefPct" : 0.0,
      "redemptionFeePercent" : 0,
      "redemptionFeeDays" : 0,
      "nameShort" : "TMAA",
      "moneyMarketInd" : false,
      "frozen" : false,
      "retired" : false,
      "closed" : false,
      "fromValue" : 0.0,
      "toValue" : 0.0,
      "investmentFootNote" : null,
      "investmentFootNoteDesc" : null,
      "investmentDisclosureURL": "https://www.ftwcm.oneamerica.com/wps/wcm/connect/rs/Account+Services/Account+Balance/Morningstar+Disclosure?presentationtemplate=Launch%20Download%20In%20Same%20Window",
      "investmentNameShort" : "TMAA"
    }, {
      "id" : "G2",
      "name" : "Oppenheimer Intl Growth Y",
      "minValue" : 75.32,
      "maxValue" : 93314.13,
      "minAllocPercent" : 0.0,
      "maxAllocPercent" : 100.0,
      "currentValue" : 7581.32,
      "reallocValue" : 7581.32,
      "currentPercentByTotalValue" : 8.12,
      "reallocPercentByTotalValue" : 8.12,
      "currentAllocPercent" : 8.12,
      "futureAllocPercent" : 8.12,
      "fundPDFName" : "http://www1.ft.oneamerica.com/account_services/pdfs/fundDescription/factsheet.jpg",
      "minPercentByTotalValue" : 4.0,
      "maxPercentByTotalValue" : 100.0,
      "assetClassName" : "Foreign Growth",
      "invStyleName" : "Foreign Growth",
      "employeeMoney" : 0.0,
      "employerMoney" : 0.0,
      "availTransferValue" : 7581.32,
      "availTransferPercent" : 10.0,
      "assetClassValue" : "Foreign Growth",
      "planDefault" : false,
      "planDefPct" : 0.0,
      "redemptionFeePercent" : 0,
      "redemptionFeeDays" : 0,
      "nameShort" : "OIGY",
      "moneyMarketInd" : false,
      "frozen" : false,
      "retired" : false,
      "closed" : false,
      "fromValue" : 0.0,
      "toValue" : 0.0,
      "investmentFootNote" : null,
      "investmentFootNoteDesc" : null,
      "investmentDisclosureURL": "https://www.ftwcm.oneamerica.com/wps/wcm/connect/rs/Account+Services/Account+Balance/Morningstar+Disclosure?presentationtemplate=Launch%20Download%20In%20Same%20Window",
      "investmentNameShort" : "OIGY"
    }],
    "footNotes" : { },
    "harrisTrustImportantNotice" : "Transfers back into the Fixed Interest Account are allowed only after 90 days have elapsed since your last transfer from the Fixed Interest Account.",
    "generalDisclaimers": [ ],
    "americanFundImportantNotice" : "Any shareholder redeeming shares with a value of $5,000 or more from an American Fund will be precluded from investing in that fund until 30 calendar days have elapsed since the date of the redemption transaction.",
    "allocatedInvestmentSources" : [ {
      "allocatedInvestmentId" : "I2",
      "allocatedInvestmentName" : "AUL Stable Value Account",
      "allocatedInvestmentShortName": "STVL"
    } ],
    "stopYears" : [ 2014, 2015, 2016, 2017, 2018, 2019, 2020, 2021, 2022, 2023, 2024 ]
  } ],
  "count" : 1,
  "errors" : null,
  "errorCount" : 0
}