{
    "items":      [
        {
            "accountConfig" : {
                "allowAddressChange" : true,
                "allowTransfer" : true,
                "allowElectionChange" : true,
                "allowMyInvestments" : true,
                "allowElectionChangeAllocation" : true,
                "allowReports" : true,
                "allowInvestmentEducation" : true,
                "allowLoans" : true,
                "allowLoanCalculator" : true,
                "allowSubmitLoan" : true,
                "allowLoanSummary" : false,
                "allowLoanSpec" : false,
                "allowDeferralChange" : true,
                "allowRIA" : false,
                "allowAdvicePlus" : true,
                "allowPronVest" : false,
                "managedPronVest" : false,
		"allowSelfDirected" : false,
                "allowPlanSummary" : true,
                "participantHasLoans" : false,

                "allowXferStatus" : true,
                "allowRecurringXferStatus": true,

                "enrollmentNeeded" : false,
                "plan403b" : true,
                "fixedFundOnlyPlan" : false,
                "riaAdvisorFeature" : true,
                "hasRiaInvestmentModels" : false
            },
            "accountBalance":       961933.99,
            "asOfDate":             "2013-10-04T14:58:11.232-0400",
            "planEffectiveDate" : "2013-03-01T00:00:00.000-0500",
            "prrQuarterly":         0.71,
            "prrYearly":            14.69,
            "participantStatus":    "Active",
            "riaAdvisorModelName":  "RIA MODEL TEST",
            "riaAdvisorModelId":    "5779600072",
            "adviceServiceName":    null,
            "adviceServiceURL":     null,
            "selfDirectedURL" : null,
            "selfDirectedName" : null,
            "prrQuarterlyFromDate": "2013-07-04T14:58:11.232-0400",
            "prrToDate":            "2013-10-04T14:58:11.232-0400",
            "prrYearlyFromDate":    "2012-10-04T14:58:11.232-0400",
            "advisors":             [
                {
                    "address1":       "8151 CLAYTON ROAD STE 200",
                    "address2":       "",
                    "address3":       "",
                    "advisorMessage": null,
                    "city":           "ST LOUIS",
                    "description":    null,
                    "emailAddress":   null,
                    "fax":            "123-456-7890",
                    "fullName":       "R T JONES CAPITAL EQUITIES INC",
                    "logoImageURL":   "/secure/rest/advisor/images?imageId=4",
                    "phone":          "314-993-2424",
                    "photoCptn":      "",
                    "photoImageURL":  "/secure/rest/advisor/images?imageId=3",
                    "signupURL":      "https://www.artesysonline.com/signmeup.aspx",
                    "state":          "MO",
                    "statusActive":   true,
                    "statusAwaiting": false,
                    "statusDefault":  false,
                    "statusName":     "ACTIVE",
                    "statusPending":  false,
                    "statusReason":   null,
                    "websiteURL":     "http://www.artesysonline.com",
                    "zip":            "63117"
                }
            ],
            "investments":          [
                {
                    "investmentId":            "12",
                    "investmentName":          "AUL Fixed Account",
                    "assetClassName":          "Fix Int/Stable Value/Cash",
                    "assetClassValue":         "FXD INT/CASH",
                    "investmentStyle":         "Fix Int/Stable Value",
                    "investmentSheetURL":      "https://www1.ft.oneamerica.com/account_services/pdfs/fundDescription/R-13396.pdf",
                    "investmentDisclosureURL": "https://www.ftwcm.oneamerica.com/wps/wcm/connect/a771c88048e361e29f60dfd2bcb531ef/AUL+VA+English+disclosure.pdf?MOD=AJPERES&CACHEID=a771c88048e361e29f60dfd2bcb531ef",
                    "value":                   608979.22,
                    "percentByTotalValue":     100.0,
                    "frozen":                  false,
                    "retired":                 false,
                    "units":                   0.0,
                    "sources":                 [
                        {
                            "name":  "ER Match",
                            "value": 25085.29
                        },
                        {
                            "name":  "Employer",
                            "value": 62525.71
                        },
                        {
                            "name":  "Rollover",
                            "value": 521368.22
                        }
                    ]
                },
                {
                    "assetClassName":          "Balanced",
                    "frozen":                  false,
                    "investmentDisclosureURL": "https://www.ftwcm.oneamerica.com/wps/wcm/connect/a771c88048e361e29f60dfd2bcb531ef/AUL+VA+English+disclosure.pdf?MOD=AJPERES&CACHEID=a771c88048e361e29f60dfd2bcb531ef",
                    "investmentId":            "PW",
                    "investmentName":          "Russell LP Mod R1",
                    "investmentSheetURL":      "https://www1.ft.oneamerica.com/account_services/pdfs/fundDescription/R-17027N.pdf",
                    "investmentStyle":         "Balanced",
                    "percentByTotalValue":     0.0,
                    "retired":                 false,
                    "sources":                 [
                        {
                            "name":  "ER Match",
                            "value": 113688.59
                        },
                        {
                            "name":  "401k Deferral",
                            "value": 186185.73
                        }
                    ],
                    "units":                   201069.0089,
                    "value":                   299874.32
                },
                {
                    "assetClassName":          "Large-Cap Stocks",
                    "frozen":                  false,
                    "investmentDisclosureURL": "https://www.ftwcm.oneamerica.com/wps/wcm/connect/a771c88048e361e29f60dfd2bcb531ef/AUL+VA+English+disclosure.pdf?MOD=AJPERES&CACHEID=a771c88048e361e29f60dfd2bcb531ef",
                    "investmentId":            "A2",
                    "investmentName":          "One America Val O",
                    "investmentSheetURL":      "https://www1.ft.oneamerica.com/account_services/pdfs/fundDescription/R-156712N.pdf",
                    "investmentStyle":         "Large-Cap Stocks",
                    "percentByTotalValue":     0.0,
                    "retired":                 false,
                    "sources":                 [
                        {
                            "name":  "ER Match",
                            "value": 8000.0
                        },
                        {
                            "name":  "401k Deferral",
                            "value": 4277.2
                        }
                    ],
                    "units":                   1818.0629,
                    "value":                   12277.2
                },
                {
                    "assetClassName":          "Large-Cap Stocks",
                    "frozen":                  false,
                    "investmentDisclosureURL": "https://www.ftwcm.oneamerica.com/wps/wcm/connect/a771c88048e361e29f60dfd2bcb531ef/AUL+VA+English+disclosure.pdf?MOD=AJPERES&CACHEID=a771c88048e361e29f60dfd2bcb531ef",
                    "investmentId":            "X1",
                    "investmentName":          "SSgA S&P 500 Indx F",
                    "investmentSheetURL":      "https://www1.ft.oneamerica.com/account_services/pdfs/fundDescription/R-156712N.pdf",
                    "investmentStyle":         "Large-Cap Stocks",
                    "percentByTotalValue":     0.0,
                    "retired":                 false,
                    "sources":                 [
                        {
                            "name":  "ER Match",
                            "value": 290.67
                        }
                    ],
                    "units":                   71.1973,
                    "value":                   290.67
                },
                {
                    "assetClassName":          "Large-Cap Stocks",
                    "frozen":                  false,
                    "investmentDisclosureURL": "https://www.ftwcm.oneamerica.com/wps/wcm/connect/a771c88048e361e29f60dfd2bcb531ef/AUL+VA+English+disclosure.pdf?MOD=AJPERES&CACHEID=a771c88048e361e29f60dfd2bcb531ef",
                    "investmentId":            "36",
                    "investmentName":          "Thornburg Core Grth",
                    "investmentSheetURL":      "https://www1.ft.oneamerica.com/account_services/pdfs/fundDescription/R-156712N.pdf",
                    "investmentStyle":         "Large-Cap Stocks",
                    "percentByTotalValue":     0.0,
                    "retired":                 false,
                    "sources":                 [
                        {
                            "name":  "ER Match",
                            "value": 1.0
                        }
                    ],
                    "units":                   0.0,
                    "value":                   1.0
                },
                {
                    "assetClassName":          "Mid-Cap Stocks",
                    "frozen":                  false,
                    "investmentDisclosureURL": "https://www.ftwcm.oneamerica.com/wps/wcm/connect/a771c88048e361e29f60dfd2bcb531ef/AUL+VA+English+disclosure.pdf?MOD=AJPERES&CACHEID=a771c88048e361e29f60dfd2bcb531ef",
                    "investmentId":            "J8",
                    "investmentName":          "Janus Asp Perkins MidCap ValS",
                    "investmentSheetURL":      "https://www1.ft.oneamerica.com/account_services/pdfs/fundDescription/R-19055.pdf",
                    "investmentStyle":         "Mid Cap Value",
                    "percentByTotalValue":     0.0,
                    "retired":                 false,
                    "sources":                 [
                        {
                            "name":  "ER Match",
                            "value": 11410.63
                        }
                    ],
                    "units":                   8268.5076,
                    "value":                   11410.63
                },
                {
                    "assetClassName":          "Foreign Stocks",
                    "frozen":                  false,
                    "investmentDisclosureURL": "https://www.ftwcm.oneamerica.com/wps/wcm/connect/a771c88048e361e29f60dfd2bcb531ef/AUL+VA+English+disclosure.pdf?MOD=AJPERES&CACHEID=a771c88048e361e29f60dfd2bcb531ef",
                    "investmentId":            "8B",
                    "investmentName":          "AmerFds EuroPac Grth R4",
                    "investmentSheetURL":      "https://www1.ft.oneamerica.com/account_services/pdfs/fundDescription/R-19057.pdf",
                    "investmentStyle":         "Foreign Blend",
                    "percentByTotalValue":     0.0,
                    "retired":                 false,
                    "sources":                 [
                        {
                            "name":  "ER Match",
                            "value": 9498.11
                        }
                    ],
                    "units":                   8964.5145,
                    "value":                   9498.11
                },
                {
                    "assetClassName":          "Managed Asset Allocation",
                    "frozen":                  false,
                    "investmentDisclosureURL": "https://www.ftwcm.oneamerica.com/wps/wcm/connect/a771c88048e361e29f60dfd2bcb531ef/AUL+VA+English+disclosure.pdf?MOD=AJPERES&CACHEID=a771c88048e361e29f60dfd2bcb531ef",
                    "investmentId":            "PL",
                    "investmentName":          "Russell LP 2020 Strat Fd R1",
                    "investmentSheetURL":      "https://www1.ft.oneamerica.com/account_services/pdfs/fundDescription/R-22947.pdf",
                    "investmentStyle":         "Mgd Asset - Allocation",
                    "percentByTotalValue":     0.0,
                    "retired":                 false,
                    "sources":                 [
                        {
                            "name":  "ER Match",
                            "value": 19602.84
                        }
                    ],
                    "units":                   13044.012,
                    "value":                   19602.84
                }
            ]
        }
    ],
    "count":      1,
    "errors":     null,
    "errorCount": 0
}
