{
    "account":    {
        "excludedPolicyPlan": false,
        "adminSystemId":      "OMNI",
        "affiliate":          "AUL",
        "divisionId":         "PEN",
        "name":               "SINGLE ACCOUNT WITHOUT LOAN RETIREMENT PLAN",
        "number":             "O30889",
        "homePlan":           false
    },
    "items":      [
        {
            "accountConfig" : {
                "allowAddressChange" : true,
                "allowTransfer" : true,
                "allowElectionChange" : true,
                "allowReports" : true,
                "allowInvestmentEducation" : true,
                "allowLoans" : false,
                "allowDeferralChange" : false,
                "allowRIA" : false,
                "allowAdvicePlus" : false,
                "allowPronVest" : false,
                "managedPronVest" : false,
		"allowSelfDirected" : false,
                "allowPlanSummary" : true,
                "participantHasLoans" : true,

                "allowXferStatus" : true,

                "enrollmentNeeded" : false,
                "plan403b" : false,
                "fixedFundOnlyPlan" : false,
                "riaAdvisorFeature" : false,
                "hasRiaInvestmentModels" : false
            },
            "accountBalance":       8701.15,
            "asOfDate":             "2013-10-04T14:58:11.232-0400",
            "participantStatus":    " Active",
            "prrQuarterly":         0.0,
            "prrYearly":            0.0,
            "riaAdvisorModelId":    null,
            "riaAdvisorModelName":  null,
            "adviceServiceName":    null,
            "adviceServiceURL":     null,
            "selfDirectedURL" :     null,
            "selfDirectedName" :    null,
            "prrQuarterlyFromDate": null,
            "prrToDate":            null,
            "prrYearlyFromDate":    null,
            "advisors":             null,
            "investments":          [
                {
                    "investmentId":            "A4",
                    "investmentName":          "OneAmerica Money Mkt O",
                    "assetClassName":          "Fix Int/Stable Value/Cash",
                    "assetClassValue":         "FXD INT/CASH",
                    "investmentStyle":         "Cash",
                    "investmentSheetURL":      "http://www1.ft.oneamerica.com/account_services/pdfs/fundDescription/R-13296N.pdf",
                    "investmentDisclosureURL": "https://www.ftwcm.oneamerica.com/wps/wcm/connect/a771c88048e361e29f60dfd2bcb531ef/AUL+VA+English+disclosure.pdf?MOD=AJPERES&CACHEID=a771c88048e361e29f60dfd2bcb531ef",
                    "value":                   224.9,
                    "percentByTotalValue":     2.0,
                    "frozen":                  false,
                    "retired":                 false,
                    "units":                   150.5945,
                    "sources":                 [
                        {
                            "name":  "EMPLOYER",
                            "value": 0.0
                        },
                        {
                            "name":  "MANDATORY",
                            "value": 84.34
                        },
                        {
                            "name":  "EMPLOYER MATCH",
                            "value": 140.56
                        }
                    ]
                },
                {
                    "assetClassName":          "Short-Term Bonds",
                    "assetClassValue":         "SHRT TRM BND",
                    "frozen":                  false,
                    "investmentDisclosureURL": "https://www.ftwcm.oneamerica.com/wps/wcm/connect/a771c88048e361e29f60dfd2bcb531ef/AUL+VA+English+disclosure.pdf?MOD=AJPERES&CACHEID=a771c88048e361e29f60dfd2bcb531ef",
                    "investmentId":            "V1",
                    "investmentName":          "Vanguard ST Federal Inv",
                    "investmentSheetURL":      "http://www1.ft.oneamerica.com/account_services/pdfs/fundDescription/R-13591N.pdf",
                    "investmentStyle":         "Short Term Govt Bond",
                    "percentByTotalValue":     2.0,
                    "retired":                 false,
                    "sources":                 [
                        {
                            "name":  "EMPLOYER",
                            "value": 0.0
                        },
                        {
                            "name":  "MANDATORY",
                            "value": 84.51
                        },
                        {
                            "name":  "EMPLOYER MATCH",
                            "value": 140.86
                        }
                    ],
                    "units":                   122.5284,
                    "value":                   225.37
                },
                {
                    "assetClassName":          "Intermediate-Term Bonds",
                    "assetClassValue":         "INTERM BOND",
                    "frozen":                  false,
                    "investmentDisclosureURL": "https://www.ftwcm.oneamerica.com/wps/wcm/connect/a771c88048e361e29f60dfd2bcb531ef/AUL+VA+English+disclosure.pdf?MOD=AJPERES&CACHEID=a771c88048e361e29f60dfd2bcb531ef",
                    "investmentId":            "MR",
                    "investmentName":          "AmerCent Infl-Adj Bond A",
                    "investmentSheetURL":      "http://www1.ft.oneamerica.com/account_services/pdfs/fundDescription/R-17310N.pdf",
                    "investmentStyle":         "Inflation Protected B",
                    "percentByTotalValue":     5.0,
                    "retired":                 false,
                    "sources":                 [
                        {
                            "name":  "EMPLOYER",
                            "value": 0.0
                        },
                        {
                            "name":  "MANDATORY",
                            "value": 157.16
                        },
                        {
                            "name":  "EMPLOYER MATCH",
                            "value": 261.94
                        }
                    ],
                    "units":                   306.8318,
                    "value":                   419.1
                },
                {
                    "assetClassName":          "Intermediate-Term Bonds",
                    "assetClassValue":         "INTERM BOND",
                    "frozen":                  false,
                    "investmentDisclosureURL": "https://www.ftwcm.oneamerica.com/wps/wcm/connect/a771c88048e361e29f60dfd2bcb531ef/AUL+VA+English+disclosure.pdf?MOD=AJPERES&CACHEID=a771c88048e361e29f60dfd2bcb531ef",
                    "investmentId":            "J1",
                    "investmentName":          "Janus Asp Flexible Bond Inst",
                    "investmentSheetURL":      "http://www1.ft.oneamerica.com/account_services/pdfs/fundDescription/R-14129N.pdf",
                    "investmentStyle":         "Int Term Bond",
                    "percentByTotalValue":     3.0,
                    "retired":                 false,
                    "sources":                 [
                        {
                            "name":  "EMPLOYER",
                            "value": 0.0
                        },
                        {
                            "name":  "MANDATORY",
                            "value": 86.6
                        },
                        {
                            "name":  "EMPLOYER MATCH",
                            "value": 144.34
                        }
                    ],
                    "units":                   99.0016,
                    "value":                   230.94
                },
                {
                    "assetClassName":          "Intermediate-Term Bonds",
                    "assetClassValue":         "INTERM BOND",
                    "frozen":                  false,
                    "investmentDisclosureURL": "https://www.ftwcm.oneamerica.com/wps/wcm/connect/a771c88048e361e29f60dfd2bcb531ef/AUL+VA+English+disclosure.pdf?MOD=AJPERES&CACHEID=a771c88048e361e29f60dfd2bcb531ef",
                    "investmentId":            "QG",
                    "investmentName":          "PIMCO Total Return Adm",
                    "investmentSheetURL":      "http://www1.ft.oneamerica.com/account_services/pdfs/fundDescription/R-19442.pdf",
                    "investmentStyle":         "Int Term Bond",
                    "percentByTotalValue":     8.0,
                    "retired":                 false,
                    "sources":                 [
                        {
                            "name":  "EMPLOYER",
                            "value": 0.0
                        },
                        {
                            "name":  "MANDATORY",
                            "value": 254.28
                        },
                        {
                            "name":  "EMPLOYER MATCH",
                            "value": 423.85
                        }
                    ],
                    "units":                   472.6212,
                    "value":                   678.13
                },
                {
                    "assetClassName":          "Intermediate-Term Bonds",
                    "assetClassValue":         "INTERM BOND",
                    "frozen":                  false,
                    "investmentDisclosureURL": "https://www.ftwcm.oneamerica.com/wps/wcm/connect/a771c88048e361e29f60dfd2bcb531ef/AUL+VA+English+disclosure.pdf?MOD=AJPERES&CACHEID=a771c88048e361e29f60dfd2bcb531ef",
                    "investmentId":            "W1",
                    "investmentName":          "Franklin Strat Inc R3",
                    "investmentSheetURL":      "http://www1.ft.oneamerica.com/account_services/pdfs/fundDescription/R-16078N.pdf",
                    "investmentStyle":         "Multisector Bond",
                    "percentByTotalValue":     1.0,
                    "retired":                 false,
                    "sources":                 [
                        {
                            "name":  "EMPLOYER",
                            "value": 0.0
                        },
                        {
                            "name":  "MANDATORY",
                            "value": 29.73
                        },
                        {
                            "name":  "EMPLOYER MATCH",
                            "value": 49.57
                        }
                    ],
                    "units":                   46.5704,
                    "value":                   79.3
                },
                {
                    "assetClassName":          "Intermediate-Term Bonds",
                    "assetClassValue":         "INTERM BOND",
                    "frozen":                  false,
                    "investmentDisclosureURL": "https://www.ftwcm.oneamerica.com/wps/wcm/connect/a771c88048e361e29f60dfd2bcb531ef/AUL+VA+English+disclosure.pdf?MOD=AJPERES&CACHEID=a771c88048e361e29f60dfd2bcb531ef",
                    "investmentId":            "63",
                    "investmentName":          "Oppenheimer Intl Bond Fd N",
                    "investmentSheetURL":      "http://www1.ft.oneamerica.com/account_services/pdfs/fundDescription/R-17914.pdf",
                    "investmentStyle":         "World Bond",
                    "percentByTotalValue":     3.0,
                    "retired":                 false,
                    "sources":                 [
                        {
                            "name":  "EMPLOYER",
                            "value": 0.0
                        },
                        {
                            "name":  "MANDATORY",
                            "value": 85.34
                        },
                        {
                            "name":  "EMPLOYER MATCH",
                            "value": 142.23
                        }
                    ],
                    "units":                   159.4749,
                    "value":                   227.57
                },
                {
                    "assetClassName":          "High Yield Bonds",
                    "assetClassValue":         "HIGH YLD BND",
                    "frozen":                  false,
                    "investmentDisclosureURL": "https://www.ftwcm.oneamerica.com/wps/wcm/connect/a771c88048e361e29f60dfd2bcb531ef/AUL+VA+English+disclosure.pdf?MOD=AJPERES&CACHEID=a771c88048e361e29f60dfd2bcb531ef",
                    "investmentId":            "Q1",
                    "investmentName":          "PIMCO High Yield Adm",
                    "investmentSheetURL":      "http://www1.ft.oneamerica.com/account_services/pdfs/fundDescription/R-15430N.pdf",
                    "investmentStyle":         "High Yield Bond",
                    "percentByTotalValue":     7.0,
                    "retired":                 false,
                    "sources":                 [
                        {
                            "name":  "EMPLOYER",
                            "value": 0.0
                        },
                        {
                            "name":  "MANDATORY",
                            "value": 230.64
                        },
                        {
                            "name":  "EMPLOYER MATCH",
                            "value": 384.44
                        }
                    ],
                    "units":                   296.331,
                    "value":                   615.08
                },
                {
                    "assetClassName":          "Balanced",
                    "assetClassValue":         "BALANCED",
                    "frozen":                  false,
                    "investmentDisclosureURL": "https://www.ftwcm.oneamerica.com/wps/wcm/connect/a771c88048e361e29f60dfd2bcb531ef/AUL+VA+English+disclosure.pdf?MOD=AJPERES&CACHEID=a771c88048e361e29f60dfd2bcb531ef",
                    "investmentId":            "E6",
                    "investmentName":          "Fidelity VIP Asset Mngr Inst",
                    "investmentSheetURL":      "http://www1.ft.oneamerica.com/account_services/pdfs/fundDescription/R-13299N.pdf",
                    "investmentStyle":         "Balanced",
                    "percentByTotalValue":     2.0,
                    "retired":                 false,
                    "sources":                 [
                        {
                            "name":  "EMPLOYER",
                            "value": 0.0
                        },
                        {
                            "name":  "MANDATORY",
                            "value": 78.42
                        },
                        {
                            "name":  "EMPLOYER MATCH",
                            "value": 130.71
                        }
                    ],
                    "units":                   71.2852,
                    "value":                   209.13
                },
                {
                    "assetClassName":          "Balanced",
                    "assetClassValue":         "BALANCED",
                    "frozen":                  false,
                    "investmentDisclosureURL": "https://www.ftwcm.oneamerica.com/wps/wcm/connect/a771c88048e361e29f60dfd2bcb531ef/AUL+VA+English+disclosure.pdf?MOD=AJPERES&CACHEID=a771c88048e361e29f60dfd2bcb531ef",
                    "investmentId":            "V6",
                    "investmentName":          "Man&Nap Pro-Blend Consv S",
                    "investmentSheetURL":      "http://www1.ft.oneamerica.com/account_services/pdfs/fundDescription/R-18696.pdf",
                    "investmentStyle":         "Balanced",
                    "percentByTotalValue":     1.0,
                    "retired":                 false,
                    "sources":                 [
                        {
                            "name":  "EMPLOYER",
                            "value": 0.0
                        },
                        {
                            "name":  "MANDATORY",
                            "value": 29.96
                        },
                        {
                            "name":  "EMPLOYER MATCH",
                            "value": 49.93
                        }
                    ],
                    "units":                   59.3815,
                    "value":                   79.89
                },
                {
                    "assetClassName":          "Balanced",
                    "assetClassValue":         "BALANCED",
                    "frozen":                  false,
                    "investmentDisclosureURL": "https://www.ftwcm.oneamerica.com/wps/wcm/connect/a771c88048e361e29f60dfd2bcb531ef/AUL+VA+English+disclosure.pdf?MOD=AJPERES&CACHEID=a771c88048e361e29f60dfd2bcb531ef",
                    "investmentId":            "V7",
                    "investmentName":          "Man&Nap Pro-Blend Ext Term S",
                    "investmentSheetURL":      "http://www1.ft.oneamerica.com/account_services/pdfs/fundDescription/R-18700.pdf",
                    "investmentStyle":         "Balanced",
                    "percentByTotalValue":     4.0,
                    "retired":                 false,
                    "sources":                 [
                        {
                            "name":  "EMPLOYER",
                            "value": 0.0
                        },
                        {
                            "name":  "MANDATORY",
                            "value": 120.68
                        },
                        {
                            "name":  "EMPLOYER MATCH",
                            "value": 201.13
                        }
                    ],
                    "units":                   241.497,
                    "value":                   321.81
                },
                {
                    "assetClassName":          "Balanced",
                    "assetClassValue":         "BALANCED",
                    "frozen":                  false,
                    "investmentDisclosureURL": "https://www.ftwcm.oneamerica.com/wps/wcm/connect/a771c88048e361e29f60dfd2bcb531ef/AUL+VA+English+disclosure.pdf?MOD=AJPERES&CACHEID=a771c88048e361e29f60dfd2bcb531ef",
                    "investmentId":            "V9",
                    "investmentName":          "Man&Nap Pro-Blend Mod Term S",
                    "investmentSheetURL":      "http://www1.ft.oneamerica.com/account_services/pdfs/fundDescription/R-18708.pdf",
                    "investmentStyle":         "Balanced",
                    "percentByTotalValue":     6.0,
                    "retired":                 false,
                    "sources":                 [
                        {
                            "name":  "EMPLOYER",
                            "value": 0.0
                        },
                        {
                            "name":  "MANDATORY",
                            "value": 211.44
                        },
                        {
                            "name":  "EMPLOYER MATCH",
                            "value": 352.44
                        }
                    ],
                    "units":                   431.7692,
                    "value":                   563.88
                },
                {
                    "assetClassName":          "Balanced",
                    "assetClassValue":         "BALANCED",
                    "frozen":                  false,
                    "investmentDisclosureURL": "https://www.ftwcm.oneamerica.com/wps/wcm/connect/a771c88048e361e29f60dfd2bcb531ef/AUL+VA+English+disclosure.pdf?MOD=AJPERES&CACHEID=a771c88048e361e29f60dfd2bcb531ef",
                    "investmentId":            "A3",
                    "investmentName":          "OneAmerica Asset Director O",
                    "investmentSheetURL":      "http://www1.ft.oneamerica.com/account_services/pdfs/fundDescription/R-13294N.pdf",
                    "investmentStyle":         "Balanced",
                    "percentByTotalValue":     4.0,
                    "retired":                 false,
                    "sources":                 [
                        {
                            "name":  "EMPLOYER",
                            "value": 0.0
                        },
                        {
                            "name":  "MANDATORY",
                            "value": 122.88
                        },
                        {
                            "name":  "EMPLOYER MATCH",
                            "value": 204.8
                        }
                    ],
                    "units":                   58.2563,
                    "value":                   327.68
                },
                {
                    "assetClassName":          "Large-Cap Stocks",
                    "assetClassValue":         "LRGE CAP EQU",
                    "frozen":                  false,
                    "investmentDisclosureURL": "https://www.ftwcm.oneamerica.com/wps/wcm/connect/a771c88048e361e29f60dfd2bcb531ef/AUL+VA+English+disclosure.pdf?MOD=AJPERES&CACHEID=a771c88048e361e29f60dfd2bcb531ef",
                    "investmentId":            "M7",
                    "investmentName":          "AmerCent Eqty Inc Inv",
                    "investmentSheetURL":      "http://www1.ft.oneamerica.com/account_services/pdfs/fundDescription/R-15173N.pdf",
                    "investmentStyle":         "Large Cap Value",
                    "percentByTotalValue":     3.0,
                    "retired":                 false,
                    "sources":                 [
                        {
                            "name":  "EMPLOYER",
                            "value": 0.0
                        },
                        {
                            "name":  "MANDATORY",
                            "value": 87.36
                        },
                        {
                            "name":  "EMPLOYER MATCH",
                            "value": 145.59
                        }
                    ],
                    "units":                   107.9391,
                    "value":                   232.95
                },
                {
                    "assetClassName":          "Large-Cap Stocks",
                    "assetClassValue":         "LRGE CAP EQU",
                    "frozen":                  false,
                    "investmentDisclosureURL": "https://www.ftwcm.oneamerica.com/wps/wcm/connect/a771c88048e361e29f60dfd2bcb531ef/AUL+VA+English+disclosure.pdf?MOD=AJPERES&CACHEID=a771c88048e361e29f60dfd2bcb531ef",
                    "investmentId":            "E1",
                    "investmentName":          "Fidelity VIP Eqty-Inc Inst",
                    "investmentSheetURL":      "http://www1.ft.oneamerica.com/account_services/pdfs/fundDescription/R-13593N.pdf",
                    "investmentStyle":         "Large Cap Value",
                    "percentByTotalValue":     9.0,
                    "retired":                 false,
                    "sources":                 [
                        {
                            "name":  "EMPLOYER",
                            "value": 0.0
                        },
                        {
                            "name":  "MANDATORY",
                            "value": 310.96
                        },
                        {
                            "name":  "EMPLOYER MATCH",
                            "value": 518.22
                        }
                    ],
                    "units":                   246.4772,
                    "value":                   829.18
                },
                {
                    "assetClassName":          "Large-Cap Stocks",
                    "assetClassValue":         "LRGE CAP EQU",
                    "frozen":                  false,
                    "investmentDisclosureURL": "https://www.ftwcm.oneamerica.com/wps/wcm/connect/a771c88048e361e29f60dfd2bcb531ef/AUL+VA+English+disclosure.pdf?MOD=AJPERES&CACHEID=a771c88048e361e29f60dfd2bcb531ef",
                    "investmentId":            "A2",
                    "investmentName":          "OneAmerica Val O",
                    "investmentSheetURL":      "http://www1.ft.oneamerica.com/account_services/pdfs/fundDescription/R-13293N.pdf",
                    "investmentStyle":         "Large Cap Value",
                    "percentByTotalValue":     12.0,
                    "retired":                 false,
                    "sources":                 [
                        {
                            "name":  "EMPLOYER",
                            "value": 0.0
                        },
                        {
                            "name":  "MANDATORY",
                            "value": 400.05
                        },
                        {
                            "name":  "EMPLOYER MATCH",
                            "value": 666.8
                        }
                    ],
                    "units":                   146.1435,
                    "value":                   1066.85
                },
                {
                    "assetClassName":          "Large-Cap Stocks",
                    "assetClassValue":         "LRGE CAP EQU",
                    "frozen":                  false,
                    "investmentDisclosureURL": "https://www.ftwcm.oneamerica.com/wps/wcm/connect/a771c88048e361e29f60dfd2bcb531ef/AUL+VA+English+disclosure.pdf?MOD=AJPERES&CACHEID=a771c88048e361e29f60dfd2bcb531ef",
                    "investmentId":            "T1",
                    "investmentName":          "TRowePrice Eqty Inc Ins",
                    "investmentSheetURL":      "http://www1.ft.oneamerica.com/account_services/pdfs/fundDescription/R-13589N.pdf",
                    "investmentStyle":         "Large Cap Value",
                    "percentByTotalValue":     12.0,
                    "retired":                 false,
                    "sources":                 [
                        {
                            "name":  "EMPLOYER",
                            "value": 0.0
                        },
                        {
                            "name":  "MANDATORY",
                            "value": 390.25
                        },
                        {
                            "name":  "EMPLOYER MATCH",
                            "value": 650.46
                        }
                    ],
                    "units":                   254.267,
                    "value":                   1040.71
                },
                {
                    "assetClassName":          "Large-Cap Stocks",
                    "assetClassValue":         "LRGE CAP EQU",
                    "frozen":                  false,
                    "investmentDisclosureURL": "https://www.ftwcm.oneamerica.com/wps/wcm/connect/a771c88048e361e29f60dfd2bcb531ef/AUL+VA+English+disclosure.pdf?MOD=AJPERES&CACHEID=a771c88048e361e29f60dfd2bcb531ef",
                    "investmentId":            "E8",
                    "investmentName":          "Fidelity VIP ContraFd Inst",
                    "investmentSheetURL":      "http://www1.ft.oneamerica.com/account_services/pdfs/fundDescription/R-13595N.pdf",
                    "investmentStyle":         "Large Cap Blend",
                    "percentByTotalValue":     5.0,
                    "retired":                 false,
                    "sources":                 [
                        {
                            "name":  "EMPLOYER",
                            "value": 0.0
                        },
                        {
                            "name":  "MANDATORY",
                            "value": 153.81
                        },
                        {
                            "name":  "EMPLOYER MATCH",
                            "value": 256.35
                        }
                    ],
                    "units":                   78.3731,
                    "value":                   410.16
                },
                {
                    "assetClassName":          "Large-Cap Stocks",
                    "assetClassValue":         "LRGE CAP EQU",
                    "frozen":                  false,
                    "investmentDisclosureURL": "https://www.ftwcm.oneamerica.com/wps/wcm/connect/a771c88048e361e29f60dfd2bcb531ef/AUL+VA+English+disclosure.pdf?MOD=AJPERES&CACHEID=a771c88048e361e29f60dfd2bcb531ef",
                    "investmentId":            "X1",
                    "investmentName":          "SSgA S&P 500 Indx F",
                    "investmentSheetURL":      "http://www1.ft.oneamerica.com/account_services/pdfs/fundDescription/R-13298N.pdf",
                    "investmentStyle":         "Large Cap Blend",
                    "percentByTotalValue":     4.0,
                    "retired":                 false,
                    "sources":                 [
                        {
                            "name":  "EMPLOYER",
                            "value": 0.0
                        },
                        {
                            "name":  "MANDATORY",
                            "value": 123.15
                        },
                        {
                            "name":  "EMPLOYER MATCH",
                            "value": 205.28
                        }
                    ],
                    "units":                   77.1641,
                    "value":                   328.43
                },
                {
                    "assetClassName":          "Large-Cap Stocks",
                    "assetClassValue":         "LRGE CAP EQU",
                    "frozen":                  false,
                    "investmentDisclosureURL": "https://www.ftwcm.oneamerica.com/wps/wcm/connect/a771c88048e361e29f60dfd2bcb531ef/AUL+VA+English+disclosure.pdf?MOD=AJPERES&CACHEID=a771c88048e361e29f60dfd2bcb531ef",
                    "investmentId":            "OM",
                    "investmentName":          "Touchstone Focused Y",
                    "investmentSheetURL":      "http://www1.ft.oneamerica.com/account_services/pdfs/fundDescription/R-23738.pdf",
                    "investmentStyle":         "Large Cap Blend",
                    "percentByTotalValue":     0.0,
                    "retired":                 false,
                    "sources":                 [
                        {
                            "name":  "EMPLOYER",
                            "value": 0.0
                        },
                        {
                            "name":  "MANDATORY",
                            "value": 3.94
                        },
                        {
                            "name":  "EMPLOYER MATCH",
                            "value": 6.56
                        }
                    ],
                    "units":                   7.9062,
                    "value":                   10.5
                },
                {
                    "assetClassName":          "Large-Cap Stocks",
                    "assetClassValue":         "LRGE CAP EQU",
                    "frozen":                  false,
                    "investmentDisclosureURL": "https://www.ftwcm.oneamerica.com/wps/wcm/connect/a771c88048e361e29f60dfd2bcb531ef/AUL+VA+English+disclosure.pdf?MOD=AJPERES&CACHEID=a771c88048e361e29f60dfd2bcb531ef",
                    "investmentId":            "R1",
                    "investmentName":          "Alger LgCap Grth Port I-2",
                    "investmentSheetURL":      "http://www1.ft.oneamerica.com/account_services/pdfs/fundDescription/R-13594N.pdf",
                    "investmentStyle":         "Large Cap Growth",
                    "percentByTotalValue":     3.0,
                    "retired":                 false,
                    "sources":                 [
                        {
                            "name":  "EMPLOYER",
                            "value": 0.0
                        },
                        {
                            "name":  "MANDATORY",
                            "value": 93.42
                        },
                        {
                            "name":  "EMPLOYER MATCH",
                            "value": 155.7
                        }
                    ],
                    "units":                   72.5134,
                    "value":                   249.12
                },
                {
                    "assetClassName":          "Large-Cap Stocks",
                    "assetClassValue":         "LRGE CAP EQU",
                    "frozen":                  false,
                    "investmentDisclosureURL": "https://www.ftwcm.oneamerica.com/wps/wcm/connect/a771c88048e361e29f60dfd2bcb531ef/AUL+VA+English+disclosure.pdf?MOD=AJPERES&CACHEID=a771c88048e361e29f60dfd2bcb531ef",
                    "investmentId":            "87",
                    "investmentName":          "AmerFds AMCAP R4",
                    "investmentSheetURL":      "http://www1.ft.oneamerica.com/account_services/pdfs/fundDescription/R-18909.pdf",
                    "investmentStyle":         "Large Cap Growth",
                    "percentByTotalValue":     4.0,
                    "retired":                 false,
                    "sources":                 [
                        {
                            "name":  "EMPLOYER",
                            "value": 0.0
                        },
                        {
                            "name":  "MANDATORY",
                            "value": 123.92
                        },
                        {
                            "name":  "EMPLOYER MATCH",
                            "value": 206.55
                        }
                    ],
                    "units":                   228.4489,
                    "value":                   330.47
                }
            ]
        }
    ],
    "count":      1,
    "errors":     null,
    "errorCount": 0
}
