{
  "account" : {
    "excludedPolicyPlan" : false,
    "adminSystemId" : "CL$$",
    "affiliate" : "AUL",
    "divisionId" : "IND",
    "name" : "FREEDOM BUILDER FIXED INDEXED ANNUITY 9 YEAR",
    "number" : "1230003620",
    "type" : "INXAN",
    "homePlan" : false,
    "retirement" : false,
    "individual" : true
  },
  "items" : [ {
    "accountConfig" : {
      "allowAddressChange" : true,
      "allowTransfer" : false,
      "allowElectionChange" : false,
      "allowInvestmentEducation" : false,
      "allowElectionChangeAllocation" : false,
      "allowReports" : false,
      "allowMyInvestments" : false,
      "allowXferStatus" : false,
      "allowXferReason" : null,
      "allowDollarXferStatus" : false,
      "allowDollarXferReason" : null,
      "allowPercentXferStatus" : false,
      "allowPercentXferReason" : null,
      "allowMyStrategies" : true,
      "allowStrategyAllocation" : true
    },
    "statusInfo" : {
      "policyStatus" : "Paid-Up",
      "policyStatusReason" : "",
      "terminationDate" : null
    },
    "generalPolicyInfo" : {
      "issueDate" : "2013-01-14T00:00:00.000-0500",
      "expiryDate" : null,
      "dateLabelValue" : "2015-01-14T00:00:00.000-0500",
      "dividendOption" : "Non-paying Div",
      "totalPremiumPaidToDate" : 43946.57,
      "withdrawals" : 1132.64,
      "billingMethod" : "Single Premium",
      "billingMode" : "",
      "billingAmount" : 0.0,
      "billToDate" : null,
      "bankDraftDate" : 0,
      "bankDraftControlNumber" : "",
      "paidToDate" : "2012-12-24T00:00:00.000-0500",
      "lastPremReceived" : "2012-12-24T00:00:00.000-0500",
      "billRiderAmt" : 0.0,
      "taxQualification" : "NonQualified",
      "taxQualificationType" : "",
      "incomeOption" : "",
      "incomeStartDate" : null,
      "incomeSelected" : "",
      "currRate" : 1.25,
      "ltcRate" : 0.0,
      "wghtRate" : 0.0,
      "guaranteedRate" : 0.0,
      "policyNotes" : "",
      "consolidatedAnnuity" : "Yes",
      "labels" : {
        "dateLabelValue" : "Next Index Date:",
        "currRate" : "New Money Interest Rate",
        "wghtRate" : null
      },
      "render" : {
        "issueDate" : true,
        "expiryDate" : false,
        "dateLabelValue" : true,
        "dividendOption" : false,
        "totalPremiumPaidToDate" : true,
        "withdrawals" : true,
        "billingMethod" : false,
        "billingMode" : false,
        "billingAmount" : false,
        "billToDate" : false,
        "bankDraftDate" : false,
        "bankDraftControlNumber" : false,
        "paidToDate" : false,
        "lastPremReceived" : false,
        "billRiderAmt" : false,
        "taxQualification" : true,
        "taxQualificationType" : false,
        "incomeOption" : false,
        "incomeStartDate" : false,
        "incomeSelected" : false,
        "currRate" : false,
        "ltcRate" : false,
        "wghtRate" : false,
        "guaranteedRate" : false,
        "policyNotes" : false,
        "consolidatedAnnuity" : false
      }
    },
    "policyRelationships" : [ {
      "id" : "2939",
      "idType" : "SSN",
      "name" : "policy holder Joe",
      "type" : "Annuitant",
      "issueAge" : 44,
      "dateOfBirth" : "1970-03-14T00:00:00.000-0500",
      "gender" : "F",
      "emailAddress" : null,
      "address" : [ {
        "type" : "MAIL",
        "foreignAddressIndicator" : false,
        "line1" : "8205 test Drive EAST",
        "line2" : "",
        "line3" : null,
        "city" : "Test city",
        "state" : "WA",
        "zip" : "12345"
      } ],
      "phoneNumber" : null,
      "maritalStatus" : null
    }, {
      "id" : "2939",
      "idType" : "SSN",
      "name" : "policy holder Joe",
      "type" : "Owner",
      "issueAge" : 0,
      "dateOfBirth" : null,
      "gender" : null,
      "emailAddress" : null,
      "address" : [ {
        "type" : "MAIL",
        "foreignAddressIndicator" : false,
        "line1" : "8205 Test Drive EAST",
        "line2" : "",
        "line3" : null,
        "city" : "Test City",
        "state" : "WA",
        "zip" : "12345"
      } ],
      "phoneNumber" : null,
      "maritalStatus" : null
    }, {
      "id" : "2939",
      "idType" : "SSN",
      "name" : "policy holder Joe",
      "type" : "Payor",
      "issueAge" : 0,
      "dateOfBirth" : null,
      "gender" : null,
      "emailAddress" : null,
      "address" : [ {
        "type" : "MAIL",
        "foreignAddressIndicator" : false,
        "line1" : "8205 Test Drive EAST",
        "line2" : "",
        "line3" : null,
        "city" : "Test City",
        "state" : "WA",
        "zip" : "12345"
      } ],
      "phoneNumber" : null,
      "maritalStatus" : null
    }, {
      "id" : null,
      "idType" : "",
      "name" : "policy holder Joe1",
      "type" : "First Beneficiary",
      "issueAge" : 0,
      "dateOfBirth" : null,
      "gender" : null,
      "emailAddress" : null,
      "address" : null,
      "phoneNumber" : null,
      "maritalStatus" : null
    }, {
      "id" : "0000",
      "idType" : "SSN",
      "name" : "policy holder agent Joe2",
      "type" : "Current Servicing Agent",
      "issueAge" : 0,
      "dateOfBirth" : null,
      "gender" : null,
      "emailAddress" : null,
      "address" : [ {
        "type" : "BUSS",
        "foreignAddressIndicator" : false,
        "line1" : "16701 Test BLVD",
        "line2" : "STE 222",
        "line3" : null,
        "city" : "Test City",
        "state" : "WA",
        "zip" : "12345"
      } ],
      "phoneNumber" : [ {
        "changed" : false,
        "type" : "BUSS",
        "number" : "123456789",
        "foreignNumber" : null
      } ],
      "maritalStatus" : null
    } ],
    "coverages" : {
      "baseCoverages" : [ {
        "planOfInsurance" : "Freedom Builder Fixed Indexed Annuity 9 year"
      } ],
      "addCoverages" : [ {
        "personInsured" : "LILLIAN E MORROW",
        "name" : "Long Term Care Facility & Terminal Illness Benefit"
      }, {
        "personInsured" : "LILLIAN E MORROW",
        "name" : "Enhanced Lifetime Income Rider"
      }, {
        "personInsured" : "LILLIAN E MORROW",
        "name" : "Premium Bonus"
      } ]
    },
    "policyValue" : {
      "policyAccountValueDate" : "2014-11-03T00:00:00.000-0500",
      "policyValues" : [ {
        "pvamt" : 44701.81,
        "pvtype" : "Account Value"
      }, {
        "pvamt" : 40831.18,
        "pvtype" : "Cash Surrender Value"
      }, {
        "pvamt" : 11304.97,
        "pvtype" : "Cost Basis:"
      } ]
    },
    "investments" : [ {
      "investmentId" : "APPCL XA**",
      "investmentNameShort" : null,
      "investmentName" : "Point to Point Cap",
      "assetClassName" : "Unknown",
      "assetClassValue" : "0",
      "investmentStyle" : null,
      "investmentSheetURL" : "https://www.ftwcm.oneamerica.com/wps/wcm/connect/ind/OnlineServices/Investments/Portfolio+Descriptions/Point%2Bto%2BPoint%2BCap?presentationtemplate=Launch%20Download%20In%20Same%20Window",
      "investmentDisclosureURL" : null,
      "disclaimerLocalKey" : [ ],
      "restriction" : [ ],
      "regType" : null,
      "value" : 40199.38,
      "percentByTotalValue" : 89.93000030517578,
      "frozen" : false,
      "retired" : false,
      "closed" : false,
      "invTypeValue" : null,
      "type" : 2,
      "units" : 0.0,
      "unitValues" : 0.0,
      "indexRateLabel" : "Cap Rate",
      "indexRate" : 4.7,
      "indexScheduledAllocationPercent" : 90.0,
      "sources" : null
    }, {
      "investmentId" : "APPPL XC**",
      "investmentNameShort" : null,
      "investmentName" : "Point to Point Participation Rate",
      "assetClassName" : "Unknown",
      "assetClassValue" : "0",
      "investmentStyle" : null,
      "investmentSheetURL" : "https://www.ftwcm.oneamerica.com/wps/wcm/connect/ind/OnlineServices/Investments/Portfolio+Descriptions/Point%2Bto%2BPoint%2BParticipation%2BRate?presentationtemplate=Launch%20Download%20In%20Same%20Window",
      "investmentDisclosureURL" : null,
      "disclaimerLocalKey" : [ ],
      "restriction" : [ ],
      "regType" : null,
      "value" : 0.0,
      "percentByTotalValue" : 0.0,
      "frozen" : false,
      "retired" : false,
      "closed" : false,
      "invTypeValue" : null,
      "type" : 2,
      "units" : 0.0,
      "unitValues" : 0.0,
      "indexRateLabel" : ".00",
      "indexRate" : 0.0,
      "indexScheduledAllocationPercent" : 0.0,
      "sources" : null
    }, {
      "investmentId" : "IXF9L X8**",
      "investmentNameShort" : null,
      "investmentName" : "Fixed Account",
      "assetClassName" : "Unknown",
      "assetClassValue" : "0",
      "investmentStyle" : null,
      "investmentSheetURL" : "https://www.ftwcm.oneamerica.com/wps/wcm/connect/ind/OnlineServices/Investments/Portfolio+Descriptions/Fixed%2BAccount?presentationtemplate=Launch%20Download%20In%20Same%20Window",
      "investmentDisclosureURL" : null,
      "disclaimerLocalKey" : [ ],
      "restriction" : [ ],
      "regType" : null,
      "value" : 4502.43,
      "percentByTotalValue" : 10.069999694824219,
      "frozen" : false,
      "retired" : false,
      "closed" : false,
      "invTypeValue" : null,
      "type" : 2,
      "units" : 0.0,
      "unitValues" : 0.0,
      "indexRateLabel" : "Current Interest Rate",
      "indexRate" : 1.0,
      "indexScheduledAllocationPercent" : 10.0,
      "sources" : null
    }, {
      "investmentId" : "IXS9L XM**",
      "investmentNameShort" : null,
      "investmentName" : "Sweep Account",
      "assetClassName" : "Unknown",
      "assetClassValue" : "0",
      "investmentStyle" : null,
      "investmentSheetURL" : "https://www.ftwcm.oneamerica.com/wps/wcm/connect/ind/OnlineServices/Investments/Portfolio+Descriptions/Sweep%2BAccount?presentationtemplate=Launch%20Download%20In%20Same%20Window",
      "investmentDisclosureURL" : null,
      "disclaimerLocalKey" : [ ],
      "restriction" : [ ],
      "regType" : null,
      "value" : 0.0,
      "percentByTotalValue" : 0.0,
      "frozen" : false,
      "retired" : false,
      "closed" : false,
      "invTypeValue" : null,
      "type" : 2,
      "units" : 0.0,
      "unitValues" : 0.0,
      "indexRateLabel" : ".00",
      "indexRate" : 0.0,
      "indexScheduledAllocationPercent" : 0.0,
      "sources" : null
    }, {
      "investmentId" : "MACPL XE**",
      "investmentNameShort" : null,
      "investmentName" : "Monthly Average Cap",
      "assetClassName" : "Unknown",
      "assetClassValue" : "0",
      "investmentStyle" : null,
      "investmentSheetURL" : "https://www.ftwcm.oneamerica.com/wps/wcm/connect/ind/OnlineServices/Investments/Portfolio+Descriptions/Monthly%2BAverage%2BCap?presentationtemplate=Launch%20Download%20In%20Same%20Window",
      "investmentDisclosureURL" : null,
      "disclaimerLocalKey" : [ ],
      "restriction" : [ ],
      "regType" : null,
      "value" : 0.0,
      "percentByTotalValue" : 0.0,
      "frozen" : false,
      "retired" : false,
      "closed" : false,
      "invTypeValue" : null,
      "type" : 2,
      "units" : 0.0,
      "unitValues" : 0.0,
      "indexRateLabel" : ".00",
      "indexRate" : 0.0,
      "indexScheduledAllocationPercent" : 0.0,
      "sources" : null
    }, {
      "investmentId" : "MACRL XG**",
      "investmentNameShort" : null,
      "investmentName" : "Monthly Average Participation Rate",
      "assetClassName" : "Unknown",
      "assetClassValue" : "0",
      "investmentStyle" : null,
      "investmentSheetURL" : "https://www.ftwcm.oneamerica.com/wps/wcm/connect/ind/OnlineServices/Investments/Portfolio+Descriptions/Monthly%2BAverage%2BParticipation%2BRate?presentationtemplate=Launch%20Download%20In%20Same%20Window",
      "investmentDisclosureURL" : null,
      "disclaimerLocalKey" : [ ],
      "restriction" : [ ],
      "regType" : null,
      "value" : 0.0,
      "percentByTotalValue" : 0.0,
      "frozen" : false,
      "retired" : false,
      "closed" : false,
      "invTypeValue" : null,
      "type" : 2,
      "units" : 0.0,
      "unitValues" : 0.0,
      "indexRateLabel" : ".00",
      "indexRate" : 0.0,
      "indexScheduledAllocationPercent" : 0.0,
      "sources" : null
    } ],
    "accountBalance" : 44701.81,
    "asOfDate" : "2014-11-03T00:00:00.000-0500",
    "fundPerformanceURL" : "https://www.ftwcm.oneamerica.com/wps/wcm/connect/ind/OnlineServices/Investments/Portfolio+Performance/FREEDOM+BUILDER+FIXED+INDEXED+ANNUITY+9+YEAR?presentationtemplate=Launch%20Download%20In%20Same%20Window",
    "indexDate" : "2015-01-14T00:00:00.000-0500",
    "freeWithdrawal" : {
      "freeAmountWithdrawn" : 0.0,
      "freeWithdrawalAmount" : 4466.59,
      "freeWithdrawalDateRange" : "Jan 14, 2014 to Jan 14, 2015",
      "freeRemainingWithdrawal" : 4466.59
    },
    "relatedPolicy" : null,
    "investmentDisclaimers" : [ ],
    "generalDisclaimers" : [ ]
  } ],
  "count" : 1,
  "errors" : null,
  "errorCount" : 0
}