
{
  "account" : {
    "excludedPolicyPlan" : false,
    "adminSystemId" : "OMNI",
    "affiliate" : "AUL",
    "divisionId" : "PEN",
    "name" : "ENNIS, INC. 401(K) PLAN RETIREMENT & SAVINGS PLAN",
    "number" : "S100222",
    "type" : "0",
    "homePlan" : false,
    "retirement" : true,
    "individual" : false
  },
  "items" : [ {
    "accountConfig" : {
      "allowAddressChange" : true,
      "allowTransfer" : true,
      "allowElectionChange" : true,
      "allowInvestmentEducation" : true,
      "allowElectionChangeAllocation" : true,
      "allowReports" : true,
      "allowMyInvestments" : true,
      "allowLoans" : true,
      "allowLoanCalculator" : false,
      "allowSubmitLoan" : false,
      "allowLoanSummary" : true,
      "allowLoanSpec" : false,
      "allowDeferralChange" : true,
      "allowRIA" : false,
      "allowAdvicePlus" : false,
      "allowPronVest" : false,
      "allowAccountConsolidation" : false,
      "allowAccountDistribution" : true,
      "allowAccountDistributionLink" : true,
      "managedPronVest" : false,
      "allowSelfDirected" : false,
      "allowPlanSummary" : true,
      "participantHasLoans" : false,
      "planRegistered" : false,
      "allowXferStatus" : true,
      "allowRecurringXferStatus" : true,
      "hasDeferralPending" : false,
      "enrollmentNeeded" : true,
      "plan403b" : false,
      "fixedFundOnlyPlan" : false,
      "takeoverPlan" : false,
      "riaAdvisorFeature" : false,
      "riaAdvisorEnrollPending" : false,
      "riaAdvisorForceSignup" : false,
      "riaAdvisorQDIA" : null,
      "riaAdvisorSpecialSignup" : false,
      "riaAdvisorSpecialEnrollPending" : false,
      "hardshipReinstateDate" : null,
      "planBeneficiaryChangeAccess" : "Disallow",
      "partBeneficiaryChangeAccess" : "Allow"
    },
    "accountBalance" : 68274.25,
    "asOfDate" : "2015-04-28T14:36:18.821-0400",
    "planEffectiveDate" : "2011-03-01T00:00:00.000-0500",
    "prrQuarterly" : 0.0,
    "prrYearly" : 0.0,
    "prrQuarterlyFromDate" : "2014-12-01T00:00:00.000-0500",
    "prrYearlyFromDate" : "2014-03-01T00:00:00.000-0500",
    "prrToDate" : "2015-02-28T00:00:00.000-0500",
    "participantStatus" : "Terminated",
    "adviceServiceURL" : null,
    "adviceServiceName" : null,
    "selfDirectedURL" : null,
    "selfDirectedName" : null,
    "riaAdvisorPlanStatus" : null,
    "riaAdvisorModelName" : null,
    "riaAdvisorModelId" : null,
    "riaAdvisorRTQScore" : 0,
    "riaAdvisorRecommendModelId" : null,
    "annuityBenefitAllowed" : false,
    "planErisa" : true,
    "prrUrl" : "https://www.ftwcm.oneamerica.com/wps/wcm/connect/rs/eretirement/participants/timely+topics/personal+performance+faq+%28r-22348%29?presentationtemplate=Launch%20Download%20In%20Same%20Window",
    "remRole" : {
      "id" : "REM",
      "idType" : null,
      "name" : "EMILY GORDON",
      "type" : null,
      "issueAge" : 0,
      "dateOfBirth" : null,
      "gender" : null,
      "emailAddress" : null,
      "address" : [ {
        "type" : null,
        "foreignAddress" : null,
        "foreignAddressIndicator" : false,
        "line1" : "24 DUPONT LANE",
        "line2" : null,
        "line3" : null,
        "city" : "PITTSBORO",
        "state" : "IN",
        "zip" : "222222222",
        "region" : null,
        "country" : null
      } ],
      "phoneNumber" : [ {
        "changed" : false,
        "type" : null,
        "number" : "9727759819",
        "foreignNumber" : null
      } ],
      "maritalStatus" : null
    },
    "serviceLevel" : "F",
    "investments" : [ {
      "investmentId" : "I2",
      "investmentNameShort" : "FIXD",
      "investmentName" : "AUL Fixed Account",
      "assetClassName" : "Fix Int/Stable Value/Cash",
      "assetClassValue" : "FXD INT/CASH",
      "investmentStyle" : "Fixed Int/Stable Val",
      "investmentSheetURL" : "https://www1.ft.oneamerica.com/account_services/pdfs/fundDescription/R-13396.pdf",
      "investmentDisclosureURL" : "https://www.ftwcm.oneamerica.com/wps/wcm/connect/rs/Account+Services/Account+Balance/Morningstar+Disclosure?presentationtemplate=Launch%20Download%20In%20Same%20Window",
      "disclaimerLocalKey" : [ "RF" ],
      "restriction" : [ "Redemption fee 2%, holding period 60 days." ],
      "regType" : "N",
      "value" : 0.0,
      "percentByTotalValue" : 0.0,
      "frozen" : false,
      "retired" : false,
      "closed" : false,
      "invTypeValue" : "FIXED INTRST",
      "type" : 3,
      "planDefaultElectionPercentage": 100.0,
      "units" : 0.0,
      "unitValues" : null,
      "indexRateLabel" : null,
      "indexRate" : null,
      "sources" : [ {
        "name" : "Rollover (Unrelated)",
        "value" : 0.0
      }, {
        "name" : "401(k) Deferral",
        "value" : 0.0
      }, {
        "name" : "Employer Match",
        "value" : 0.0
      }, {
        "name" : "Voluntary After-tax",
        "value" : 0.0
      }, {
        "name" : "Non-Registered After-Tax Roll",
        "value" : 0.0
      }, {
        "name" : "Rollover (Related)",
        "value" : 0.0
      }, {
        "name" : "Employer",
        "value" : 0.0
      }, {
        "name" : "Previous Service/QNEC",
        "value" : 0.0
      } ]
    }, {
      "investmentId" : "Q4",
      "investmentNameShort" : "PTRR",
      "investmentName" : "PIMCO Total Return R",
      "assetClassName" : "Intermediate-Term Bonds",
      "assetClassValue" : "INTERM BOND",
      "investmentStyle" : "Int Term Bond",
      "investmentSheetURL" : "https://www1.ft.oneamerica.com/account_services/pdfs/fundDescription/R-17027N.pdf",
      "investmentDisclosureURL" : "https://www.ftwcm.oneamerica.com/wps/wcm/connect/rs/Account+Services/Account+Balance/Morningstar+Disclosure?presentationtemplate=Launch%20Download%20In%20Same%20Window",
      "disclaimerLocalKey" : [ ],
      "restriction" : [ ],
      "regType" : "N",
      "value" : 0.0,
      "percentByTotalValue" : 0.0,
      "frozen" : false,
      "retired" : false,
      "closed" : false,
      "invTypeValue" : "INTERM BOND",
      "type" : 1,
      "planDefaultElectionPercentage": 0.0,
      "units" : 0.0,
      "unitValues" : null,
      "indexRateLabel" : null,
      "indexRate" : null,
      "sources" : [ {
        "name" : "Rollover (Unrelated)",
        "value" : 0.0
      }, {
        "name" : "401(k) Deferral",
        "value" : 0.0
      }, {
        "name" : "Employer Match",
        "value" : 0.0
      }, {
        "name" : "Voluntary After-tax",
        "value" : 0.0
      }, {
        "name" : "Non-Registered After-Tax Roll",
        "value" : 0.0
      }, {
        "name" : "Rollover (Related)",
        "value" : 0.0
      }, {
        "name" : "Employer",
        "value" : 0.0
      }, {
        "name" : "Previous Service/QNEC",
        "value" : 0.0
      } ]
    }, {
      "investmentId" : "JT",
      "investmentNameShort" : "JBRR",
      "investmentName" : "Janus Balanced R",
      "assetClassName" : "Balanced",
      "assetClassValue" : "BALANCED",
      "investmentStyle" : "Balanced",
      "investmentSheetURL" : "https://www1.ft.oneamerica.com/account_services/pdfs/fundDescription/R-22566.pdf",
      "investmentDisclosureURL" : "https://www.ftwcm.oneamerica.com/wps/wcm/connect/rs/Account+Services/Account+Balance/Morningstar+Disclosure?presentationtemplate=Launch%20Download%20In%20Same%20Window",
      "disclaimerLocalKey" : [ ],
      "restriction" : [ ],
      "regType" : "N",
      "value" : 16268.34,
      "percentByTotalValue" : 24.0,
      "frozen" : false,
      "retired" : false,
      "closed" : false,
      "invTypeValue" : "BALANCED",
      "type" : 1,
      "planDefaultElectionPercentage": 0.0,
      "units" : 10732.123,
      "unitValues" : null,
      "indexRateLabel" : null,
      "indexRate" : null,
      "sources" : [ {
        "name" : "Rollover (Unrelated)",
        "value" : 0.0
      }, {
        "name" : "401(k) Deferral",
        "value" : 16268.34
      }, {
        "name" : "Employer Match",
        "value" : 0.0
      }, {
        "name" : "Voluntary After-tax",
        "value" : 0.0
      }, {
        "name" : "Non-Registered After-Tax Roll",
        "value" : 0.0
      }, {
        "name" : "Rollover (Related)",
        "value" : 0.0
      }, {
        "name" : "Employer",
        "value" : 0.0
      }, {
        "name" : "Previous Service/QNEC",
        "value" : 0.0
      } ]
    }, {
      "investmentId" : "MD",
      "investmentNameShort" : "AEIA",
      "investmentName" : "AmerCent Eqty Inc A",
      "assetClassName" : "Large-Cap Stocks",
      "assetClassValue" : "LRGE CAP EQU",
      "investmentStyle" : "Large Cap Value",
      "investmentSheetURL" : "https://www1.ft.oneamerica.com/account_services/pdfs/fundDescription/R-15674N.pdf",
      "investmentDisclosureURL" : "https://www.ftwcm.oneamerica.com/wps/wcm/connect/rs/Account+Services/Account+Balance/Morningstar+Disclosure?presentationtemplate=Launch%20Download%20In%20Same%20Window",
      "disclaimerLocalKey" : [ ],
      "restriction" : [ ],
      "regType" : "N",
      "value" : 0.0,
      "percentByTotalValue" : 0.0,
      "frozen" : false,
      "retired" : false,
      "closed" : false,
      "invTypeValue" : "LRGCAP VALUE",
      "type" : 1,
      "planDefaultElectionPercentage": 0.0,
      "units" : 0.0,
      "unitValues" : null,
      "indexRateLabel" : null,
      "indexRate" : null,
      "sources" : [ {
        "name" : "Rollover (Unrelated)",
        "value" : 0.0
      }, {
        "name" : "401(k) Deferral",
        "value" : 0.0
      }, {
        "name" : "Employer Match",
        "value" : 0.0
      }, {
        "name" : "Voluntary After-tax",
        "value" : 0.0
      }, {
        "name" : "Non-Registered After-Tax Roll",
        "value" : 0.0
      }, {
        "name" : "Rollover (Related)",
        "value" : 0.0
      }, {
        "name" : "Employer",
        "value" : 0.0
      }, {
        "name" : "Previous Service/QNEC",
        "value" : 0.0
      } ]
    }, {
      "investmentId" : "8C",
      "investmentNameShort" : "AFFD",
      "investmentName" : "AmerFds Fdamental Invs R3",
      "assetClassName" : "Large-Cap Stocks",
      "assetClassValue" : "LRGE CAP EQU",
      "investmentStyle" : "Large Cap Blend",
      "investmentSheetURL" : "https://www1.ft.oneamerica.com/account_services/pdfs/fundDescription/R-19031.pdf",
      "investmentDisclosureURL" : "https://www.ftwcm.oneamerica.com/wps/wcm/connect/rs/Account+Services/Account+Balance/Morningstar+Disclosure?presentationtemplate=Launch%20Download%20In%20Same%20Window",
      "disclaimerLocalKey" : [ ],
      "restriction" : [ ],
      "regType" : "N",
      "value" : 21031.63,
      "percentByTotalValue" : 31.0,
      "frozen" : false,
      "retired" : false,
      "closed" : false,
      "invTypeValue" : "LRGCAP BLEND",
      "type" : 1,
      "planDefaultElectionPercentage": 0.0,
      "units" : 11740.1012,
      "unitValues" : null,
      "indexRateLabel" : null,
      "indexRate" : null,
      "sources" : [ {
        "name" : "Rollover (Unrelated)",
        "value" : 0.0
      }, {
        "name" : "401(k) Deferral",
        "value" : 21031.63
      }, {
        "name" : "Employer Match",
        "value" : 0.0
      }, {
        "name" : "Voluntary After-tax",
        "value" : 0.0
      }, {
        "name" : "Non-Registered After-Tax Roll",
        "value" : 0.0
      }, {
        "name" : "Rollover (Related)",
        "value" : 0.0
      }, {
        "name" : "Employer",
        "value" : 0.0
      }, {
        "name" : "Previous Service/QNEC",
        "value" : 0.0
      } ]
    }, {
      "investmentId" : "MP",
      "investmentNameShort" : "ACGR",
      "investmentName" : "AmerCent Grth A",
      "assetClassName" : "Large-Cap Stocks",
      "assetClassValue" : "LRGE CAP EQU",
      "investmentStyle" : "Large Cap Growth",
      "investmentSheetURL" : "https://www1.ft.oneamerica.com/account_services/pdfs/fundDescription/R-16033N.pdf",
      "investmentDisclosureURL" : "https://www.ftwcm.oneamerica.com/wps/wcm/connect/rs/Account+Services/Account+Balance/Morningstar+Disclosure?presentationtemplate=Launch%20Download%20In%20Same%20Window",
      "disclaimerLocalKey" : [ ],
      "restriction" : [ ],
      "regType" : "N",
      "value" : 0.0,
      "percentByTotalValue" : 0.0,
      "frozen" : false,
      "retired" : false,
      "closed" : false,
      "invTypeValue" : "LRGCAP GRWTH",
      "type" : 1,
      "planDefaultElectionPercentage": 0.0,
      "units" : 0.0,
      "unitValues" : null,
      "indexRateLabel" : null,
      "indexRate" : null,
      "sources" : [ {
        "name" : "Rollover (Unrelated)",
        "value" : 0.0
      }, {
        "name" : "401(k) Deferral",
        "value" : 0.0
      }, {
        "name" : "Employer Match",
        "value" : 0.0
      }, {
        "name" : "Voluntary After-tax",
        "value" : 0.0
      }, {
        "name" : "Non-Registered After-Tax Roll",
        "value" : 0.0
      }, {
        "name" : "Rollover (Related)",
        "value" : 0.0
      }, {
        "name" : "Employer",
        "value" : 0.0
      }, {
        "name" : "Previous Service/QNEC",
        "value" : 0.0
      } ]
    }, {
      "investmentId" : "81",
      "investmentNameShort" : "AFGA",
      "investmentName" : "AmerFds Grth Fd of America R3",
      "assetClassName" : "Large-Cap Stocks",
      "assetClassValue" : "LRGE CAP EQU",
      "investmentStyle" : "Large Cap Growth",
      "investmentSheetURL" : "https://www1.ft.oneamerica.com/account_services/pdfs/fundDescription/R-18321.pdf",
      "investmentDisclosureURL" : "https://www.ftwcm.oneamerica.com/wps/wcm/connect/rs/Account+Services/Account+Balance/Morningstar+Disclosure?presentationtemplate=Launch%20Download%20In%20Same%20Window",
      "disclaimerLocalKey" : [ "R" ],
      "restriction" : [ ],
      "regType" : "N",
      "value" : 0.0,
      "percentByTotalValue" : 0.0,
      "frozen" : false,
      "retired" : true,
      "closed" : false,
      "invTypeValue" : "LRGCAP GRWTH",
      "type" : 1,
      "planDefaultElectionPercentage": 0.0,
      "units" : 0.0,
      "unitValues" : null,
      "indexRateLabel" : null,
      "indexRate" : null,
      "sources" : [ {
        "name" : "Rollover (Unrelated)",
        "value" : 0.0
      }, {
        "name" : "401(k) Deferral",
        "value" : 0.0
      }, {
        "name" : "Employer Match",
        "value" : 0.0
      }, {
        "name" : "Voluntary After-tax",
        "value" : 0.0
      }, {
        "name" : "Non-Registered After-Tax Roll",
        "value" : 0.0
      }, {
        "name" : "Rollover (Related)",
        "value" : 0.0
      }, {
        "name" : "Employer",
        "value" : 0.0
      }, {
        "name" : "Previous Service/QNEC",
        "value" : 0.0
      } ]
    }, {
      "investmentId" : "T7",
      "investmentNameShort" : "TMCV",
      "investmentName" : "TRowePrice MidCap Val R",
      "assetClassName" : "Mid-Cap Stocks",
      "assetClassValue" : "MID CAP EQTY",
      "investmentStyle" : "Mid Cap Value",
      "investmentSheetURL" : "https://www1.ft.oneamerica.com/account_services/pdfs/fundDescription/R-156720N.pdf",
      "investmentDisclosureURL" : "https://www.ftwcm.oneamerica.com/wps/wcm/connect/rs/Account+Services/Account+Balance/Morningstar+Disclosure?presentationtemplate=Launch%20Download%20In%20Same%20Window",
      "disclaimerLocalKey" : [ ],
      "restriction" : [ ],
      "regType" : "N",
      "value" : 11315.63,
      "percentByTotalValue" : 16.0,
      "frozen" : false,
      "retired" : false,
      "closed" : false,
      "invTypeValue" : "MIDCAP VALUE",
      "type" : 1,
      "planDefaultElectionPercentage": 0.0,
      "units" : 2787.3753,
      "unitValues" : null,
      "indexRateLabel" : null,
      "indexRate" : null,
      "sources" : [ {
        "name" : "Rollover (Unrelated)",
        "value" : 0.0
      }, {
        "name" : "401(k) Deferral",
        "value" : 11315.63
      }, {
        "name" : "Employer Match",
        "value" : 0.0
      }, {
        "name" : "Voluntary After-tax",
        "value" : 0.0
      }, {
        "name" : "Non-Registered After-Tax Roll",
        "value" : 0.0
      }, {
        "name" : "Rollover (Related)",
        "value" : 0.0
      }, {
        "name" : "Employer",
        "value" : 0.0
      }, {
        "name" : "Previous Service/QNEC",
        "value" : 0.0
      } ]
    }, {
      "investmentId" : "X4",
      "investmentNameShort" : "SS4N",
      "investmentName" : "SSgA S&P MidCap 400 Indx A",
      "assetClassName" : "Mid-Cap Stocks",
      "assetClassValue" : "MID CAP EQTY",
      "investmentStyle" : "Mid Cap Blend",
      "investmentSheetURL" : "https://www1.ft.oneamerica.com/account_services/pdfs/fundDescription/R-156728N.pdf",
      "investmentDisclosureURL" : "https://www.ftwcm.oneamerica.com/wps/wcm/connect/rs/Account+Services/Account+Balance/Morningstar+Disclosure?presentationtemplate=Launch%20Download%20In%20Same%20Window",
      "disclaimerLocalKey" : [ ],
      "restriction" : [ ],
      "regType" : "N",
      "value" : 0.0,
      "percentByTotalValue" : 0.0,
      "frozen" : false,
      "retired" : false,
      "closed" : false,
      "invTypeValue" : "MIDCAP BLEND",
      "type" : 1,
      "planDefaultElectionPercentage": 0.0,
      "units" : 0.0,
      "unitValues" : null,
      "indexRateLabel" : null,
      "indexRate" : null,
      "sources" : [ {
        "name" : "Rollover (Unrelated)",
        "value" : 0.0
      }, {
        "name" : "401(k) Deferral",
        "value" : 0.0
      }, {
        "name" : "Employer Match",
        "value" : 0.0
      }, {
        "name" : "Voluntary After-tax",
        "value" : 0.0
      }, {
        "name" : "Non-Registered After-Tax Roll",
        "value" : 0.0
      }, {
        "name" : "Rollover (Related)",
        "value" : 0.0
      }, {
        "name" : "Employer",
        "value" : 0.0
      }, {
        "name" : "Previous Service/QNEC",
        "value" : 0.0
      } ]
    }, {
      "investmentId" : "29",
      "investmentNameShort" : "LDSB",
      "investmentName" : "Lord Abbett SmCap Val R3",
      "assetClassName" : "Small-Cap Stocks",
      "assetClassValue" : "SML CAP EQU",
      "investmentStyle" : "Small Cap Blend",
      "investmentSheetURL" : "https://www1.ft.oneamerica.com/account_services/pdfs/fundDescription/R-21580.pdf",
      "investmentDisclosureURL" : "https://www.ftwcm.oneamerica.com/wps/wcm/connect/rs/Account+Services/Account+Balance/Morningstar+Disclosure?presentationtemplate=Launch%20Download%20In%20Same%20Window",
      "disclaimerLocalKey" : [ ],
      "restriction" : [ ],
      "regType" : "N",
      "value" : 0.0,
      "percentByTotalValue" : 0.0,
      "frozen" : false,
      "retired" : false,
      "closed" : false,
      "invTypeValue" : "SMLCAP BLEND",
      "type" : 1,
      "planDefaultElectionPercentage": 0.0,
      "units" : 0.0,
      "unitValues" : null,
      "indexRateLabel" : null,
      "indexRate" : null,
      "sources" : [ {
        "name" : "Rollover (Unrelated)",
        "value" : 0.0
      }, {
        "name" : "401(k) Deferral",
        "value" : 0.0
      }, {
        "name" : "Employer Match",
        "value" : 0.0
      }, {
        "name" : "Voluntary After-tax",
        "value" : 0.0
      }, {
        "name" : "Non-Registered After-Tax Roll",
        "value" : 0.0
      }, {
        "name" : "Rollover (Related)",
        "value" : 0.0
      }, {
        "name" : "Employer",
        "value" : 0.0
      }, {
        "name" : "Previous Service/QNEC",
        "value" : 0.0
      } ]
    }, {
      "investmentId" : "BC",
      "investmentNameShort" : "MMSG",
      "investmentName" : "BMO SmCap Grth Y",
      "assetClassName" : "Small-Cap Stocks",
      "assetClassValue" : "SML CAP EQU",
      "investmentStyle" : "Small Cap Growth",
      "investmentSheetURL" : "https://www1.ft.oneamerica.com/account_services/pdfs/fundDescription/R-20528.pdf",
      "investmentDisclosureURL" : "https://www.ftwcm.oneamerica.com/wps/wcm/connect/rs/Account+Services/Account+Balance/Morningstar+Disclosure?presentationtemplate=Launch%20Download%20In%20Same%20Window",
      "disclaimerLocalKey" : [ ],
      "restriction" : [ ],
      "regType" : "N",
      "value" : 0.0,
      "percentByTotalValue" : 0.0,
      "frozen" : false,
      "retired" : false,
      "closed" : false,
      "invTypeValue" : "SMLCAP GRWTH",
      "type" : 1,
      "planDefaultElectionPercentage": 0.0,
      "units" : 0.0,
      "unitValues" : null,
      "indexRateLabel" : null,
      "indexRate" : null,
      "sources" : [ {
        "name" : "Rollover (Unrelated)",
        "value" : 0.0
      }, {
        "name" : "401(k) Deferral",
        "value" : 0.0
      }, {
        "name" : "Employer Match",
        "value" : 0.0
      }, {
        "name" : "Voluntary After-tax",
        "value" : 0.0
      }, {
        "name" : "Non-Registered After-Tax Roll",
        "value" : 0.0
      }, {
        "name" : "Rollover (Related)",
        "value" : 0.0
      }, {
        "name" : "Employer",
        "value" : 0.0
      }, {
        "name" : "Previous Service/QNEC",
        "value" : 0.0
      } ]
    }, {
      "investmentId" : "65",
      "investmentNameShort" : "ODMF",
      "investmentName" : "Oppenheimer Dev Mkts R",
      "assetClassName" : "Foreign Stocks",
      "assetClassValue" : "FRGN EQUITY",
      "investmentStyle" : "Diversified Emerg Mkt",
      "investmentSheetURL" : "https://www1.ft.oneamerica.com/account_services/pdfs/fundDescription/R-17922.pdf",
      "investmentDisclosureURL" : "https://www.ftwcm.oneamerica.com/wps/wcm/connect/rs/Account+Services/Account+Balance/Morningstar+Disclosure?presentationtemplate=Launch%20Download%20In%20Same%20Window",
      "disclaimerLocalKey" : [ ],
      "restriction" : [ ],
      "regType" : "N",
      "value" : 0.0,
      "percentByTotalValue" : 0.0,
      "frozen" : false,
      "retired" : false,
      "closed" : false,
      "invTypeValue" : "DIV EMG MKTS",
      "type" : 1,
      "planDefaultElectionPercentage": 0.0,
      "units" : 0.0,
      "unitValues" : null,
      "indexRateLabel" : null,
      "indexRate" : null,
      "sources" : [ {
        "name" : "Rollover (Unrelated)",
        "value" : 0.0
      }, {
        "name" : "401(k) Deferral",
        "value" : 0.0
      }, {
        "name" : "Employer Match",
        "value" : 0.0
      }, {
        "name" : "Voluntary After-tax",
        "value" : 0.0
      }, {
        "name" : "Non-Registered After-Tax Roll",
        "value" : 0.0
      }, {
        "name" : "Rollover (Related)",
        "value" : 0.0
      }, {
        "name" : "Employer",
        "value" : 0.0
      }, {
        "name" : "Previous Service/QNEC",
        "value" : 0.0
      } ]
    }, {
      "investmentId" : "84",
      "investmentNameShort" : "AFCW",
      "investmentName" : "AmerFds Cap World Grth&Inc R3",
      "assetClassName" : "World Stocks",
      "assetClassValue" : "WORLD STOCK",
      "investmentStyle" : "World Stock",
      "investmentSheetURL" : "https://www1.ft.oneamerica.com/account_services/pdfs/fundDescription/R-18333.pdf",
      "investmentDisclosureURL" : "https://www.ftwcm.oneamerica.com/wps/wcm/connect/rs/Account+Services/Account+Balance/Morningstar+Disclosure?presentationtemplate=Launch%20Download%20In%20Same%20Window",
      "disclaimerLocalKey" : [ ],
      "restriction" : [ ],
      "regType" : "N",
      "value" : 7628.74,
      "percentByTotalValue" : 11.0,
      "frozen" : false,
      "retired" : false,
      "closed" : false,
      "invTypeValue" : "WORLD STOCK",
      "type" : 1,
      "planDefaultElectionPercentage": 0.0,
      "units" : 4215.2562,
      "unitValues" : null,
      "indexRateLabel" : null,
      "indexRate" : null,
      "sources" : [ {
        "name" : "Rollover (Unrelated)",
        "value" : 0.0
      }, {
        "name" : "401(k) Deferral",
        "value" : 7628.74
      }, {
        "name" : "Employer Match",
        "value" : 0.0
      }, {
        "name" : "Voluntary After-tax",
        "value" : 0.0
      }, {
        "name" : "Non-Registered After-Tax Roll",
        "value" : 0.0
      }, {
        "name" : "Rollover (Related)",
        "value" : 0.0
      }, {
        "name" : "Employer",
        "value" : 0.0
      }, {
        "name" : "Previous Service/QNEC",
        "value" : 0.0
      } ]
    }, {
      "investmentId" : "ZF",
      "investmentNameShort" : "AC15",
      "investmentName" : "AmerCent One Choice 2015 A",
      "assetClassName" : "Managed Asset Allocation",
      "assetClassValue" : "MGD AS ALLOC",
      "investmentStyle" : "Mgd Asset Allocation",
      "investmentSheetURL" : "https://www1.ft.oneamerica.com/account_services/pdfs/fundDescription/R-21466.pdf",
      "investmentDisclosureURL" : "https://www.ftwcm.oneamerica.com/wps/wcm/connect/rs/Account+Services/Account+Balance/Morningstar+Disclosure?presentationtemplate=Launch%20Download%20In%20Same%20Window",
      "disclaimerLocalKey" : [ "R" ],
      "restriction" : [ ],
      "regType" : "N",
      "value" : 0.0,
      "percentByTotalValue" : 0.0,
      "frozen" : false,
      "retired" : true,
      "closed" : false,
      "invTypeValue" : "MGD AS ALLOC",
      "type" : 1,
      "planDefaultElectionPercentage": 0.0,
      "units" : 0.0,
      "unitValues" : null,
      "indexRateLabel" : null,
      "indexRate" : null,
      "sources" : [ {
        "name" : "Rollover (Unrelated)",
        "value" : 0.0
      }, {
        "name" : "401(k) Deferral",
        "value" : 0.0
      }, {
        "name" : "Employer Match",
        "value" : 0.0
      }, {
        "name" : "Voluntary After-tax",
        "value" : 0.0
      }, {
        "name" : "Non-Registered After-Tax Roll",
        "value" : 0.0
      }, {
        "name" : "Rollover (Related)",
        "value" : 0.0
      }, {
        "name" : "Employer",
        "value" : 0.0
      }, {
        "name" : "Previous Service/QNEC",
        "value" : 0.0
      } ]
    }, {
      "investmentId" : "ZG",
      "investmentNameShort" : "AC20",
      "investmentName" : "AmerCent One Choice 2020 A",
      "assetClassName" : "Managed Asset Allocation",
      "assetClassValue" : "MGD AS ALLOC",
      "investmentStyle" : "Mgd Asset Allocation",
      "investmentSheetURL" : "https://www1.ft.oneamerica.com/account_services/pdfs/fundDescription/R-21468.pdf",
      "investmentDisclosureURL" : "https://www.ftwcm.oneamerica.com/wps/wcm/connect/rs/Account+Services/Account+Balance/Morningstar+Disclosure?presentationtemplate=Launch%20Download%20In%20Same%20Window",
      "disclaimerLocalKey" : [ ],
      "restriction" : [ ],
      "regType" : "N",
      "value" : 0.0,
      "percentByTotalValue" : 0.0,
      "frozen" : false,
      "retired" : false,
      "closed" : false,
      "invTypeValue" : "MGD AS ALLOC",
      "type" : 1,
      "planDefaultElectionPercentage": 0.0,
      "units" : 0.0,
      "unitValues" : null,
      "indexRateLabel" : null,
      "indexRate" : null,
      "sources" : [ {
        "name" : "Rollover (Unrelated)",
        "value" : 0.0
      }, {
        "name" : "401(k) Deferral",
        "value" : 0.0
      }, {
        "name" : "Employer Match",
        "value" : 0.0
      }, {
        "name" : "Voluntary After-tax",
        "value" : 0.0
      }, {
        "name" : "Non-Registered After-Tax Roll",
        "value" : 0.0
      }, {
        "name" : "Rollover (Related)",
        "value" : 0.0
      }, {
        "name" : "Employer",
        "value" : 0.0
      }, {
        "name" : "Previous Service/QNEC",
        "value" : 0.0
      } ]
    }, {
      "investmentId" : "ZH",
      "investmentNameShort" : "AC25",
      "investmentName" : "AmerCent One Choice 2025 A",
      "assetClassName" : "Managed Asset Allocation",
      "assetClassValue" : "MGD AS ALLOC",
      "investmentStyle" : "Mgd Asset Allocation",
      "investmentSheetURL" : "https://www1.ft.oneamerica.com/account_services/pdfs/fundDescription/R-21470.pdf",
      "investmentDisclosureURL" : "https://www.ftwcm.oneamerica.com/wps/wcm/connect/rs/Account+Services/Account+Balance/Morningstar+Disclosure?presentationtemplate=Launch%20Download%20In%20Same%20Window",
      "disclaimerLocalKey" : [ ],
      "restriction" : [ ],
      "regType" : "N",
      "value" : 0.0,
      "percentByTotalValue" : 0.0,
      "frozen" : false,
      "retired" : false,
      "closed" : false,
      "invTypeValue" : "MGD AS ALLOC",
      "type" : 1,
      "planDefaultElectionPercentage": 0.0,
      "units" : 0.0,
      "unitValues" : null,
      "indexRateLabel" : null,
      "indexRate" : null,
      "sources" : [ {
        "name" : "Rollover (Unrelated)",
        "value" : 0.0
      }, {
        "name" : "401(k) Deferral",
        "value" : 0.0
      }, {
        "name" : "Employer Match",
        "value" : 0.0
      }, {
        "name" : "Voluntary After-tax",
        "value" : 0.0
      }, {
        "name" : "Non-Registered After-Tax Roll",
        "value" : 0.0
      }, {
        "name" : "Rollover (Related)",
        "value" : 0.0
      }, {
        "name" : "Employer",
        "value" : 0.0
      }, {
        "name" : "Previous Service/QNEC",
        "value" : 0.0
      } ]
    }, {
      "investmentId" : "ZI",
      "investmentNameShort" : "AC30",
      "investmentName" : "AmerCent One Choice 2030 A",
      "assetClassName" : "Managed Asset Allocation",
      "assetClassValue" : "MGD AS ALLOC",
      "investmentStyle" : "Mgd Asset Allocation",
      "investmentSheetURL" : "https://www1.ft.oneamerica.com/account_services/pdfs/fundDescription/R-21472.pdf",
      "investmentDisclosureURL" : "https://www.ftwcm.oneamerica.com/wps/wcm/connect/rs/Account+Services/Account+Balance/Morningstar+Disclosure?presentationtemplate=Launch%20Download%20In%20Same%20Window",
      "disclaimerLocalKey" : [ ],
      "restriction" : [ ],
      "regType" : "N",
      "value" : 0.0,
      "percentByTotalValue" : 0.0,
      "frozen" : false,
      "retired" : false,
      "closed" : false,
      "invTypeValue" : "MGD AS ALLOC",
      "type" : 1,
      "planDefaultElectionPercentage": 0.0,
      "units" : 0.0,
      "unitValues" : null,
      "indexRateLabel" : null,
      "indexRate" : null,
      "sources" : [ {
        "name" : "Rollover (Unrelated)",
        "value" : 0.0
      }, {
        "name" : "401(k) Deferral",
        "value" : 0.0
      }, {
        "name" : "Employer Match",
        "value" : 0.0
      }, {
        "name" : "Voluntary After-tax",
        "value" : 0.0
      }, {
        "name" : "Non-Registered After-Tax Roll",
        "value" : 0.0
      }, {
        "name" : "Rollover (Related)",
        "value" : 0.0
      }, {
        "name" : "Employer",
        "value" : 0.0
      }, {
        "name" : "Previous Service/QNEC",
        "value" : 0.0
      } ]
    }, {
      "investmentId" : "ZJ",
      "investmentNameShort" : "AC35",
      "investmentName" : "AmerCent One Choice 2035 A",
      "assetClassName" : "Managed Asset Allocation",
      "assetClassValue" : "MGD AS ALLOC",
      "investmentStyle" : "Mgd Asset Allocation",
      "investmentSheetURL" : "https://www1.ft.oneamerica.com/account_services/pdfs/fundDescription/R-21474.pdf",
      "investmentDisclosureURL" : "https://www.ftwcm.oneamerica.com/wps/wcm/connect/rs/Account+Services/Account+Balance/Morningstar+Disclosure?presentationtemplate=Launch%20Download%20In%20Same%20Window",
      "disclaimerLocalKey" : [ ],
      "restriction" : [ ],
      "regType" : "N",
      "value" : 0.0,
      "percentByTotalValue" : 0.0,
      "frozen" : false,
      "retired" : false,
      "closed" : false,
      "invTypeValue" : "MGD AS ALLOC",
      "type" : 1,
      "planDefaultElectionPercentage": 0.0,
      "units" : 0.0,
      "unitValues" : null,
      "indexRateLabel" : null,
      "indexRate" : null,
      "sources" : [ {
        "name" : "Rollover (Unrelated)",
        "value" : 0.0
      }, {
        "name" : "401(k) Deferral",
        "value" : 0.0
      }, {
        "name" : "Employer Match",
        "value" : 0.0
      }, {
        "name" : "Voluntary After-tax",
        "value" : 0.0
      }, {
        "name" : "Non-Registered After-Tax Roll",
        "value" : 0.0
      }, {
        "name" : "Rollover (Related)",
        "value" : 0.0
      }, {
        "name" : "Employer",
        "value" : 0.0
      }, {
        "name" : "Previous Service/QNEC",
        "value" : 0.0
      } ]
    }, {
      "investmentId" : "ZK",
      "investmentNameShort" : "AC40",
      "investmentName" : "AmerCent One Choice 2040 A",
      "assetClassName" : "Managed Asset Allocation",
      "assetClassValue" : "MGD AS ALLOC",
      "investmentStyle" : "Mgd Asset Allocation",
      "investmentSheetURL" : "https://www1.ft.oneamerica.com/account_services/pdfs/fundDescription/R-21476.pdf",
      "investmentDisclosureURL" : "https://www.ftwcm.oneamerica.com/wps/wcm/connect/rs/Account+Services/Account+Balance/Morningstar+Disclosure?presentationtemplate=Launch%20Download%20In%20Same%20Window",
      "disclaimerLocalKey" : [ ],
      "restriction" : [ ],
      "regType" : "N",
      "value" : 0.0,
      "percentByTotalValue" : 0.0,
      "frozen" : false,
      "retired" : false,
      "closed" : false,
      "invTypeValue" : "MGD AS ALLOC",
      "type" : 1,
      "planDefaultElectionPercentage": 0.0,
      "units" : 0.0,
      "unitValues" : null,
      "indexRateLabel" : null,
      "indexRate" : null,
      "sources" : [ {
        "name" : "Rollover (Unrelated)",
        "value" : 0.0
      }, {
        "name" : "401(k) Deferral",
        "value" : 0.0
      }, {
        "name" : "Employer Match",
        "value" : 0.0
      }, {
        "name" : "Voluntary After-tax",
        "value" : 0.0
      }, {
        "name" : "Non-Registered After-Tax Roll",
        "value" : 0.0
      }, {
        "name" : "Rollover (Related)",
        "value" : 0.0
      }, {
        "name" : "Employer",
        "value" : 0.0
      }, {
        "name" : "Previous Service/QNEC",
        "value" : 0.0
      } ]
    }, {
      "investmentId" : "ZL",
      "investmentNameShort" : "AC45",
      "investmentName" : "AmerCent One Choice 2045 A",
      "assetClassName" : "Managed Asset Allocation",
      "assetClassValue" : "MGD AS ALLOC",
      "investmentStyle" : "Mgd Asset Allocation",
      "investmentSheetURL" : "https://www1.ft.oneamerica.com/account_services/pdfs/fundDescription/R-21478.pdf",
      "investmentDisclosureURL" : "https://www.ftwcm.oneamerica.com/wps/wcm/connect/rs/Account+Services/Account+Balance/Morningstar+Disclosure?presentationtemplate=Launch%20Download%20In%20Same%20Window",
      "disclaimerLocalKey" : [ ],
      "restriction" : [ ],
      "regType" : "N",
      "value" : 0.0,
      "percentByTotalValue" : 0.0,
      "frozen" : false,
      "retired" : false,
      "closed" : false,
      "invTypeValue" : "MGD AS ALLOC",
      "type" : 1,
      "planDefaultElectionPercentage": 0.0,
      "units" : 0.0,
      "unitValues" : null,
      "indexRateLabel" : null,
      "indexRate" : null,
      "sources" : [ {
        "name" : "Rollover (Unrelated)",
        "value" : 0.0
      }, {
        "name" : "401(k) Deferral",
        "value" : 0.0
      }, {
        "name" : "Employer Match",
        "value" : 0.0
      }, {
        "name" : "Voluntary After-tax",
        "value" : 0.0
      }, {
        "name" : "Non-Registered After-Tax Roll",
        "value" : 0.0
      }, {
        "name" : "Rollover (Related)",
        "value" : 0.0
      }, {
        "name" : "Employer",
        "value" : 0.0
      }, {
        "name" : "Previous Service/QNEC",
        "value" : 0.0
      } ]
    }, {
      "investmentId" : "ZM",
      "investmentNameShort" : "AC50",
      "investmentName" : "AmerCent One Choice 2050 A",
      "assetClassName" : "Managed Asset Allocation",
      "assetClassValue" : "MGD AS ALLOC",
      "investmentStyle" : "Mgd Asset Allocation",
      "investmentSheetURL" : "https://www1.ft.oneamerica.com/account_services/pdfs/fundDescription/R-21480.pdf",
      "investmentDisclosureURL" : "https://www.ftwcm.oneamerica.com/wps/wcm/connect/rs/Account+Services/Account+Balance/Morningstar+Disclosure?presentationtemplate=Launch%20Download%20In%20Same%20Window",
      "disclaimerLocalKey" : [ ],
      "restriction" : [ ],
      "regType" : "N",
      "value" : 0.0,
      "percentByTotalValue" : 0.0,
      "frozen" : false,
      "retired" : false,
      "closed" : false,
      "invTypeValue" : "MGD AS ALLOC",
      "type" : 1,
      "planDefaultElectionPercentage": 0.0,
      "units" : 0.0,
      "unitValues" : null,
      "indexRateLabel" : null,
      "indexRate" : null,
      "sources" : [ {
        "name" : "Rollover (Unrelated)",
        "value" : 0.0
      }, {
        "name" : "401(k) Deferral",
        "value" : 0.0
      }, {
        "name" : "Employer Match",
        "value" : 0.0
      }, {
        "name" : "Voluntary After-tax",
        "value" : 0.0
      }, {
        "name" : "Non-Registered After-Tax Roll",
        "value" : 0.0
      }, {
        "name" : "Rollover (Related)",
        "value" : 0.0
      }, {
        "name" : "Employer",
        "value" : 0.0
      }, {
        "name" : "Previous Service/QNEC",
        "value" : 0.0
      } ]
    }, {
      "investmentId" : "AG",
      "investmentNameShort" : "AC55",
      "investmentName" : "AmerCent One Choice 2055 A",
      "assetClassName" : "Managed Asset Allocation",
      "assetClassValue" : "MGD AS ALLOC",
      "investmentStyle" : "Mgd Asset Allocation",
      "investmentSheetURL" : "https://www1.ft.oneamerica.com/account_services/pdfs/fundDescription/R-22855.pdf",
      "investmentDisclosureURL" : "https://www.ftwcm.oneamerica.com/wps/wcm/connect/rs/Account+Services/Account+Balance/Morningstar+Disclosure?presentationtemplate=Launch%20Download%20In%20Same%20Window",
      "disclaimerLocalKey" : [ ],
      "restriction" : [ ],
      "regType" : "N",
      "value" : 0.0,
      "percentByTotalValue" : 0.0,
      "frozen" : false,
      "retired" : false,
      "closed" : false,
      "invTypeValue" : "MGD AS ALLOC",
      "type" : 1,
      "planDefaultElectionPercentage": 0.0,
      "units" : 0.0,
      "unitValues" : null,
      "indexRateLabel" : null,
      "indexRate" : null,
      "sources" : [ {
        "name" : "Rollover (Unrelated)",
        "value" : 0.0
      }, {
        "name" : "401(k) Deferral",
        "value" : 0.0
      }, {
        "name" : "Employer Match",
        "value" : 0.0
      }, {
        "name" : "Voluntary After-tax",
        "value" : 0.0
      }, {
        "name" : "Non-Registered After-Tax Roll",
        "value" : 0.0
      }, {
        "name" : "Rollover (Related)",
        "value" : 0.0
      }, {
        "name" : "Employer",
        "value" : 0.0
      }, {
        "name" : "Previous Service/QNEC",
        "value" : 0.0
      } ]
    }, {
      "investmentId" : "ZN",
      "investmentNameShort" : "ACLS",
      "investmentName" : "AmerCent One Choice In Ret A",
      "assetClassName" : "Managed Asset Allocation",
      "assetClassValue" : "MGD AS ALLOC",
      "investmentStyle" : "Mgd Asset Allocation",
      "investmentSheetURL" : "https://www1.ft.oneamerica.com/account_services/pdfs/fundDescription/R-21482.pdf",
      "investmentDisclosureURL" : "https://www.ftwcm.oneamerica.com/wps/wcm/connect/rs/Account+Services/Account+Balance/Morningstar+Disclosure?presentationtemplate=Launch%20Download%20In%20Same%20Window",
      "disclaimerLocalKey" : [ ],
      "restriction" : [ ],
      "regType" : "N",
      "value" : 0.0,
      "percentByTotalValue" : 0.0,
      "frozen" : false,
      "retired" : false,
      "closed" : false,
      "invTypeValue" : "MGD AS ALLOC",
      "type" : 1,
      "planDefaultElectionPercentage": 0.0,
      "units" : 0.0,
      "unitValues" : null,
      "indexRateLabel" : null,
      "indexRate" : null,
      "sources" : [ {
        "name" : "Rollover (Unrelated)",
        "value" : 0.0
      }, {
        "name" : "401(k) Deferral",
        "value" : 0.0
      }, {
        "name" : "Employer Match",
        "value" : 0.0
      }, {
        "name" : "Voluntary After-tax",
        "value" : 0.0
      }, {
        "name" : "Non-Registered After-Tax Roll",
        "value" : 0.0
      }, {
        "name" : "Rollover (Related)",
        "value" : 0.0
      }, {
        "name" : "Employer",
        "value" : 0.0
      }, {
        "name" : "Previous Service/QNEC",
        "value" : 0.0
      } ]
    }, {
      "investmentId" : "O6",
      "investmentNameShort" : "ENIS",
      "investmentName" : "Ennis ER Stock Option - Cash",
      "assetClassName" : "Employer Stock",
      "assetClassValue" : "ER STOCK",
      "investmentStyle" : "Employer Stock",
      "investmentSheetURL" : "https://www1.ft.oneamerica.com/account_services/pdfs/fundDescription/R-21603.pdf",
      "investmentDisclosureURL" : "https://www.ftwcm.oneamerica.com/wps/wcm/connect/rs/Account+Services/Account+Balance/Morningstar+Disclosure?presentationtemplate=Launch%20Download%20In%20Same%20Window",
      "disclaimerLocalKey" : [ ],
      "restriction" : [ ],
      "regType" : "N",
      "value" : 12029.91,
      "percentByTotalValue" : 18.0,
      "frozen" : false,
      "retired" : false,
      "closed" : false,
      "invTypeValue" : "ER STOCK",
      "type" : 1,
      "planDefaultElectionPercentage": 0.0,
      "units" : 11435.9054,
      "unitValues" : null,
      "indexRateLabel" : null,
      "indexRate" : null,
      "sources" : [ {
        "name" : "Rollover (Unrelated)",
        "value" : 0.0
      }, {
        "name" : "401(k) Deferral",
        "value" : 12029.91
      }, {
        "name" : "Employer Match",
        "value" : 0.0
      }, {
        "name" : "Voluntary After-tax",
        "value" : 0.0
      }, {
        "name" : "Non-Registered After-Tax Roll",
        "value" : 0.0
      }, {
        "name" : "Rollover (Related)",
        "value" : 0.0
      }, {
        "name" : "Employer",
        "value" : 0.0
      }, {
        "name" : "Previous Service/QNEC",
        "value" : 0.0
      } ]
    } ],
    "investmentDisclaimers" : [ {
      "disclaimerText" : "Retired means balances are reduced to zero and no future contributions will be invested in the investment. ",
      "disclaimerKey" : null,
      "disclaimerLocalKey" : "R",
      "section" : "Investment"
    }, {
      "disclaimerText" : "Some fund companies may charge a redemption fee for short-term trading in their fund. AUL will assess any applicable redemption fee against the participant's account and forward the fee on to the fund company.",
      "disclaimerKey" : null,
      "disclaimerLocalKey" : "RF",
      "section" : "Investment"
    } ],
    "generalDisclaimers" : [ {
      "disclaimerText" : null,
      "disclaimerKey" : "InvestOptionRounding",
      "disclaimerLocalKey" : null,
      "section" : "General"
    }, {
      "disclaimerText" : null,
      "disclaimerKey" : "InvestOptionTotal",
      "disclaimerLocalKey" : null,
      "section" : "General"
    }, {
      "disclaimerText" : null,
      "disclaimerKey" : "morningStar",
      "disclaimerLocalKey" : null,
      "section" : "General"
    }, {
      "disclaimerText" : null,
      "disclaimerKey" : "InvestOptionTradeValue",
      "disclaimerLocalKey" : null,
      "section" : "General"
    }, {
      "disclaimerText" : null,
      "disclaimerKey" : "CashPayLimit",
      "disclaimerLocalKey" : null,
      "section" : "General"
    }, {
      "disclaimerText" : "The rate of interest to be credited on all new contributions received in the AUL FIXED ACCOUNT is 1.5 percent. Interest rates on new deposits are subject to change each quarter of the calendar year. ",
      "disclaimerKey" : "FixedIntRate",
      "disclaimerLocalKey" : null,
      "section" : "General"
    } ]
  } ],
  "count" : 1,
  "errors" : null,
  "errorCount" : 0
}
