{
 "account" : {
   "excludedPolicyPlan" : false,
   "adminSystemId" : "CL$$",
   "affiliate" : "PML",
   "divisionId" : "IND",
   "name" : "CURRENT VALUE LIFE 3",
   "number" : "0000730776",
   "type" : "ISL",
   "homePlan" : false,
   "retirement" : false,
   "individual" : true,
   "accountTerm" : false,
   "accountWholeLife" : false
 },
 "items" : [ {
   "accountConfig" : {
     "allowAddressChange" : true,
     "allowTransfer" : false,
     "allowElectionChange" : false,
     "allowInvestmentEducation" : false,
     "allowElectionChangeAllocation" : false,
     "allowXferStatus" : false,
     "allowXferReason" : null,
     "allowDollarXferStatus" : false,
     "allowDollarXferReason" : null,
     "allowPercentXferStatus" : false,
     "allowPercentXferReason" : null
   },
   "statusInfo" : {
     "policyStatus" : "Active",
     "policyStatusReason" : "",
     "terminationDate" : null
   },
   "generalPolicyInfo" : {
     "issueDate" : "1991-11-25T00:00:00.000-0500",
     "expiryDate" : null,
     "dateLabelValue" : null,
     "dividendOption" : "Non-paying Div",
     "totalPremiumPaidToDate" : 7202.94,
     "withdrawals" : 0.0,
     "billingMethod" : "Preauthorized Check",
     "billingMode" : "APP Monthly",
     "billingAmount" : 36.0,
     "billToDate" : "2014-09-25T00:00:00.000-0400",
     "bankDraftDate" : 25,
     "bankDraftControlNumber" : "P730776",
     "paidToDate" : "2014-08-25T00:00:00.000-0400",
     "lastPremReceived" : "2014-08-25T00:00:00.000-0400",
     "billRiderAmt" : 0.0,
     "taxQualification" : "NonQualified",
     "taxQualificationType" : "Non-Pension",
     "incomeOption" : "",
     "incomeStartDate" : null,
     "incomeSelected" : "",
     "currRate" : 4.5,
     "ltcRate" : 0.0,
     "wghtRate" : 0.0,
     "guaranteedRate" : 0.0,
     "policyNotes" : "",
     "consolidatedAnnuity" : "Yes",
     "labels" : {
       "dateLabelValue" : "",
       "currRate" : "New Money Interest Rate",
       "wghtRate" : null
     },
     "render" : {
       "issueDate" : true,
       "expiryDate" : false,
       "dateLabelValue" : false,
       "dividendOption" : false,
       "totalPremiumPaidToDate" : false,
       "withdrawals" : false,
       "billingMethod" : true,
       "billingMode" : true,
       "billingAmount" : true,
       "billToDate" : true,
       "bankDraftDate" : true,
       "bankDraftControlNumber" : true,
       "paidToDate" : false,
       "lastPremReceived" : false,
       "billRiderAmt" : false,
       "taxQualification" : false,
       "taxQualificationType" : false,
       "incomeOption" : false,
       "incomeStartDate" : false,
       "incomeSelected" : false,
       "currRate" : false,
       "ltcRate" : false,
       "wghtRate" : false,
       "guaranteedRate" : false,
       "policyNotes" : false,
       "consolidatedAnnuity" : false
     }
   },
   "coverages" : {
     "baseCoverages" : [ {
       "deathBenefit" : 25052.09,
       "faceAmount" : 25000.0,
       "deathBenefitOption" : "Option 1 Face Amount Includes Cash Value",
       "planOfInsurance" : "ISL"
     } ],
     "addCoverages" : [ {
       "personInsured" : "SHERLOCK J HOLMES",
       "name" : "Waiver of Premium for Disability",
       "coverageBenefit" : "As Described in Policy"
     }, {
       "personInsured" : "SHERLOCK J HOLMES",
       "name" : "Accidental Death Benefit",
       "coverageBenefit" : "$25,000.00"
     }, {
       "personInsured" : "SHERLOCK J HOLMES",
       "name" : "Waiver of Premium for Disability",
       "coverageBenefit" : "As Described in Policy"
     }, {
       "personInsured" : "SHERLOCK J HOLMES",
       "name" : "Decreasing Term",
       "coverageBenefit" : "$5,843.74"
     }, {
       "personInsured" : "SHERLOCK J HOLMES",
       "name" : "Accelerated Death Benefit - Lien Method",
       "coverageBenefit" : ""
     }, {
       "personInsured" : "SHERLOCK J HOLMES",
       "name" : "Total Death Benefit",
       "coverageBenefit" : "$30,895.83"
     } ]
   },
   "policyRelationships" : [ {
     "id" : "4444",
     "idType" : "SSN",
     "name" : "SHERLOCK J HOLMES",
     "type" : "Primary Insured",
     "issueAge" : 37,
     "dateOfBirth" : "1954-05-06T00:00:00.000-0400",
     "gender" : "F",
     "emailAddress" : null,
     "address" : [ {
       "type" : "MAIL",
       "foreignAddress" : null,
       "foreignAddressIndicator" : false,
       "line1" : "221B BAKER ST",
       "line2" : "",
       "line3" : null,
       "city" : "LONDON",
       "state" : "MT",
       "zip" : "59270-4609",
       "region" : null,
       "country" : null
     } ],
     "phoneNumber" : null,
     "maritalStatus" : null
   }, {
     "id" : "4444",
     "idType" : "SSN",
     "name" : "SHERLOCK J HOLMES",
     "type" : "Owner",
     "issueAge" : 0,
     "dateOfBirth" : null,
     "gender" : null,
     "emailAddress" : null,
     "address" : [ {
       "type" : "MAIL",
       "foreignAddress" : null,
       "foreignAddressIndicator" : false,
       "line1" : "221B BAKER ST",
       "line2" : "",
       "line3" : null,
       "city" : "LONDON",
       "state" : "MT",
       "zip" : "59270-4609",
       "region" : null,
       "country" : null
     } ],
     "phoneNumber" : null,
     "maritalStatus" : null
   }, {
     "id" : "4444",
     "idType" : "SSN",
     "name" : "SHERLOCK J HOLMES",
     "type" : "Payor",
     "issueAge" : 0,
     "dateOfBirth" : null,
     "gender" : null,
     "emailAddress" : null,
     "address" : [ {
       "type" : "MAIL",
       "foreignAddress" : null,
       "foreignAddressIndicator" : false,
       "line1" : "221B BAKER ST",
       "line2" : "",
       "line3" : null,
       "city" : "LONDON",
       "state" : "MT",
       "zip" : "59270-4609",
       "region" : null,
       "country" : null
     } ],
     "phoneNumber" : null,
     "maritalStatus" : null
   }, {
     "id" : "000000000",
     "idType" : "TAX",
     "name" : "PIONEER MUTUAL LIFE",
     "type" : "Current Servicing Agent",
     "issueAge" : 0,
     "dateOfBirth" : null,
     "gender" : null,
     "emailAddress" : null,
     "address" : [ {
       "type" : "BUSS",
       "foreignAddress" : null,
       "foreignAddressIndicator" : false,
       "line1" : "PO BOX 368",
       "line2" : "",
       "line3" : null,
       "city" : "INDIANAPOLIS",
       "state" : "IN",
       "zip" : "46206",
       "region" : null,
       "country" : null
     } ],
     "phoneNumber" : [ {
       "changed" : false,
       "type" : "BUSS",
       "number" : "8004374692",
       "foreignNumber" : null
     } ],
     "maritalStatus" : null
   } ],
   "policyValue" : {
     "policyAccountValueDate" : "2013-11-25T00:00:00.000-0500",
     "policyValues" : [ {
       "pvamt" : 7832.17,
       "pvtype" : "Account Value"
     }, {
       "pvamt" : 5240.55,
       "pvtype" : "Loan Balance"
     }, {
       "pvamt" : 2277.83,
       "pvtype" : "Net Cash Value"
     } ]
   },
   "generalDisclaimers" : [ {
     "disclaimerText" : "The draft day is the day of the month the premium should be deducted from the checking account.  The actual day the deduction is taken may vary due to weekends and holidays.",
     "disclaimerKey" : "genPolicyData.bankDraft",
     "disclaimerLocalKey" : null,
     "section" : "General"
   }, {
     "disclaimerText" : "Loans may not be available with your particular contract. Please refer to your contract for more details.",
     "disclaimerKey" : "policy.universal",
     "disclaimerLocalKey" : null,
     "section" : "General"
   }, {
     "disclaimerText" : "The net cash value of the policy is the account value, minus any applicable withdrawal charge, minus any outstanding loan effective the policy 'as of date'. Please refer to your contract for more details.",
     "disclaimerKey" : "policy.ulNonLifepro",
     "disclaimerLocalKey" : null,
     "section" : "General"
   }, {
     "disclaimerText" : "The loan balance does not include any interest charged since the last policy anniversary.",
     "disclaimerKey" : "policyValues.loanBalDisclaimer",
     "disclaimerLocalKey" : null,
     "section" : "General"
   } ]
 } ],
 "count" : 1,
 "errors" : null,
 "errorCount" : 0
}
