{
  "account" : {
    "excludedPolicyPlan" : false,
    "adminSystemId" : "OMNI",
    "affiliate" : "AUL",
    "divisionId" : "PEN",
    "name" : "YUKON KUSKOKWIM HEALTH CORPORATION RETIREMENT PLAN",
    "number" : "G62157",
    "homePlan" : false,
    "retirement" : true,
    "individual" : false,
    "accountAnnuity" : false,
    "accountAnnuityCare" : false,
    "accountAssetCare" : false,
    "accountFDIA" : false,
    "accountFixedAnnuity" : false,
    "accountHealth" : false,
    "accountIndexAnnuity" : false,
    "accountISL" : false,
    "accountProceedsAnnuity" : false,
    "accountRA" : false,
    "accountSPFA" : false,
    "accountSPVUL" : false,
    "accountTerm" : false,
    "accountTraditional" : false,
    "accountUL" : false,
    "accountUniversal" : false,
    "accountVariableUniversal" : false,
    "accountVariableAnnuity" : false,
    "accountWholeLife" : false
  },
  "items" : [ {
    "accountConfig" : {
      "allowAddressChange" : true,
      "allowTransfer" : true,
      "allowElectionChange" : true,
      "allowMyInvestments" : true,
      "allowInvestmentEducation" : true,
      "allowElectionChangeAllocation" : true,
      "allowReports" : true,
      "allowLoans" : true,
      "allowLoanCalculator" : false,
      "allowSubmitLoan" : false,
      "allowLoanSummary" : true,
      "allowLoanSpec" : false,
      "allowDeferralChange" : true,
      "allowRIA" : false,
      "allowAdvicePlus" : false,
      "allowPronVest" : true,
      "managedPronVest" : true,
      "allowSelfDirected" : false,
      "allowPlanSummary" : true,
      "participantHasLoans" : false,

      "allowXferStatus" : true,
      "allowRecurringXferStatus" : true,

      "enrollmentNeeded" : false,
      "plan403b" : true,
      "fixedFundOnlyPlan" : false,
      "riaAdvisorFeature" : false,
      "takeoverPlan" : false,
      "hardshipReinstateDate" : null,
      "planBeneficiaryChangeAccess" : "Allow",
      "partBeneficiaryChangeAccess" : "Allow"
    },
    "accountBalance" : 269.99,
    "asOfDate" : "2014-05-06T00:00:00.000-0400",
    "planEffectiveDate" : "2007-03-01T00:00:00.000-0500",
    "prrQuarterly" : 0.0,
    "prrYearly" : 0.0,
    "prrQuarterlyFromDate" : null,
    "prrYearlyFromDate" : null,
    "prrToDate" : null,
    "participantStatus" : "Terminated",
    "adviceServiceURL" : "https://www.pronvestdemo.com/post_login/ssoauthorization.aspx?empID=KIUS951522",
    "adviceServiceName" : "ProNvest",
    "selfDirectedURL" : null,
    "selfDirectedName" : null,
    "riaAdvisorPlanStatus" : null,
    "riaAdvisorModelName" : null,
    "riaAdvisorModelId" : null,
    "annuityBenefitAllowed" : true,
    "planErisa" : false,
    "prrUrl" : "https://www.ftwcm.oneamerica.com/wps/wcm/connect/rs/eretirement/participants/timely+topics/personal+performance+faq+%28r-22348%29?presentationtemplate=Launch%20Download%20In%20Same%20Window",
    "remRole" : {
      "id" : "REM",
      "idType" : null,
      "name" : null,
      "type" : null,
      "issueAge" : 0,
      "dateOfBirth" : null,
      "gender" : null,
      "emailAddress" : null,
      "address" : [ {
        "type" : null,
        "foreignAddress" : null,
        "line1" : null,
        "line2" : null,
        "line3" : null,
        "city" : null,
        "state" : null,
        "zip" : null,
        "region" : null,
        "country" : null
      } ],
      "maritalStatus" : null
    },
    "investments" : [ {
      "investmentId" : "I2",
      "investmentNameShort" : "FIXD",
      "investmentName" : "AUL Fixed Account",
      "assetClassName" : "Fix Int/Stable Value/Cash",
      "assetClassValue" : "FXD INT/CASH",
      "investmentStyle" : "Fixed Int/Stable Val",
      "investmentSheetURL" : "https://www1.ft.oneamerica.com/account_services/pdfs/fundDescription/R-13396.pdf",
      "investmentDisclosureURL" : "https://www.ftwcm.oneamerica.com/wps/wcm/connect/rs/Account+Services/Account+Balance/Morningstar+Disclosure?presentationtemplate=Launch%20Download%20In%20Same%20Window",
      "disclaimerLocalKey" : [ "1" ],
      "restriction" : [ ],
      "value" : 0.0,
      "percentByTotalValue" : 0.0,
      "frozen" : false,
      "retired" : false,
      "invTypeValue" : "FIXED INTRST",
      "type" : 3,
      "units" : 0.0,
      "sources" : [ {
        "name" : "EMPLOYER",
        "value" : 0.0
      }, {
        "name" : "403(b) TDA voluntary",
        "value" : 0.0
      }, {
        "name" : "EMPLOYER PS/MP",
        "value" : 0.0
      }, {
        "name" : "Rollover (Registered)",
        "value" : 0.0
      }, {
        "name" : "457 DCP  voluntary",
        "value" : 0.0
      }, {
        "name" : "VOLUNTARY AFTER-TAX",
        "value" : 0.0
      }, {
        "name" : "EMPLOYER MATCH",
        "value" : 0.0
      } ]
    }, {
      "investmentId" : "33",
      "investmentNameShort" : "TLTI",
      "investmentName" : "Thornburg Ltd-Term Inc R3",
      "assetClassName" : "Short-Term Bonds",
      "assetClassValue" : "SHRT TRM BND",
      "investmentStyle" : "Short Term Bond",
      "investmentSheetURL" : "https://www1.ft.oneamerica.com/account_services/pdfs/fundDescription/R-17672.pdf",
      "investmentDisclosureURL" : "https://www.ftwcm.oneamerica.com/wps/wcm/connect/rs/Account+Services/Account+Balance/Morningstar+Disclosure?presentationtemplate=Launch%20Download%20In%20Same%20Window",
      "disclaimerLocalKey" : [ "1" ],
      "restriction" : [ ],
      "value" : 0.0,
      "percentByTotalValue" : 0.0,
      "frozen" : false,
      "retired" : false,
      "invTypeValue" : "SHRT TRM BND",
      "type" : 1,
      "units" : 0.0,
      "sources" : [ {
        "name" : "EMPLOYER",
        "value" : 0.0
      }, {
        "name" : "403(b) TDA voluntary",
        "value" : 0.0
      }, {
        "name" : "EMPLOYER PS/MP",
        "value" : 0.0
      }, {
        "name" : "Rollover (Registered)",
        "value" : 0.0
      }, {
        "name" : "457 DCP  voluntary",
        "value" : 0.0
      }, {
        "name" : "VOLUNTARY AFTER-TAX",
        "value" : 0.0
      }, {
        "name" : "EMPLOYER MATCH",
        "value" : 0.0
      } ]
    }, {
      "investmentId" : "MR",
      "investmentNameShort" : "ACIB",
      "investmentName" : "AmerCent Infl-Adj Bond A",
      "assetClassName" : "Intermediate-Term Bonds",
      "assetClassValue" : "INTERM BOND",
      "investmentStyle" : "Inflation Protected B",
      "investmentSheetURL" : "https://www1.ft.oneamerica.com/account_services/pdfs/fundDescription/R-17310N.pdf",
      "investmentDisclosureURL" : "https://www.ftwcm.oneamerica.com/wps/wcm/connect/rs/Account+Services/Account+Balance/Morningstar+Disclosure?presentationtemplate=Launch%20Download%20In%20Same%20Window",
      "disclaimerLocalKey" : [ "1" ],
      "restriction" : [ ],
      "value" : 0.0,
      "percentByTotalValue" : 0.0,
      "frozen" : false,
      "retired" : false,
      "invTypeValue" : "INFL PRO BND",
      "type" : 1,
      "units" : 0.0,
      "sources" : [ {
        "name" : "EMPLOYER",
        "value" : 0.0
      }, {
        "name" : "403(b) TDA voluntary",
        "value" : 0.0
      }, {
        "name" : "EMPLOYER PS/MP",
        "value" : 0.0
      }, {
        "name" : "Rollover (Registered)",
        "value" : 0.0
      }, {
        "name" : "457 DCP  voluntary",
        "value" : 0.0
      }, {
        "name" : "VOLUNTARY AFTER-TAX",
        "value" : 0.0
      }, {
        "name" : "EMPLOYER MATCH",
        "value" : 0.0
      } ]
    }, {
      "investmentId" : "W1",
      "investmentNameShort" : "FSTI",
      "investmentName" : "Franklin Strat Inc R",
      "assetClassName" : "Intermediate-Term Bonds",
      "assetClassValue" : "INTERM BOND",
      "investmentStyle" : "Multisector Bond",
      "investmentSheetURL" : "https://www1.ft.oneamerica.com/account_services/pdfs/fundDescription/R-16078N.pdf",
      "investmentDisclosureURL" : "https://www.ftwcm.oneamerica.com/wps/wcm/connect/rs/Account+Services/Account+Balance/Morningstar+Disclosure?presentationtemplate=Launch%20Download%20In%20Same%20Window",
      "disclaimerLocalKey" : [ "1" ],
      "restriction" : [ ],
      "value" : 0.0,
      "percentByTotalValue" : 0.0,
      "frozen" : false,
      "retired" : false,
      "invTypeValue" : "MULTISEC BND",
      "type" : 1,
      "units" : 0.0,
      "sources" : [ {
        "name" : "EMPLOYER",
        "value" : 0.0
      }, {
        "name" : "403(b) TDA voluntary",
        "value" : 0.0
      }, {
        "name" : "EMPLOYER PS/MP",
        "value" : 0.0
      }, {
        "name" : "Rollover (Registered)",
        "value" : 0.0
      }, {
        "name" : "457 DCP  voluntary",
        "value" : 0.0
      }, {
        "name" : "VOLUNTARY AFTER-TAX",
        "value" : 0.0
      }, {
        "name" : "EMPLOYER MATCH",
        "value" : 0.0
      } ]
    }, {
      "investmentId" : "MC",
      "investmentNameShort" : "ASC2",
      "investmentName" : "AmerCent AllocCon Inv",
      "assetClassName" : "Balanced",
      "assetClassValue" : "BALANCED",
      "investmentStyle" : "Balanced",
      "investmentSheetURL" : "https://www1.ft.oneamerica.com/account_services/pdfs/fundDescription/R-15421N.pdf",
      "investmentDisclosureURL" : "https://www.ftwcm.oneamerica.com/wps/wcm/connect/rs/Account+Services/Account+Balance/Morningstar+Disclosure?presentationtemplate=Launch%20Download%20In%20Same%20Window",
      "disclaimerLocalKey" : [ "1" ],
      "restriction" : [ ],
      "value" : 0.0,
      "percentByTotalValue" : 0.0,
      "frozen" : false,
      "retired" : false,
      "invTypeValue" : "BALANCED",
      "type" : 1,
      "units" : 0.0,
      "sources" : [ {
        "name" : "EMPLOYER",
        "value" : 0.0
      }, {
        "name" : "403(b) TDA voluntary",
        "value" : 0.0
      }, {
        "name" : "EMPLOYER PS/MP",
        "value" : 0.0
      }, {
        "name" : "Rollover (Registered)",
        "value" : 0.0
      }, {
        "name" : "457 DCP  voluntary",
        "value" : 0.0
      }, {
        "name" : "VOLUNTARY AFTER-TAX",
        "value" : 0.0
      }, {
        "name" : "EMPLOYER MATCH",
        "value" : 0.0
      } ]
    }, {
      "investmentId" : "MA",
      "investmentNameShort" : "ASA2",
      "investmentName" : "AmerCent Strat Alloc Agrsv Inv",
      "assetClassName" : "Balanced",
      "assetClassValue" : "BALANCED",
      "investmentStyle" : "Balanced",
      "investmentSheetURL" : "https://www1.ft.oneamerica.com/account_services/pdfs/fundDescription/R-15419N.pdf",
      "investmentDisclosureURL" : "https://www.ftwcm.oneamerica.com/wps/wcm/connect/rs/Account+Services/Account+Balance/Morningstar+Disclosure?presentationtemplate=Launch%20Download%20In%20Same%20Window",
      "disclaimerLocalKey" : [ "1" ],
      "restriction" : [ ],
      "value" : 0.0,
      "percentByTotalValue" : 0.0,
      "frozen" : false,
      "retired" : false,
      "invTypeValue" : "BALANCED",
      "type" : 1,
      "units" : 0.0,
      "sources" : [ {
        "name" : "EMPLOYER",
        "value" : 0.0
      }, {
        "name" : "403(b) TDA voluntary",
        "value" : 0.0
      }, {
        "name" : "EMPLOYER PS/MP",
        "value" : 0.0
      }, {
        "name" : "Rollover (Registered)",
        "value" : 0.0
      }, {
        "name" : "457 DCP  voluntary",
        "value" : 0.0
      }, {
        "name" : "VOLUNTARY AFTER-TAX",
        "value" : 0.0
      }, {
        "name" : "EMPLOYER MATCH",
        "value" : 0.0
      } ]
    }, {
      "investmentId" : "MB",
      "investmentNameShort" : "ASM2",
      "investmentName" : "AmerCent Strat Alloc: Mod Inv",
      "assetClassName" : "Balanced",
      "assetClassValue" : "BALANCED",
      "investmentStyle" : "Balanced",
      "investmentSheetURL" : "https://www1.ft.oneamerica.com/account_services/pdfs/fundDescription/R-15420N.pdf",
      "investmentDisclosureURL" : "https://www.ftwcm.oneamerica.com/wps/wcm/connect/rs/Account+Services/Account+Balance/Morningstar+Disclosure?presentationtemplate=Launch%20Download%20In%20Same%20Window",
      "disclaimerLocalKey" : [ "1" ],
      "restriction" : [ ],
      "value" : 0.0,
      "percentByTotalValue" : 0.0,
      "frozen" : false,
      "retired" : false,
      "invTypeValue" : "BALANCED",
      "type" : 1,
      "units" : 0.0,
      "sources" : [ {
        "name" : "EMPLOYER",
        "value" : 0.0
      }, {
        "name" : "403(b) TDA voluntary",
        "value" : 0.0
      }, {
        "name" : "EMPLOYER PS/MP",
        "value" : 0.0
      }, {
        "name" : "Rollover (Registered)",
        "value" : 0.0
      }, {
        "name" : "457 DCP  voluntary",
        "value" : 0.0
      }, {
        "name" : "VOLUNTARY AFTER-TAX",
        "value" : 0.0
      }, {
        "name" : "EMPLOYER MATCH",
        "value" : 0.0
      } ]
    }, {
      "investmentId" : "A3",
      "investmentNameShort" : "BMGD",
      "investmentName" : "OneAmerica Asset Director O",
      "assetClassName" : "Balanced",
      "assetClassValue" : "BALANCED",
      "investmentStyle" : "Balanced",
      "investmentSheetURL" : "https://www1.ft.oneamerica.com/account_services/pdfs/fundDescription/R-13294N.pdf",
      "investmentDisclosureURL" : "https://www.ftwcm.oneamerica.com/wps/wcm/connect/rs/Account+Services/Account+Balance/Morningstar+Disclosure?presentationtemplate=Launch%20Download%20In%20Same%20Window",
      "disclaimerLocalKey" : [ ],
      "restriction" : [ ],
      "value" : 269.99,
      "percentByTotalValue" : 100.0,
      "frozen" : false,
      "retired" : false,
      "invTypeValue" : "BALANCED",
      "type" : 1,
      "units" : 44.787,
      "sources" : [ {
        "name" : "EMPLOYER",
        "value" : 0.0
      }, {
        "name" : "403(b) TDA voluntary",
        "value" : 269.99
      }, {
        "name" : "EMPLOYER PS/MP",
        "value" : 0.0
      }, {
        "name" : "Rollover (Registered)",
        "value" : 0.0
      }, {
        "name" : "457 DCP  voluntary",
        "value" : 0.0
      }, {
        "name" : "VOLUNTARY AFTER-TAX",
        "value" : 0.0
      }, {
        "name" : "EMPLOYER MATCH",
        "value" : 0.0
      } ]
    }, {
      "investmentId" : "8D",
      "investmentNameShort" : "AFFN",
      "investmentName" : "AmerFds Fdamental Invs R4",
      "assetClassName" : "Large-Cap Stocks",
      "assetClassValue" : "LRGE CAP EQU",
      "investmentStyle" : "Large Cap Blend",
      "investmentSheetURL" : "https://www1.ft.oneamerica.com/account_services/pdfs/fundDescription/R-18929.pdf",
      "investmentDisclosureURL" : "https://www.ftwcm.oneamerica.com/wps/wcm/connect/rs/Account+Services/Account+Balance/Morningstar+Disclosure?presentationtemplate=Launch%20Download%20In%20Same%20Window",
      "disclaimerLocalKey" : [ "1" ],
      "restriction" : [ ],
      "value" : 0.0,
      "percentByTotalValue" : 0.0,
      "frozen" : false,
      "retired" : false,
      "invTypeValue" : "LRGCAP BLEND",
      "type" : 1,
      "units" : 0.0,
      "sources" : [ {
        "name" : "EMPLOYER",
        "value" : 0.0
      }, {
        "name" : "403(b) TDA voluntary",
        "value" : 0.0
      }, {
        "name" : "EMPLOYER PS/MP",
        "value" : 0.0
      }, {
        "name" : "Rollover (Registered)",
        "value" : 0.0
      }, {
        "name" : "457 DCP  voluntary",
        "value" : 0.0
      }, {
        "name" : "VOLUNTARY AFTER-TAX",
        "value" : 0.0
      }, {
        "name" : "EMPLOYER MATCH",
        "value" : 0.0
      } ]
    }, {
      "investmentId" : "AD",
      "investmentNameShort" : "OSRO",
      "investmentName" : "OneAmerica Socially Resp O",
      "assetClassName" : "Large-Cap Stocks",
      "assetClassValue" : "LRGE CAP EQU",
      "investmentStyle" : "Large Cap Blend",
      "investmentSheetURL" : "https://www1.ft.oneamerica.com/account_services/pdfs/fundDescription/R-18462.pdf",
      "investmentDisclosureURL" : "https://www.ftwcm.oneamerica.com/wps/wcm/connect/rs/Account+Services/Account+Balance/Morningstar+Disclosure?presentationtemplate=Launch%20Download%20In%20Same%20Window",
      "disclaimerLocalKey" : [ "1" ],
      "restriction" : [ ],
      "value" : 0.0,
      "percentByTotalValue" : 0.0,
      "frozen" : false,
      "retired" : false,
      "invTypeValue" : "LRGCAP BLEND",
      "type" : 1,
      "units" : 0.0,
      "sources" : [ {
        "name" : "EMPLOYER",
        "value" : 0.0
      }, {
        "name" : "403(b) TDA voluntary",
        "value" : 0.0
      }, {
        "name" : "EMPLOYER PS/MP",
        "value" : 0.0
      }, {
        "name" : "Rollover (Registered)",
        "value" : 0.0
      }, {
        "name" : "457 DCP  voluntary",
        "value" : 0.0
      }, {
        "name" : "VOLUNTARY AFTER-TAX",
        "value" : 0.0
      }, {
        "name" : "EMPLOYER MATCH",
        "value" : 0.0
      } ]
    }, {
      "investmentId" : "X2",
      "investmentNameShort" : "FINX",
      "investmentName" : "State St Eqty 500 Indx Adm",
      "assetClassName" : "Large-Cap Stocks",
      "assetClassValue" : "LRGE CAP EQU",
      "investmentStyle" : "Large Cap Blend",
      "investmentSheetURL" : "https://www1.ft.oneamerica.com/account_services/pdfs/fundDescription/R-13307R.pdf",
      "investmentDisclosureURL" : "https://www.ftwcm.oneamerica.com/wps/wcm/connect/rs/Account+Services/Account+Balance/Morningstar+Disclosure?presentationtemplate=Launch%20Download%20In%20Same%20Window",
      "disclaimerLocalKey" : [ "1" ],
      "restriction" : [ ],
      "value" : 0.0,
      "percentByTotalValue" : 0.0,
      "frozen" : false,
      "retired" : false,
      "invTypeValue" : "LRGCAP BLEND",
      "type" : 1,
      "units" : 0.0,
      "sources" : [ {
        "name" : "EMPLOYER",
        "value" : 0.0
      }, {
        "name" : "403(b) TDA voluntary",
        "value" : 0.0
      }, {
        "name" : "EMPLOYER PS/MP",
        "value" : 0.0
      }, {
        "name" : "Rollover (Registered)",
        "value" : 0.0
      }, {
        "name" : "457 DCP  voluntary",
        "value" : 0.0
      }, {
        "name" : "VOLUNTARY AFTER-TAX",
        "value" : 0.0
      }, {
        "name" : "EMPLOYER MATCH",
        "value" : 0.0
      } ]
    }, {
      "investmentId" : "8E",
      "investmentNameShort" : "AFGT",
      "investmentName" : "AmerFds Grth Fd of America R4",
      "assetClassName" : "Large-Cap Stocks",
      "assetClassValue" : "LRGE CAP EQU",
      "investmentStyle" : "Large Cap Growth",
      "investmentSheetURL" : "https://www1.ft.oneamerica.com/account_services/pdfs/fundDescription/R-18933.pdf",
      "investmentDisclosureURL" : "https://www.ftwcm.oneamerica.com/wps/wcm/connect/rs/Account+Services/Account+Balance/Morningstar+Disclosure?presentationtemplate=Launch%20Download%20In%20Same%20Window",
      "disclaimerLocalKey" : [ "1" ],
      "restriction" : [ ],
      "value" : 0.0,
      "percentByTotalValue" : 0.0,
      "frozen" : false,
      "retired" : false,
      "invTypeValue" : "LRGCAP GRWTH",
      "type" : 1,
      "units" : 0.0,
      "sources" : [ {
        "name" : "EMPLOYER",
        "value" : 0.0
      }, {
        "name" : "403(b) TDA voluntary",
        "value" : 0.0
      }, {
        "name" : "EMPLOYER PS/MP",
        "value" : 0.0
      }, {
        "name" : "Rollover (Registered)",
        "value" : 0.0
      }, {
        "name" : "457 DCP  voluntary",
        "value" : 0.0
      }, {
        "name" : "VOLUNTARY AFTER-TAX",
        "value" : 0.0
      }, {
        "name" : "EMPLOYER MATCH",
        "value" : 0.0
      } ]
    }, {
      "investmentId" : "93",
      "investmentNameShort" : "GSMV",
      "investmentName" : "GoldmanSachs MidCap Val Inst",
      "assetClassName" : "Mid-Cap Stocks",
      "assetClassValue" : "MID CAP EQTY",
      "investmentStyle" : "Mid Cap Value",
      "investmentSheetURL" : "https://www1.ft.oneamerica.com/account_services/pdfs/fundDescription/R-18981.pdf",
      "investmentDisclosureURL" : "https://www.ftwcm.oneamerica.com/wps/wcm/connect/rs/Account+Services/Account+Balance/Morningstar+Disclosure?presentationtemplate=Launch%20Download%20In%20Same%20Window",
      "disclaimerLocalKey" : [ "1" ],
      "restriction" : [ ],
      "value" : 0.0,
      "percentByTotalValue" : 0.0,
      "frozen" : false,
      "retired" : false,
      "invTypeValue" : "MIDCAP VALUE",
      "type" : 1,
      "units" : 0.0,
      "sources" : [ {
        "name" : "EMPLOYER",
        "value" : 0.0
      }, {
        "name" : "403(b) TDA voluntary",
        "value" : 0.0
      }, {
        "name" : "EMPLOYER PS/MP",
        "value" : 0.0
      }, {
        "name" : "Rollover (Registered)",
        "value" : 0.0
      }, {
        "name" : "457 DCP  voluntary",
        "value" : 0.0
      }, {
        "name" : "VOLUNTARY AFTER-TAX",
        "value" : 0.0
      }, {
        "name" : "EMPLOYER MATCH",
        "value" : 0.0
      } ]
    }, {
      "investmentId" : "EY",
      "investmentNameShort" : "FALS",
      "investmentName" : "Fidelity Adv Lev Comp Stock A",
      "assetClassName" : "Mid-Cap Stocks",
      "assetClassValue" : "MID CAP EQTY",
      "investmentStyle" : "Mid Cap Blend",
      "investmentSheetURL" : "https://www1.ft.oneamerica.com/account_services/pdfs/fundDescription/R-18949.pdf",
      "investmentDisclosureURL" : "https://www.ftwcm.oneamerica.com/wps/wcm/connect/rs/Account+Services/Account+Balance/Morningstar+Disclosure?presentationtemplate=Launch%20Download%20In%20Same%20Window",
      "disclaimerLocalKey" : [ "1" ],
      "restriction" : [ ],
      "value" : 0.0,
      "percentByTotalValue" : 0.0,
      "frozen" : false,
      "retired" : false,
      "invTypeValue" : "MIDCAP BLEND",
      "type" : 1,
      "units" : 0.0,
      "sources" : [ {
        "name" : "EMPLOYER",
        "value" : 0.0
      }, {
        "name" : "403(b) TDA voluntary",
        "value" : 0.0
      }, {
        "name" : "EMPLOYER PS/MP",
        "value" : 0.0
      }, {
        "name" : "Rollover (Registered)",
        "value" : 0.0
      }, {
        "name" : "457 DCP  voluntary",
        "value" : 0.0
      }, {
        "name" : "VOLUNTARY AFTER-TAX",
        "value" : 0.0
      }, {
        "name" : "EMPLOYER MATCH",
        "value" : 0.0
      } ]
    }, {
      "investmentId" : "67",
      "investmentNameShort" : "OMST",
      "investmentName" : "Oppenheimer Main St SMidCap A",
      "assetClassName" : "Mid-Cap Stocks",
      "assetClassValue" : "SML CAP EQU",
      "investmentStyle" : "Mid Cap Blend",
      "investmentSheetURL" : "https://www1.ft.oneamerica.com/account_services/pdfs/fundDescription/R-18997.pdf",
      "investmentDisclosureURL" : "https://www.ftwcm.oneamerica.com/wps/wcm/connect/rs/Account+Services/Account+Balance/Morningstar+Disclosure?presentationtemplate=Launch%20Download%20In%20Same%20Window",
      "disclaimerLocalKey" : [ "1" ],
      "restriction" : [ ],
      "value" : 0.0,
      "percentByTotalValue" : 0.0,
      "frozen" : false,
      "retired" : false,
      "invTypeValue" : "SMLCAP BLEND",
      "type" : 1,
      "units" : 0.0,
      "sources" : [ {
        "name" : "EMPLOYER",
        "value" : 0.0
      }, {
        "name" : "403(b) TDA voluntary",
        "value" : 0.0
      }, {
        "name" : "EMPLOYER PS/MP",
        "value" : 0.0
      }, {
        "name" : "Rollover (Registered)",
        "value" : 0.0
      }, {
        "name" : "457 DCP  voluntary",
        "value" : 0.0
      }, {
        "name" : "VOLUNTARY AFTER-TAX",
        "value" : 0.0
      }, {
        "name" : "EMPLOYER MATCH",
        "value" : 0.0
      } ]
    }, {
      "investmentId" : "4A",
      "investmentNameShort" : "FAGO",
      "investmentName" : "Nuveen MidCap Grth Ops A",
      "assetClassName" : "Mid-Cap Stocks",
      "assetClassValue" : "MID CAP EQTY",
      "investmentStyle" : "Mid Cap Growth",
      "investmentSheetURL" : "https://www1.ft.oneamerica.com/account_services/pdfs/fundDescription/R-18957.pdf",
      "investmentDisclosureURL" : "https://www.ftwcm.oneamerica.com/wps/wcm/connect/rs/Account+Services/Account+Balance/Morningstar+Disclosure?presentationtemplate=Launch%20Download%20In%20Same%20Window",
      "disclaimerLocalKey" : [ "1" ],
      "restriction" : [ ],
      "value" : 0.0,
      "percentByTotalValue" : 0.0,
      "frozen" : false,
      "retired" : false,
      "invTypeValue" : "MIDCAP GRWTH",
      "type" : 1,
      "units" : 0.0,
      "sources" : [ {
        "name" : "EMPLOYER",
        "value" : 0.0
      }, {
        "name" : "403(b) TDA voluntary",
        "value" : 0.0
      }, {
        "name" : "EMPLOYER PS/MP",
        "value" : 0.0
      }, {
        "name" : "Rollover (Registered)",
        "value" : 0.0
      }, {
        "name" : "457 DCP  voluntary",
        "value" : 0.0
      }, {
        "name" : "VOLUNTARY AFTER-TAX",
        "value" : 0.0
      }, {
        "name" : "EMPLOYER MATCH",
        "value" : 0.0
      } ]
    }, {
      "investmentId" : "R7",
      "investmentNameShort" : "ASCI",
      "investmentName" : "Alger SmCap Grth Inst",
      "assetClassName" : "Small-Cap Stocks",
      "assetClassValue" : "SML CAP EQU",
      "investmentStyle" : "Small Cap Growth",
      "investmentSheetURL" : "https://www1.ft.oneamerica.com/account_services/pdfs/fundDescription/R-18893.pdf",
      "investmentDisclosureURL" : "https://www.ftwcm.oneamerica.com/wps/wcm/connect/rs/Account+Services/Account+Balance/Morningstar+Disclosure?presentationtemplate=Launch%20Download%20In%20Same%20Window",
      "disclaimerLocalKey" : [ "1" ],
      "restriction" : [ ],
      "value" : 0.0,
      "percentByTotalValue" : 0.0,
      "frozen" : false,
      "retired" : false,
      "invTypeValue" : "SMLCAP GRWTH",
      "type" : 1,
      "units" : 0.0,
      "sources" : [ {
        "name" : "EMPLOYER",
        "value" : 0.0
      }, {
        "name" : "403(b) TDA voluntary",
        "value" : 0.0
      }, {
        "name" : "EMPLOYER PS/MP",
        "value" : 0.0
      }, {
        "name" : "Rollover (Registered)",
        "value" : 0.0
      }, {
        "name" : "457 DCP  voluntary",
        "value" : 0.0
      }, {
        "name" : "VOLUNTARY AFTER-TAX",
        "value" : 0.0
      }, {
        "name" : "EMPLOYER MATCH",
        "value" : 0.0
      } ]
    }, {
      "investmentId" : "8B",
      "investmentNameShort" : "AFEW",
      "investmentName" : "AmerFds EuroPac Grth R4",
      "assetClassName" : "Foreign Stocks",
      "assetClassValue" : "FRGN EQUITY",
      "investmentStyle" : "Foreign Blend",
      "investmentSheetURL" : "https://www1.ft.oneamerica.com/account_services/pdfs/fundDescription/R-18925.pdf",
      "investmentDisclosureURL" : "https://www.ftwcm.oneamerica.com/wps/wcm/connect/rs/Account+Services/Account+Balance/Morningstar+Disclosure?presentationtemplate=Launch%20Download%20In%20Same%20Window",
      "disclaimerLocalKey" : [ "1" ],
      "restriction" : [ ],
      "value" : 0.0,
      "percentByTotalValue" : 0.0,
      "frozen" : false,
      "retired" : false,
      "invTypeValue" : "FRGN BLEND",
      "type" : 1,
      "units" : 0.0,
      "sources" : [ {
        "name" : "EMPLOYER",
        "value" : 0.0
      }, {
        "name" : "403(b) TDA voluntary",
        "value" : 0.0
      }, {
        "name" : "EMPLOYER PS/MP",
        "value" : 0.0
      }, {
        "name" : "Rollover (Registered)",
        "value" : 0.0
      }, {
        "name" : "457 DCP  voluntary",
        "value" : 0.0
      }, {
        "name" : "VOLUNTARY AFTER-TAX",
        "value" : 0.0
      }, {
        "name" : "EMPLOYER MATCH",
        "value" : 0.0
      } ]
    }, {
      "investmentId" : "8A",
      "investmentNameShort" : "AFWG",
      "investmentName" : "AmerFds Cap World Grth&Inc R4",
      "assetClassName" : "World Stocks",
      "assetClassValue" : "WORLD STOCK",
      "investmentStyle" : "World Stock",
      "investmentSheetURL" : "https://www1.ft.oneamerica.com/account_services/pdfs/fundDescription/R-18921.pdf",
      "investmentDisclosureURL" : "https://www.ftwcm.oneamerica.com/wps/wcm/connect/rs/Account+Services/Account+Balance/Morningstar+Disclosure?presentationtemplate=Launch%20Download%20In%20Same%20Window",
      "disclaimerLocalKey" : [ "1" ],
      "restriction" : [ ],
      "value" : 0.0,
      "percentByTotalValue" : 0.0,
      "frozen" : false,
      "retired" : false,
      "invTypeValue" : "WORLD STOCK",
      "type" : 1,
      "units" : 0.0,
      "sources" : [ {
        "name" : "EMPLOYER",
        "value" : 0.0
      }, {
        "name" : "403(b) TDA voluntary",
        "value" : 0.0
      }, {
        "name" : "EMPLOYER PS/MP",
        "value" : 0.0
      }, {
        "name" : "Rollover (Registered)",
        "value" : 0.0
      }, {
        "name" : "457 DCP  voluntary",
        "value" : 0.0
      }, {
        "name" : "VOLUNTARY AFTER-TAX",
        "value" : 0.0
      }, {
        "name" : "EMPLOYER MATCH",
        "value" : 0.0
      } ]
    } ],
    "investmentDisclaimers" : [ {
      "disclaimerText" : "This investment option is closed to all new financial deposits. The value must be transferred to a new investment option. ",
      "disclaimerKey" : null,
      "disclaimerLocalKey" : "1",
      "section" : "Investment"
    } ],
    "generalDisclaimers" : [ {
      "disclaimerText" : null,
      "disclaimerKey" : "InvestOptionRounding",
      "disclaimerLocalKey" : null,
      "section" : "General"
    }, {
      "disclaimerText" : null,
      "disclaimerKey" : "InvestOptionTotal",
      "disclaimerLocalKey" : null,
      "section" : "General"
    }, {
      "disclaimerText" : null,
      "disclaimerKey" : "morningStar",
      "disclaimerLocalKey" : null,
      "section" : "General"
    }, {
      "disclaimerText" : null,
      "disclaimerKey" : "InvestOptionTradeValue",
      "disclaimerLocalKey" : null,
      "section" : "General"
    }, {
      "disclaimerText" : null,
      "disclaimerKey" : "CashPayLimit",
      "disclaimerLocalKey" : null,
      "section" : "General"
    }, {
      "disclaimerText" : "Interest rates on new deposits are subject to change each quarter of the calendar year. ",
      "disclaimerKey" : "FixedIntRate",
      "disclaimerLocalKey" : null,
      "section" : "General"
    } ]
  } ],
  "count" : 1,
  "errors" : null,
  "errorCount" : 0
}
