{
  "account" : {
    "excludedPolicyPlan" : false,
    "adminSystemId" : "CL$$",
    "affiliate" : "SL",
    "divisionId" : "IND",
    "name" : "ANNUITY CARE II-REIMBURSEMENT WITH LTC AND COB",
    "number" : "5820041300",
    "type" : "SPFA",
    "homePlan" : false,
    "retirement" : false,
    "individual" : true
  },
  "items" : [ {
    "accountConfig" : {
      "allowAddressChange" : true,
      "allowTransfer" : false,
      "allowElectionChange" : false,
      "allowInvestmentEducation" : false,
      "allowElectionChangeAllocation" : false,
      "allowReports" : false,
      "allowMyInvestments" : false,
      "allowXferStatus" : false,
      "allowXferReason" : null,
      "allowDollarXferStatus" : false,
      "allowDollarXferReason" : null,
      "allowPercentXferStatus" : false,
      "allowPercentXferReason" : null,
      "allowMyStrategies" : false,
      "allowStrategyAllocation" : false
    },
    "statusInfo" : {
      "policyStatus" : "Active",
      "policyStatusReason" : "",
      "terminationDate" : null
    },
    "generalPolicyInfo" : {
      "issueDate" : "2010-04-09T00:00:00.000-0400",
      "expiryDate" : null,
      "dateLabelValue" : null,
      "dividendOption" : "All Vals Applied",
      "totalPremiumPaidToDate" : 51158.09,
      "withdrawals" : 0.0,
      "billingMethod" : "Single Premium",
      "billingMode" : "",
      "billingAmount" : 0.0,
      "billToDate" : null,
      "bankDraftDate" : 0,
      "bankDraftControlNumber" : "",
      "paidToDate" : "2010-04-09T00:00:00.000-0400",
      "lastPremReceived" : "2010-04-09T00:00:00.000-0400",
      "billRiderAmt" : 0.0,
      "taxQualification" : "NonQualified",
      "taxQualificationType" : "",
      "incomeOption" : "",
      "incomeStartDate" : null,
      "incomeSelected" : "",
      "currRate" : 3.0,
      "ltcRate" : 4.25,
      "wghtRate" : 0.0,
      "guaranteedRate" : 3.0,
      "policyNotes" : "Restricted Policy",
      "consolidatedAnnuity" : "Yes",
      "labels" : {
        "dateLabelValue" : "",
        "currRate" : "Accumulated Value Current Interest Rate",
        "wghtRate" : null
      },
      "render" : {
        "issueDate" : true,
        "expiryDate" : false,
        "dateLabelValue" : false,
        "dividendOption" : false,
        "totalPremiumPaidToDate" : true,
        "withdrawals" : false,
        "billingMethod" : true,
        "billingMode" : false,
        "billingAmount" : false,
        "billToDate" : false,
        "bankDraftDate" : false,
        "bankDraftControlNumber" : false,
        "paidToDate" : false,
        "lastPremReceived" : true,
        "billRiderAmt" : false,
        "taxQualification" : true,
        "taxQualificationType" : false,
        "incomeOption" : false,
        "incomeStartDate" : false,
        "incomeSelected" : false,
        "currRate" : true,
        "ltcRate" : true,
        "wghtRate" : false,
        "guaranteedRate" : true,
        "policyNotes" : true,
        "consolidatedAnnuity" : false
      }
    },
    "policyRelationships" : [ {
      "id" : "6666",
      "idType" : "SSN",
      "name" : "BUGS B BUNNY",
      "type" : "Annuitant",
      "issueAge" : 65,
      "dateOfBirth" : "1944-12-29T00:00:00.000-0400",
      "gender" : "F",
      "emailAddress" : null,
      "address" : [ {
        "type" : "MAIL",
        "foreignAddressIndicator" : false,
        "line1" : "22 east PLAZA",
        "line2" : "",
        "line3" : null,
        "city" : "COLUMBUS",
        "state" : "OH",
        "zip" : "43214"
      } ],
      "phoneNumber" : null,
      "maritalStatus" : null
    }, {
      "id" : "6666",
      "idType" : "SSN",
      "name" : "BUGS B BUNNY",
      "type" : "Owner",
      "issueAge" : 0,
      "dateOfBirth" : null,
      "gender" : null,
      "emailAddress" : null,
      "address" : [ {
        "type" : "MAIL",
        "foreignAddressIndicator" : false,
        "line1" : "22 east PLAZA",
        "line2" : "",
        "line3" : null,
        "city" : "COLUMBUS",
        "state" : "OH",
        "zip" : "43214"
      } ],
      "phoneNumber" : null,
      "maritalStatus" : null
    }, {
      "id" : "6666",
      "idType" : "SSN",
      "name" : "BUGS B BUNNY",
      "type" : "Payor",
      "issueAge" : 0,
      "dateOfBirth" : null,
      "gender" : null,
      "emailAddress" : null,
      "address" : [ {
        "type" : "MAIL",
        "foreignAddressIndicator" : false,
        "line1" : "22 east PLAZA",
        "line2" : "",
        "line3" : null,
        "city" : "COLUMBUS",
        "state" : "OH",
        "zip" : "43214"
      } ],
      "phoneNumber" : null,
      "maritalStatus" : null
    }, {
      "id" : null,
      "idType" : "",
      "name" : "MINNIE M MOUSE",
      "type" : "First Beneficiary",
      "issueAge" : 0,
      "dateOfBirth" : null,
      "gender" : null,
      "emailAddress" : null,
      "address" : null,
      "phoneNumber" : null,
      "maritalStatus" : null
    }, {
      "id" : "0000",
      "idType" : "TAX",
      "name" : "FIRST PROTECTIVE INS GRP",
      "type" : "Current Servicing Agent",
      "issueAge" : 0,
      "dateOfBirth" : null,
      "gender" : null,
      "emailAddress" : null,
      "address" : [ {
        "type" : "BUSS",
        "foreignAddressIndicator" : false,
        "line1" : "600 LUCKIE DR STE 200",
        "line2" : "",
        "line3" : null,
        "city" : "BIRMINGHAM",
        "state" : "AL",
        "zip" : "35223"
      } ],
      "phoneNumber" : [ {
        "changed" : false,
        "type" : "BUSS",
        "number" : "8008763950",
        "foreignNumber" : null
      } ],
      "maritalStatus" : null
    } ],
    "coverages" : {
      "baseCoverages" : [ {
        "COBMonths" : "108",
        "monthlyLTCBenefit" : 2393.4,
        "planOfInsurance" : "Annuity Care II-Reimbursement with LTC and COB",
        "monthlyCOBBenefit" : 2393.4
      } ],
      "addCoverages" : [ {
        "personInsured" : "BUGS B BUNNY",
        "name" : "Waiver of Continuation of Benefits Monthly Charge"
      } ]
    },
    "policyValue" : {
      "policyAccountValueDate" : "2014-11-04T00:00:00.000-0500",
      "policyValues" : [ {
        "pvamt" : 55019.66,
        "pvtype" : "Accumulated Value"
      }, {
        "pvamt" : 52268.68,
        "pvtype" : "Cash Surrender Value"
      }, {
        "pvamt" : 57441.77,
        "pvtype" : "Accumulated Value LTC Fund"
      } ]
    },
    "investments" : null,
    "accountBalance" : null,
    "asOfDate" : null,
    "fundPerformanceURL" : null,
    "indexDate" : null,
    "freeWithdrawal" : null,
    "relatedPolicy" : null,
    "investmentDisclaimers" : [ ],
    "generalDisclaimers" : [ {
      "disclaimerText" : "The accumulated value is the net result of premiums paid, plus interest earned on the premiums, minus any charges deducted, minus any partial withdrawals taken.  The cash surrender value of the policy is the accumulated value, minus any applicable withdrawal charge effective the policy 'as of date'.  Please refer to your contract for more detail.",
      "disclaimerKey" : "policy.fixedAnnuityAssetCareCashFundValue",
      "disclaimerLocalKey" : null,
      "section" : "General"
    }, {
      "disclaimerText" : "Proceeds upon death:  Upon the owner's death proceeds are the account value.  If the owner is not the annuitant and a new annuitant is not named within 120 days, the cash surrender value is paid to the owner.",
      "disclaimerKey" : "policy.fixedAnnuityAssetCareDeathBenefit",
      "disclaimerLocalKey" : null,
      "section" : "General"
    } ]
  } ],
  "count" : 1,
  "errors" : null,
  "errorCount" : 0
}