{
  "account" : {
    "excludedPolicyPlan" : false,
    "adminSystemId" : "CL$$",
    "affiliate" : "SL",
    "divisionId" : "IND",
    "name" : "ASSET CARE LIFE 4",
    "number" : "5200028890",
    "type" : "WL",
    "homePlan" : false,
    "retirement" : false,
    "individual" : true
  },
  "items" : [ {
    "accountConfig" : {
      "allowAddressChange" : true,
      "allowTransfer" : false,
      "allowElectionChange" : false,
      "allowInvestmentEducation" : false,
      "allowElectionChangeAllocation" : true,
      "allowReports" : false,
      "allowMyInvestments" : false,
      "allowXferStatus" : false,
      "allowXferReason" : null,
      "allowDollarXferStatus" : false,
      "allowDollarXferReason" : null,
      "allowPercentXferStatus" : false,
      "allowPercentXferReason" : null
    },
    "statusInfo" : {
      "policyStatus" : "Active",
      "policyStatusReason" : "",
      "terminationDate" : null
    },
    "generalPolicyInfo" : {
      "issueDate" : "2009-03-28T00:00:00.000-0400",
      "expiryDate" : null,
      "dateLabelValue" : null,
      "dividendOption" : "Non-paying Div",
      "totalPremiumPaidToDate" : 46588.84,
      "withdrawals" : 0.0,
      "billingMethod" : "Preauthorized Check",
      "billingMode" : "Monthly",
      "billingAmount" : 685.13,
      "billToDate" : "2014-11-28T00:00:00.000-0500",
      "bankDraftDate" : 28,
      "bankDraftControlNumber" : "0000000",
      "paidToDate" : "2014-11-28T00:00:00.000-0500",
      "lastPremReceived" : "2014-11-28T00:00:00.000-0500",
      "billRiderAmt" : 0.0,
      "taxQualification" : "NonQualified",
      "taxQualificationType" : "Non-Pension",
      "incomeOption" : "",
      "incomeStartDate" : null,
      "incomeSelected" : "",
      "currRate" : 4.0,
      "ltcRate" : 0.0,
      "wghtRate" : 0.0,
      "guaranteedRate" : 0.0,
      "policyNotes" : "",
      "consolidatedAnnuity" : "Yes",
      "labels" : {
        "dateLabelValue" : "",
        "currRate" : "New Money Interest Rate",
        "wghtRate" : null
      },
      "render" : {
        "issueDate" : true,
        "expiryDate" : false,
        "dateLabelValue" : false,
        "dividendOption" : false,
        "totalPremiumPaidToDate" : false,
        "withdrawals" : false,
        "billingMethod" : true,
        "billingMode" : true,
        "billingAmount" : true,
        "billToDate" : true,
        "bankDraftDate" : true,
        "bankDraftControlNumber" : true,
        "paidToDate" : true,
        "lastPremReceived" : false,
        "billRiderAmt" : false,
        "taxQualification" : true,
        "taxQualificationType" : false,
        "incomeOption" : false,
        "incomeStartDate" : false,
        "incomeSelected" : false,
        "currRate" : false,
        "ltcRate" : false,
        "wghtRate" : false,
        "guaranteedRate" : false,
        "policyNotes" : false,
        "consolidatedAnnuity" : false
      }
    },
    "policyRelationships" : [ {
      "id" : "1111",
      "idType" : "SSN",
      "name" : "MICKEY M MOUSE",
      "type" : "Primary Insured",
      "issueAge" : 57,
      "dateOfBirth" : "1951-10-16T00:00:00.000-0500",
      "gender" : "F",
      "emailAddress" : null,
      "address" : [ {
        "type" : "MAIL",
        "foreignAddressIndicator" : false,
        "line1" : "123 ELM STREET",
        "line2" : "",
        "line3" : null,
        "city" : "MACOMB",
        "state" : "IL",
        "zip" : "61455"
      } ],
      "phoneNumber" : null,
      "maritalStatus" : null
    }, {
      "id" : "1234",
      "idType" : "SSN",
      "name" : "MICKEY MM",
      "type" : "Joint Insured",
      "issueAge" : 60,
      "dateOfBirth" : "1948-01-04T00:00:00.000-0500",
      "gender" : "M",
      "emailAddress" : null,
      "address" : [ {
        "type" : "MAIL",
        "foreignAddressIndicator" : false,
        "line1" : "123 ELM STREET",
        "line2" : "",
        "line3" : null,
        "city" : "MACOMB",
        "state" : "IL",
        "zip" : "61455"
      } ],
      "phoneNumber" : null,
      "maritalStatus" : null
    }, {
      "id" : "1111",
      "idType" : "SSN",
      "name" : "MICKEY M MOUSE",
      "type" : "Owner",
      "issueAge" : 0,
      "dateOfBirth" : null,
      "gender" : null,
      "emailAddress" : null,
      "address" : [ {
        "type" : "MAIL",
        "foreignAddressIndicator" : false,
        "line1" : "123 ELM STREET",
        "line2" : "",
        "line3" : null,
        "city" : "MACOMB",
        "state" : "IL",
        "zip" : "61455"
      } ],
      "phoneNumber" : null,
      "maritalStatus" : null
    }, {
      "id" : "1111",
      "idType" : "SSN",
      "name" : "MICKEY M MOUSE",
      "type" : "Payor",
      "issueAge" : 0,
      "dateOfBirth" : null,
      "gender" : null,
      "emailAddress" : null,
      "address" : [ {
        "type" : "MAIL",
        "foreignAddressIndicator" : false,
        "line1" : "123 ELM STREET",
        "line2" : "",
        "line3" : null,
        "city" : "MACOMB",
        "state" : "IL",
        "zip" : "61455"
      } ],
      "phoneNumber" : null,
      "maritalStatus" : null
    }, {
      "id" : null,
      "idType" : "",
      "name" : "DONALD D",
      "type" : "First Beneficiary",
      "issueAge" : 0,
      "dateOfBirth" : null,
      "gender" : null,
      "emailAddress" : null,
      "address" : null,
      "phoneNumber" : null,
      "maritalStatus" : null
    }, {
      "id" : null,
      "idType" : "",
      "name" : "DONALD DUCK",
      "type" : "First Beneficiary",
      "issueAge" : 0,
      "dateOfBirth" : null,
      "gender" : null,
      "emailAddress" : null,
      "address" : null,
      "phoneNumber" : null,
      "maritalStatus" : null
    }, {
      "id" : "0000",
      "idType" : "TAX",
      "name" : "State Life Life Insurance Company",
      "type" : "Current Servicing Agent",
      "issueAge" : 0,
      "dateOfBirth" : null,
      "gender" : null,
      "emailAddress" : null,
      "address" : [ {
        "type" : "BUSS",
        "foreignAddressIndicator" : false,
        "line1" : "P.O. Box 406",
        "line2" : "",
        "line3" : null,
        "city" : "Indianapolis",
        "state" : "IN",
        "zip" : "46206-0406"
      } ],
      "phoneNumber" : [ {
        "changed" : false,
        "type" : "BUSS",
        "number" : "1234567890",
        "foreignNumber" : null
      } ],
      "maritalStatus" : null
    } ],
    "coverages" : {
      "baseCoverages" : [ {
        "deathBenefit" : 175000.0,
        "baseAnnualPremium" : 7985.25,
        "monthlyLTCBenefit" : 3500.0,
        "planOfInsurance" : "Asset Care 4 Payable to Age  68"
      } ],
      "addCoverages" : null
    },
    "policyValue" : {
      "policyAccountValueDate" : "2014-03-28T00:00:00.000-0400",
      "policyValues" : [ {
        "pvamt" : 43850.7,
        "pvtype" : "Current Account Value"
      }, {
        "pvamt" : 39164.44,
        "pvtype" : "Cash Surrender Value"
      } ]
    },
    "investments" : null,
    "accountBalance" : null,
    "asOfDate" : null,
    "fundPerformanceURL" : null,
    "relatedPolicy" : {
      "account" : {
        "excludedPolicyPlan" : false,
        "adminSystemId" : "CL$$",
        "affiliate" : "SL",
        "divisionId" : "IND",
        "name" : "CONTINUATION OF BENEFIT",
        "number" : "5200028900",
        "type" : "WL",
        "homePlan" : false,
        "retirement" : false,
        "individual" : true
      },
      "statusInfo" : {
        "policyStatus" : "Terminated",
        "policyStatusReason" : "Surrender",
        "terminationDate" : "2014-10-24T00:00:00.000-0400"
      },
      "generalPolicyInfo" : {
        "issueDate" : "2009-03-28T00:00:00.000-0400",
        "billingMethod" : "Preauthorized Check",
        "billingMode" : "Monthly",
        "bankDraftDate" : 28,
        "bankDraftControlNumber" : "0000000",
        "billingAmount" : 97.91,
        "billToDate" : "2014-10-28T00:00:00.000-0400",
        "paidToDate" : "2014-10-28T00:00:00.000-0400",
        "labels" : { },
        "render" : {
          "issueDate" : true,
          "billingMethod" : true,
          "billingMode" : true,
          "bankDraftDate" : true,
          "bankDraftControlNumber" : true,
          "billingAmount" : true,
          "billToDate" : true,
          "paidToDate" : true
        }
      },
      "coverages" : {
        "baseCoverages" : [ {
          "numberMonth" : "Life",
          "annualPremium" : 1141.1,
          "planOfInsurance" : "Continuation Of Benefit",
          "monthlyBenefitAmt" : 3500.0
        } ],
        "addCoverages" : [ ]
      }
    },
    "investmentDisclaimers" : [ ],
    "generalDisclaimers" : [ {
      "disclaimerText" : "The draft day is the day of the month the premium should be deducted from the checking account.  The actual day the deduction is taken may vary due to weekends and holidays.",
      "disclaimerKey" : "genPolicyData.bankDraft",
      "disclaimerLocalKey" : null,
      "section" : "General"
    }, {
      "disclaimerText" : "The death benefit may be higher than shown if applicable federal law requires a higher death benefit.",
      "disclaimerKey" : "coverageInfo.assetCareLife.db",
      "disclaimerLocalKey" : null,
      "section" : "General"
    }, {
      "disclaimerText" : "If both insureds receive Long-Term Care benefits, the maximum monthly benefit is doubled and the number of months is divided in half.",
      "disclaimerKey" : "policy.jointLifeAssetCareLTC",
      "disclaimerLocalKey" : null,
      "section" : "General"
    }, {
      "disclaimerText" : "The draft day is the day of the month the premium should be deducted from the checking account.  The actual day the deduction is taken may vary due to weekends and holidays.",
      "disclaimerKey" : "genPolicyData.bankDraft",
      "disclaimerLocalKey" : null,
      "section" : "General"
    } ]
  } ],
  "count" : 1,
  "errors" : null,
  "errorCount" : 0
}