{
  "account" : {
    "excludedPolicyPlan" : false,
    "adminSystemId" : "OMNI",
    "affiliate" : "AUL",
    "divisionId" : "PEN",
    "name" : "RIA AND ADVICE PLUS 401(K) PLAN",
    "number" : "O36930",
    "homePlan" : false,
    "retirement" : true,
    "individual" : false
  },
  "items" : [ {
    "accountConfig" : {
      "allowAddressChange" : true,
      "allowTransfer" : true,
      "allowElectionChange" : true,
      "allowInvestmentEducation" : true,
      "allowReports" : true,
      "allowLoans" : false,
      "allowLoanCalculator" : false,
      "allowDeferralChange" : true,
      "allowRIA" : true,
      "allowAdvicePlus" : true,
      "allowPronVest" : false,
      "managedPronVest" : false,
      "allowSelfDirected" : false,
      "allowPlanSummary" : true,
      "participantHasLoans" : false,

      "allowXferStatus" : true,

      "enrollmentNeeded" : false,
      "plan403b" : false,
      "fixedFundOnlyPlan" : false,
      "riaAdvisorFeature" : false,
      "takeoverPlan" : false,
      "hasRiaInvestmentModels" : true
    },
    "accountBalance" : 0.0,
    "asOfDate" : "2014-01-06T10:36:08.671-0500",
    "planEffectiveDate" : "2013-03-01T00:00:00.000-0500",
    "prrQuarterly" : 0.0,
    "prrYearly" : 0.0,
    "prrQuarterlyFromDate" : null,
    "prrYearlyFromDate" : null,
    "prrToDate" : null,
    "participantStatus" : "Active",
    "adviceServiceURL" : "https://gpdev.masterypoint.com/oneamerica/adviceControl.aspx?hostURL=https%3A%2F%2Fwww.staccountservices.oneamerica.com%2Fpublic%2Fservlet%2FGP&tok=RdBMG%2Bum1TWfxgxJptEFBQCCaYOzDYS8IhRH4tMZY3U%3D",
    "adviceServiceName" : "AdvicePlus",
    "selfDirectedURL" :     null,
    "selfDirectedName" :    null,
    "riaAdvisorPlanStatus" : "OPTIONAL",
    "riaAdvisorModelName" : null,
    "riaAdvisorModelId" : null,
    "advisors" : [ {
      "fullName" : "R T JONES CAPITAL EQUITIES INC",
      "address1" : "8151 CLAYTON ROAD STE 200",
      "address2" : "",
      "address3" : "",
      "city" : "ST LOUIS",
      "state" : "MO",
      "zip" : "63117",
      "phone" : "314-993-2424",
      "fax" : "314-993-5222",
      "emailAddress" : null,
      "description" : null,
      "photoCptn" : "",
      "advisorMessage" : null,
      "statusName" : "ACTIVE",
      "statusReason" : null,
      "websiteURL" : "http://www.artesysonline.com",
      "signupURL" : "https://www.artesysonline.com/signmeup.aspx",
      "statusAwaiting" : false,
      "statusActive" : true,
      "statusPending" : false,
      "statusDefault" : false,
      "logoImageURL" : "/secure/rest/advisor/images?imageId=4",
      "photoImageURL" : "/secure/rest/advisor/images?imageId=3"
    } ],
    "investments" : [ ]
  } ],
  "count" : 1,
  "errors" : null,
  "errorCount" : 0
}
