{
  "reportId": 100,
  "reportName": "Rolfson, Glover and Rutherford",
  "template": "AXIS",
  "frequency": "Semi-Annually",
  "status": "New",
  "endDate": null,
  "userId": null,
  "comment": null,
  "partners": [
    {
      "partnerId": "AA469239",
      "partnerName": "Jose Carter",
      "partnerType": "Broker/Dealer",
      "ria": false
    },
    {
      "partnerId": "AA807051",
      "partnerName": "Alice Watson",
      "partnerType": "Broker/Dealer",
      "ria": false
    },
    {
      "partnerId": "AA807051",
      "partnerName": "Alice Watson",
      "partnerType": "Broker/Dealer",
      "ria": true,
      "plans": [{
        "planNumber": "G891859",
        "planName": "Kohler, Hilll and Schumm"
      },
        {
          "planNumber": "G933144",
          "planName": "West Inc"
        },
        {
          "planNumber": "G349040",
          "planName": "Moen Inc"
        },
        {
          "planNumber": "G737685",
          "planName": "Kihn-Medhurst"
        },
        {
          "planNumber": "G852112",
          "planName": "Schaden and Sons"
        },
        {
          "planNumber": "G410628",
          "planName": "Franecki-Schimmel"
        }
      ]
    }
  ],
  "plans": [],
  "deliveries": [
    {
      "deliveryMethod": "Email",
      "deliveryAddress": "lichen's@clowns.example.org"
    },
    {
      "deliveryMethod": "FTP",
      "deliveryAddress": "FTP"
    },
    {
      "deliveryMethod": "Email",
      "deliveryAddress": "palate's@volley.example.org"
    }
  ],
  "change": {}
}