{
  "reportId": 999,
  "recipient": "Partner",
  "reportName": "Leo Drives The Bus",
  "template": "AXIS",
  "frequency": "Daily",
  "status": "Approved",
  "createDate": "2017-05-01T10:13:46.780-0400",
  "endDate": null,
  "userId": "homeoffice",
  "comment": null,
  "partners": [
    {
      "partnerId": "AA19404",
      "partnerName": "ANTHONY J MAZZALI",
      "included": null,
      "ria": true,
      "plans": [
        {
          "planNumber": "G37385",
          "planName": "SHERIDAN COMMUNITY HOSPITAL PS 401(K) PLAN",
          "included": null,
          "riaFirmId": "AA19404"
        },
        {
          "planNumber": "G62124",
          "planName": "FULTON COUNTY HEALTH CENTER ",
          "included": null,
          "riaFirmId": "AA19404"
        }
      ]
    },
    {
      "partnerId": "AA00473",
      "partnerName": "MICHAEL W JOLIE",
      "included": null,
      "ria": true,
      "plans": [
        {
          "planNumber": "G35429",
          "planName": "MERIDIAN FIRE AND SECURITY RETIREMENT SAVINGS PLAN",
          "included": null,
          "riaFirmId": "AA00473"
        },
        {
          "planNumber": "G35537",
          "planName": "PR CONV WM OHS, INC. 401(K) PROF IT SHARING PLAN",
          "included": null,
          "riaFirmId": "AA00473"
        },
        {
          "planNumber": "G36155",
          "planName": "ROCKY MOUNTAIN PRIMARY CARE 401(K) PLAN",
          "included": null,
          "riaFirmId": "AA00473"
        },
        {
          "planNumber": "G36178",
          "planName": "WINDISH RV CENTER, INC. 401(K) PROFIT SHARING PLAN",
          "included": null,
          "riaFirmId": "AA00473"
        }
      ]
    },
    {
      "partnerId": "AA00023",
      "partnerName": "THOMAS E SHAUGHNESSY",
      "included": null,
      "ria": false,
      "plans": []
    },
    {
      "partnerId": "AA00112",
      "partnerName": "KEITH DAVID SOLOMON",
      "included": null,
      "ria": false,
      "plans": []
    },
    {
      "partnerId": "AA00095",
      "partnerName": "HEALEY AND ASSOCIATES",
      "included": null,
      "ria": false,
      "plans": []
    }
  ],
  "plans": [],
  "deliveries": [
    {
      "deliveryMethod": "FTP",
      "deliveryAddress": "ftp1"
    },
    {
      "deliveryMethod": "FTP",
      "deliveryAddress": "ftp2"
    },
    {
      "deliveryMethod": "Email",
      "deliveryAddress": "leo1@oneamerica.com"
    },
    {
      "deliveryMethod": "Email",
      "deliveryAddress": "leo2@oneamerica.com"
    }
  ],
  "change": {}
}