{
    "account" : {
        "excludedPolicyPlan" : false,
        "adminSystemId" : "OMNI",
        "affiliate" : "AUL",
        "divisionId" : "PEN",
        "name" : "RIA AND ADVICE PLUS 401(K) PLAN",
        "number" : "O36930",
        "homePlan" : false,
        "retirement" : true,
        "individual" : false
    },
    "items" : [         {
            "name": "Fyodor Brown",
            "address": {
                "type": "MAIL",
                "foreignAddress": "FOREIGN",
                "line1": "123 Road Street",
                "line2": "",
                "line3": "",
                "city": "",
                "state": "",
                "zip": "",
                "country": "Canada",
                "region": "Ontario"
            },
            "foreignAddress": null,
            "homePhoneNumber": 4444444444,
            "workPhoneNumber": 6666666666,
            "emailAddress": "fyodor.brown@canadian-carrier.com",
            "forgotEmailAddress": null
        } ],
    "count" : 1,
    "errors" : null,
    "errorCount" : 0
}