{
  "annualProductionRequirements" : {
    "requiredQualifyingFypc" : "USD 54500.00",
    "actualAdjustedYtdFypc" : "USD 25444.54",
    "remainingQualifyingFypc" : "USD 29055.46",
    "totalFypcFlag" : "N",
    "actualTotalYtdFypc" : "USD 76432.52",
    "requiredTotalFypc"  : "USD 120000.00",
    "remainingTotalFypc" : "USD 43567.48"
  },
  "calendarYearProduction" : {
    "commission" : {
      "type" : "retail",
      "totalYearToDate" : "USD 55792.26"
    },
    "fypc" : {
      "totalYearToDate" : "USD 45102.30",
      "qualifyingYearToDate" : "USD 25444.54"
    },
    "lifeLives" : {
      "totalSold" : -2,
      "forNextBonus" : 52,
      "nextBonusValue" : "USD 750.00"
    }
  },
  "chairmansTrip" : {
    "type" : "retail",
    "actualQualFypc" : "USD 45102.00",
    "actualLives" : 7,
    "onscheduleQualFypc" : "USD 189583.00",
    "onscheduleRemainingQualFypc" : "USD 144481.00",
    "onscheduleLives" : 9,
    "onscheduleRemainingLives" : 2,
    "requiredQualFypc" : "USD 8113.00",
    "requiredRemainingQualFypc" : "USD 0.00",
    "requiredLives" : 2,
    "requiredRemainingLives" : 1,
    "onscheduleQualFypcFlag" : "N",
    "requiredQualFypcFlag" : "Y",
    "onscheduleLivesFlag" : "N",
    "requiredLivesFlag" : "Y"
  },
  "leadersConference" : {
    "type"                         : "retail",
    "actualQualFyc"                : "USD 265104.00",
    "actualTotalFyc"               : "USD 71803.00",
    "actualLives"                  : 24,
    "onscheduleQualFyc"            : "USD 94444.00",
    "onscheduleRemainingQualFyc"   : "USD 0.00",
    "onscheduleLives"              : 19,
    "onscheduleRemainingLives"     : 0,
    "onscheduleTotalFyc"           : "USD 171875.00",
    "onscheduleRemainingTotalFyc"  : "USD 100072.00",
    "requiredQualFyc"              : "USD 100000.00",
    "requiredRemainingQualFyc"     : "USD 1692.00",
    "requiredTotalFyc"             : "USD 187500.00",
    "requiredRemainingTotalFyc"    : "USD 115697.00",
    "requiredLives"                : 20,
    "requiredRemainingLives"       : 0,
    "onscheduleQualFycFlag"        : "Y",
    "onscheduleTotalFycFlag"       : "N",
    "requiredTotalFycFlag"         : "N",
    "requiredQualFycFlag"          : "N",
    "onscheduleLivesFlag"          : "Y",
    "requiredLivesFlag"            : "Y",
    "actualAprStatus"              : "NMMR"
  }
}
