{
  "calendarYearProduction" : {
    "commission" : {
      "type" : "retail",
      "totalYearToDate" : "USD 12345.84"
    },
    "fypc" : {
      "totalYearToDate" : "USD 54321.14",
      "qualifyingYearToDate" : "USD 43219.22"
    },
    "lifeLives" : {
      "totalSold" : 5,
      "forNextBonus" : 45,
      "nextBonusValue" : "USD 750.00"
    }
  },
  "annualProductionRequirements" : {
    "requiredQualifyingFypc" : "USD 48000.00",
    "actualAdjustedYtdFypc" : "USD 45678.90",
    "remainingQualifyingFypc" : "USD 0.00",
    "totalFypcFlag" : "Y",
    "actualTotalYtdFypc" : "USD 100452.52",
    "requiredTotalFypc"  : "USD 120000.00",
    "remainingTotalFypc" : "USD 19547.48"
  },
  "chairmansTrip" : {
    "type" : "retail",
    "actualQualFypc" : "USD -11953.34",
    "actualLives" : 15,
    "onscheduleQualFypc" : "USD 51953.34",
    "onscheduleRemainingFypc" : "USD 31048.97",
    "onscheduleLives" : 15,
    "onscheduleRemainingLives" : 15,
    "requiredQualFypc" : "USD 51953.34",
    "requiredRemainingQualFypc" : "USD 31048.97",
    "requiredLives" : 15,
    "requiredRemainingLives" : 15,
    "onscheduleQualFypcFlag" : "N",
    "requiredQualFypcFlag" : "N",
    "onscheduleLivesFlag" : "N",
    "requiredLivesFlag" : "N"
  },
  "leadersConference" : {
    "type" : "retail",
    "actualQualFyc" : "USD 54588.00",
    "actualLives" : 5,
    "onscheduleQualFyc" : "USD 85333.00",
    "onscheduleRemainingFyc" : "USD 85333.00",
    "onscheduleLives" : 7,
    "onscheduleRemainingLives" : 7,
    "requiredQualFyc" : "USD 128000.00",
    "requiredRemainingQualFyc" : "USD 128000.00",
    "actualTotalFyc" : "USD 71803.00",
    "onscheduleTotalFyc"          : "USD 171875.00",
    "onscheduleRemainingTotalFyc" : "USD 100072.00",
    "requiredTotalFyc"            : "USD 187500.00",
    "requiredRemainingTotalFyc"   : "USD 115697.00",
    "onscheduleTotalFycFlag"      : "N",
    "requiredTotalFycFlag"        : "N",
    "requiredLives" : 10,
    "requiredRemainingLives" : 10,
    "onscheduleQualFycFlag" : "N",
    "requiredQualFycFlag" : "N",
    "onscheduleLivesFlag" : "N",
    "requiredLivesFlag" : "N",
    "actualAprStatus" : "NMMR"
  }
}
