{
    "policyId": 8989898912,
    "caseId": "12341232132",
    "policyNumber": "720459755",
    "carrierCode": "SL",
    "jointEqualAge": "P107Y",
    "lastRefreshDate": "2016-02-11T14:30:00Z",
    "residentState" : "IN",
    "issueState": "NC",
    "consolidatedPlan" : true,
    "policyServiceContact": {
        "displayName": "Barry Allen",
        "emailAddress": "barry.allen@oa.com"
    },
    "writingProducers": [
        {
            "roleId"  : 12345,
            "fullName": "Christopher E Ekstrom",
            "roleCode": "de23232",
            "splitPercent": 0.0
        },
        {
            "roleId"  : 54321,
            "fullName": "Christopher E Ekstrom",
            "roleCode": "dd8922d",
            "splitPercent": 1.0
        }
    ],
    "servicingProducer": {
        "fullName": "John M Stephen",
        "roleCode": "23dssa2"
    },
    "policyStatus": {
        "status": "pending",
        "workflowStatus": "In Underwriting",
        "description": "In Underwriting",
        "date": "2016-02-21T15:50:00Z"
    },
    "product": {
        "productCategory": "Care Solutions",
        "productName": "ACME Life",
        "productTypeCode": "WL",
        "underwritingRequired": true
    },
    "application": {
        "underWriter": "Barb Miskowic",
        "signed": "2016-02-10T18:50:00Z",
        "received": "2016-02-02T14:50:00Z",
        "entered": "2016-02-05T12:50:00Z",
        "uwDecision": "2016-02-05T12:50:00Z",
        "readyToIssue": null,
        "policySent": null,
        "paid": null
    },
    "billingDetail" : {
        "currentBilling" : {
            "paymentMethod" : "Direct",
            "paymentMode" : "Annual",
            "paymentAmount" : "USD 51953.00"
        },
        "bankDraft" : {
            "controlNumber" : "12345",
            "paymentDraftDay" : 23
        },
        "billedToDate" : "2017-10-15",
        "paidToDate" : "2016-10-15",
        "lastPremiumDate" : "2016-10-15",
        "cashWithApplication" : "USD 2000.00",
        "totalDepositsToDate" : "USD 1200.00",
        "alternatePremiumModes" : [ 
            {
                "paymentMethod" : "Direct",
                "paymentMode" : "Annual",
                "paymentAmount" : "USD 200.00"
            }, {
                "paymentMethod" : "Direct",
                "paymentMode" : "Monthly",
                "paymentAmount" : "USD 12.00"
            }, {
                "paymentMethod" : "Direct",
                "paymentMode" : "Semiannual",
                "paymentAmount" : "USD 100.00"
            } 
        ]
    },
    "investmentAllocation": [
        {
            "productFullName": "Point to Point Cap",
            "allocationPercent": 89.93000030517578,
            "allocationAmount" : "USD 30000.00",
            "scheduledAllocationPercent" : 20.00
        },
        {
            "productFullName": "Point to Point Participation Rate",
            "allocationPercent": 10.068555555,
            "allocationAmount" : "USD 30000.00",
            "scheduledAllocationPercent" : 20.00
        }
    ],
    "coverage": {
        "base": [
            {
                "sequence" : 1,
                "customerId": "123",
                "name": "WL Legacy 121",
                "planName" : "WL Legacy 121",
                "monthlyBenefit": "USD 1.38",
                "annualPremium": "USD 1212.23"
            }
        ],
        "riders": [
            {
                "sequence" : 2,
                "customerId": "123",
                "name": "Accelerator Paid Up Additions Rider",
                "planName" : "Accelerator Paid Up Additions Rider",
                "monthlyBenefit": "USD 2.22",
                "annualPremium": "USD 1212.23"
            },
            {
                "sequence" : 3,
                "customerId": "456",
                "name": "Chronic Illness Rider",
                "planName" : "Chronic Illness Rider",
                "monthlyBenefit": "USD 0.00",
                "annualPremium": "USD 0.00"
            }
        ]
    },
    "ratingInformation": [
        {
            "customerId": 123,
            "underwritingClass": "Sub-Standard",
            "tobaccoUse": false,
            "coverageRatings": [
                {
                    "coveragePlanName": "Asset Care Life 1",
                    "coverageSequence": 1,
                    "mortalityTable": "F/6",
                    "morbidityTable": "F/6",
                    "ratedAge": "P78Y"
                },
                {
                    "coveragePlanName": "Asset Care Life 2",
                    "coverageSequence": 2,
                    "mortalityTable": "F/6",
                    "morbidityTable": "F/6",
                    "ratedAge": "P78Y"
                }
            ]
        },
        {
			"customerId"   : 789,
			"underwritingClass"  : "Sub-Standard",
			"tobaccoUse" : true,
			"coverageRatings"  : []
		}
    ],
    "exchangeHistory": [
        {
            "otherCarrierName": "USAA",
            "otherCarrierPolicyNumber": "30900405850",
            "dateReceived": "2016-06-14",
            "amountReceived": "USD 20000.00",
            "comments": [
                {
                    "date": "2016-06-02T16:06:10Z",
                    "comment": "FAXED PACKET TO 8774357099"
                },
                {
                    "date": "2016-06-06T15:47:21Z",
                    "comment": "Spoke with Melissa. A check was mailed on 06/03/2016 in the amount of  $26,742.28."
                },
                {
                    "date": "2016-06-14T17:02:24Z",
                    "comment": "Direct transfer. No cost basis required."
                }
            ]
        },
        {
            "otherCarrierName": "USAA",
            "otherCarrierPolicyNumber": "40902595727",
            "dateReceived": "2016-06-14",
            "amountReceived": "USD 14355.76",
            "comments": [
                {
                    "date": "2016-06-02T06:14:23Z",
                    "comment": "FAXED PACKET TO 8774357099"
                },
                {
                    "date": "2016-06-06T09:14:17Z",
                    "comment": "Spoke with Melissa. A check was mailed on 06/03/2016 in the amount of  $23,327.84."
                },
                {
                    "date": "2016-06-14T10:42:26Z",
                    "comment": "Direct transfer. No cost basis required."
                }
            ]
        }
    ],


    "taxQualification" : {
        "description" : "Individual Retirement Account",
        "type" : "Qualified"
    },
    "payout" : {
        "incomeOption" : "Installment Refund",
        "selectedPayoutOption" : {
            "payoutMode" : "Monthly",
            "payoutAmount" : "USD 100.00"
        },
        "availablePayoutOptions" : [ 
            {
                "payoutMode" : "Monthly",
                "payoutAmount" : "USD 100.00"
            }, {
                "payoutMode" : "Quarterly",
                "payoutAmount" : "USD 300.00"
            }, {
                "payoutMode" : "Semiannual",
                "payoutAmount" : "USD 600.00"
            }, {
                "payoutMode" : "Annual",
                "payoutAmount" : "USD 1200.00"
            } 
        ],
        "payoutStartDate" : "2016-12-15",
        "nextIndexDate" : "2017-12-15"
    },
    "customers": {
        "123": {
            "fullName": "Daffy Duck",
            "firstName": "Daffy",
            "lastName": "Duck",
            "dateOfBirth": "",
            "gender": "M",
            "taxId": "**-**-1234",
            "taxIdType": "SSN",
            "issueAge": 42,
            "maritalStatus": "Married",
            "contact": {
                "emailAddress": "daffy@duck.com",
                "phoneNumber": {
                    "home": "1111111111",
                    "work": "2222222222",
                    "fax": "3333333333",
                    "cell": "4444444444"
                },
                "post": {
                    "lines": [
                        "123 Road Street"
                    ],
                    "city": "Termite Terrace",
                    "stateProvince": "CA",
                    "postalCode": "99999",
                    "country": "USA"
                }
            }
        },
        "456": {
            "fullName": "Bugs Bunny",
            "firstName": "Bugs",
            "lastName": "Bunny",
            "dateOfBirth": "",
            "gender": "M",
            "taxId": "**-**-5432",
            "taxIdType": "SSN",
            "issueAge": 42,
            "maritalStatus": "Single",
            "contact": {
                "emailAddress": "bugs@bunny.com",
                "phoneNumber": {
                    "home": "1111111111",
                    "work": "2222222222",
                    "fax": "3333333333",
                    "cell": "4444444444"
                },
                "post": {
                    "lines": [
                        "321 Avenue Road"
                    ],
                    "city": "Termite Terrace",
                    "stateProvince": "CA",
                    "postalCode": "99999",
                    "country": "USA"
                }
            }
        },
        "789": {
            "fullName": "Wile E. Coyote",
            "firstName": "Wile",
            "lastName": "Coyote",
            "dateOfBirth": "",
            "gender": "M",
            "taxId": "**-**-6543",
            "taxIdType": "SSN",
            "issueAge": 42,
            "maritalStatus": "Single"
        }
    },
    "customerRoleContact": {
        "1001": {
            "emailAddress": "daffy@duck.com",
            "phoneNumber": {
                "home": "1111111111",
                "work": "2222222222",
                "fax": "3333333333",
                "cell": "4444444444"
            },
            "post": {
                "lines": [
                    "123 Road Street"
                ],
                "city": "Termite Terrace",
                "stateProvince": "CA",
                "postalCode": "99999",
                "country": "USA"
            }
        },
        "1002": {
            "emailAddress": "bugs@bunny.com",
            "phoneNumber": {
                "home": "1111111111",
                "work": "2222222222",
                "fax": "3333333333",
                "cell": "4444444444"
            },
            "post": {
                "lines": [
                    "321 Avenue Road"
                ],
                "city": "Termite Terrace",
                "stateProvince": "CA",
                "postalCode": "99999",
                "country": "USA"
            }
        },
        "1003": {
            "emailAddress": "wile.coyote@acme.com",
            "phoneNumber": {
                "home": "1111111111",
                "work": "2222222222",
                "fax": "3333333333",
                "cell": "4444444444"
            },
            "post": {
                "lines": [
                    "1 Desert Way"
                ],
                "city": "Death Valley",
                "stateProvince": "CA",
                "postalCode": "99999",
                "country": "USA"
            }
        }
    },
    "customerRoles": {
        "Owner": [
            {
                "customerId": 123,
                "customerRoleContactId": 1001
            },
            {
                "customerId": 456,
                "customerRoleContactId": 1002
            }
        ],
        "Insured": [
            {
                "customerId": 123,
                "customerRoleContactId": 1001
            }
        ],
        "Joint Insured": [
            {
                "customerId": 789,
                "customerRoleContactId": 1003
            }
        ]
    }
}