{
    "policyId": "8989898910",
    "caseId": "12341232132",
    "policyNumber": "720459755",
    "carrierCode": "AUL",
    "issueAge": "P107Y",
    "lastRefreshDate": "2016-02-11T14:30:00Z",
    "residentState" : "IN",
    "issueState": "NC",
    "consolidatedPlan" : true,
    "caseManager": {
        "displayName": "Barry Allen",
        "emailAddress": "barry.allen@oa.com"
    },

    "writingProducers": [
        {
            "roleId"  : 12345,
            "fullName": "Christopher E Ekstrom",
            "roleCode": "de23232",
            "splitPercent": 0.0
        },
        {
            "roleId"  : 54321,
            "fullName": "Christopher E Ekstrom",
            "roleCode": "dd8922d",
            "splitPercent": 1.0
        }
    ],

    "servicingProducer": {
        "fullName": "John M Stephen",
        "roleCode": "23dssa2"
    },

    "policyStatus": {
        "status": "Pending",
        "workflowStatus": "Requirements Outstanding, Underwriting Complete",
        "description": "In Underwriting",
        "date": "2016-02-21T15:50:00Z"
    },

    "product": {
		"productCategory" : "Life",
        "productName": "Liberty Select",
        "productTypeCode": "WL",
        "underwritingRequired": true
    },

    "application": {
        "underWriter": "Barb Miskowic",
        "signed": "2016-02-10T18:50:00Z",
        "received": "2016-02-02T14:50:00Z",
        "entered": "2016-02-05T12:50:00Z",
        "uwDecision": "2016-02-05T12:50:00Z",
        "readyToIssue": null,
        "policySent": null,
        "paid": null
    },

    "billingDetail" : {
        "currentBilling" : {
            "paymentMethod" : "Direct",
            "paymentMode"   : "Annual",
            "paymentAmount" : "USD 51953.34"
        },
        "cashWithApplication" : "USD 51953.34"
    },

    "investmentAllocation": [
        {
            "productFullName": "Point to Point Cap",
            "allocationPercent": 89.93000030517578,
            "allocationAmount" : "USD 30000.00",
            "scheduledAllocationPercent" : 20.00
        },
        {
            "productFullName": "Point to Point Participation Rate",
            "allocationPercent": 10.068555555,
            "allocationAmount" : "USD 30000.00",
            "scheduledAllocationPercent" : 20.00
        }
    ],

    "coverage": {
        "base": [
            {
                "sequence" : 1,
                "customerId": "123",
                "name": "WL Legacy 121",
                "planName": "WL Legacy 121",
                "monthlyBenefit": "USD 1.38",
                "annualPremium": "USD 1212.23"
            }
        ],
        "riders": [
            {
                "sequence" : 2,
                "customerId": "123",
                "name": "Accelerator Paid Up Additions Rider",
                "planName" : "Accelerator Paid Up Additions Rider",
                "monthlyBenefit": "USD 1.56",
                "annualPremium": "USD 1212.23"
            },
            {
                "sequence" : 3,
                "customerId": "456",
                "name": "Chronic Illness Rider",
                "monthlyBenefit": "USD 0.00",
                "annualPremium": "USD 0.00"
            }
        ]
    },

	"ratingInformation" : [
		{
            "customerId": 123,
            "underwritingClass": "Sub-Standard",
            "tobaccoUse": true,
            "coverageRatings": [
                {
                    "coveragePlanName": "Whole Life",
                    "coverageSequence": 1,
                    "ratingType": "Flat Extra",
                    "tableName" : "B",
                    "flatExtraAmount": "USD 2.50",
                    "duration": "P29Y"
                },
                {
                    "coveragePlanName": "20 Year Level Term",
                    "coverageSequence": 1,
                    "ratingType": "Table",
                    "tableName" : "B/2",
                    "flatExtraAmount": "USD 2.50",
                    "duration": "P29Y"
                },
                {
                    "coveragePlanName": "Rider 1",
                    "coverageSequence": 1,
                    "ratingType": "Flat Extra",
                    "flatExtraAmount": "USD 2.50",
                    "duration": "P29Y"
                },
                {
                    "coveragePlanName": "Rider 2",
                    "coverageSequence": 1,
                    "ratingType": "Table",
                    "flatExtraAmount": "USD 2.50",
                    "duration": "P29Y"
                }
            ]
        },
        {
            "customerId"   : 456,
            "underwritingClass"  : "Sub-Standard",
            "tobaccoUse" : true,
            "ratedAge"   : "P99Y",
            "coverageRatings"  : []
        }
	],
    "exchangeHistory": [
        {
            "otherCarrierName": "USAA",
            "otherCarrierPolicyNumber": "30900405850",
            "dateReceived": "2016-06-14",
            "amountReceived": "USD 0.00",
            "comments": [
                {
                    "date": "2016-06-02T16:06:10Z",
                    "comment": "FAXED PACKET TO 8774357099"
                },
                {
                    "date": "2016-06-06T15:47:21Z",
                    "comment": "Spoke with Melissa. A check was mailed on 06/03/2016 in the amount of  $26,742.28."
                },
                {
                    "date": "2016-06-14T17:02:24Z",
                    "comment": "Direct transfer. No cost basis required."
                }
            ]
        },
        {
            "otherCarrierName": "USAA",
            "otherCarrierPolicyNumber": "40902595727",
            "dateReceived": "2016-06-14",
            "amountReceived": "USD 14355.76",
            "comments": [
                {
                    "date": "2016-06-02T06:14:23Z",
                    "comment": "FAXED PACKET TO 8774357099"
                },
                {
                    "date": "2016-06-06T09:14:17Z",
                    "comment": "Spoke with Melissa. A check was mailed on 06/03/2016 in the amount of  $23,327.84."
                },
                {
                    "date": "2016-06-14T10:42:26Z",
                    "comment": "Direct transfer. No cost basis required."
                }
            ]
        }
    ],

    "taxQualification" : {
        "type" : "Non-Qualified"
    },
	
    "customers": {
        "123": {
            "fullName": "Daffy Duck",
            "firstName": "Daffy",
            "lastName": "Duck",
            "dateOfBirth": "",
            "gender": "M",
            "taxId": "**-**-1234",
            "taxIdType": "SSN",
            "issueAge": 42,
            "maritalStatus": "Married"
        },
        "456": {
            "fullName": "Bugs Bunny",
            "firstName": "Bugs",
            "lastName": "Bunny",
            "dateOfBirth": "",
            "gender": "M",
            "taxId": "**-**-5432",
            "taxIdType": "SSN",
            "issueAge": 42,
            "maritalStatus": "Married"
        }
    },
    "customerRoleContact" : {
        "1001": {
            "emailAddress": "daffy@duck.com",
            "phoneNumber": {
                "home": "1111111111",
                "work": "2222222222",
                "fax": "3333333333",
                "cell": "4444444444"
            },
            "post": {
                "lines": [
                    "123 Road Street"
                ],
                "city": "Termite Terrace",
                "stateProvince": "CA",
                "postalCode": "99999",
                "country": "USA"
            }
        },
        "1002": {
            "emailAddress": "bugs@bunny.com",
            "phoneNumber": {
                "home": "1111111111",
                "work": "2222222222",
                "fax": "3333333333",
                "cell": "4444444444"
            },
            "post": {
                "lines": [
                    "321 Avenue Road"
                ],
                "city": "Termite Terrace",
                "stateProvince": "CA",
                "postalCode": "99999",
                "country": "USA"
            }
        }
    },
    "customerRoles": {
        "Owner": [{
            "customerId" : 123,
            "customerRoleContactId": 1001
        },{
            "customerId" : 456,
            "customerRoleContactId": 1002
        }],
        "Insured": [{
            "customerId" : 123,
            "customerRoleContactId": 1001
        }],
        "Joint Insured": [{
            "customerId" : 456,
            "customerRoleContactId": 1002
        }]
    }
}