{
  "statusCode":0,
  "returnObject":{
     "items":[],
     "count":0,
     "errors":[{
         "field":"currentPassword",
         "code":"This does not match your current password."
     }],
     "errorCount":1
  }
}

