{
    "account": {
        "excludedPolicyPlan": false,
        "adminSystemId": "OMNI",
        "affiliate": "AUL",
        "divisionId": "PEN",
        "name": "ABC Sample Company",
        "number": "S00001",
        "homePlan": false
    },
    "items": [
        {
            "divisionId": "PEN",
            "tranferType": "FUND_XFER_BY_PCT",
            "asOfDate": "2013-10-23T11:30:42.678-0400",
            "lastAllocChangeDate": null,
            "totalAcctValue": 8701.15,
            "totalTransferrableAcctValue": 8701.15,
            "maxNumberOfInvestmentOptions": 26,
            "investmentOptionChanges": [ {
      "id" : "A2",
      "name" : "PIONEER BOND Y",
      "minValue" : 100.32,
      "maxValue" : 93314.13,
      "minAllocPercent" : 0.0,
      "maxAllocPercent" : 100.0,
      "currentValue" : 10025.32,
      "reallocValue" : 10025.32,
      "currentPercentByTotalValue" : 11.00,
      "reallocPercentByTotalValue" : 11.00,
      "currentAllocPercent" : 11.00,
      "futureAllocPercent" : 11.00,
      "fundPDFName" : "http://www1.ft.oneamerica.com/account_services/pdfs/fundDescription/factsheet.jpg",
      "minPercentByTotalValue" : 4.0,
      "maxPercentByTotalValue" : 100.0,
      "assetClassName" : "Intermediate-Term Bonds",
      "invStyleName" : "Intermediate-Term Bonds",
      "employeeMoney" : 10025.32,
      "employerMoney" : 0.0,
      "availTransferValue" : 10025.32,
      "availTransferPercent" : 10.0,
      "assetClassValue" : "FXD INT/CASH",
      "planDefault" : false,
      "planDefPct" : 0.0,
      "redemptionFeePercent" : 0,
      "redemptionFeeDays" : 0,
      "nameShort" : "PBYA",
      "moneyMarketInd" : false,
      "frozen" : false,
      "retired" : false,
      "closed" : false,
      "fromValue" : 0.0,
      "toValue" : 0.0,
      "investmentFootNote" : 0,
      "investmentFootNoteDesc" : "A maximum of 20% can be transferred from the Fixed Interest Account per contract year.",
      "investmentDisclosureURL": "https://www.ftwcm.oneamerica.com/wps/wcm/connect/rs/Account+Services/Account+Balance/Morningstar+Disclosure?presentationtemplate=Launch%20Download%20In%20Same%20Window",
      "investmentNameShort" : "PBYA"
    }, {
      "id" : "B2",
      "name" : "MFS Val A",
      "minValue" : 66.32,
      "maxValue" : 93314.13,
      "minAllocPercent" : 0.0,
      "maxAllocPercent" : 100.0,
      "currentValue" : 6635.32,
      "reallocValue" : 6635.32,
      "currentPercentByTotalValue" : 7.00,
      "reallocPercentByTotalValue" : 7.00,
      "currentAllocPercent" : 7.00,
      "futureAllocPercent" : 7.00,
      "fundPDFName" : "http://www1.ft.oneamerica.com/account_services/pdfs/fundDescription/factsheet.jpg",
      "minPercentByTotalValue" : 4.0,
      "maxPercentByTotalValue" : 100.0,
      "assetClassName" : "Large-Cap Stocks ",
      "invStyleName" : "Large-Cap Stocks ",
      "employeeMoney" : 0.0,
      "employerMoney" : 0.0,
      "availTransferValue" : 6635.32,
      "availTransferPercent" : 10.0,
      "assetClassValue" : "Large-Cap Stocks",
      "planDefault" : false,
      "planDefPct" : 0.0,
      "redemptionFeePercent" : 0,
      "redemptionFeeDays" : 0,
      "nameShort" : "MFV2",
      "moneyMarketInd" : false,
      "frozen" : false,
      "retired" : false,
      "closed" : false,
      "fromValue" : 0.0,
      "toValue" : 0.0,
      "investmentFootNote" : null,
      "investmentFootNoteDesc" : null,
      "investmentDisclosureURL": "https://www.ftwcm.oneamerica.com/wps/wcm/connect/rs/Account+Services/Account+Balance/Morningstar+Disclosure?presentationtemplate=Launch%20Download%20In%20Same%20Window",
      "investmentNameShort" : "MFV2"
    }, {
      "id" : "C2",
      "name" : "SSgA S&P 500 Indx",
      "minValue" : 142.05,
      "maxValue" : 93314.13,
      "minAllocPercent" : 0.0,
      "maxAllocPercent" : 100.0,
      "currentValue" : 14251.05,
      "reallocValue" : 14251.05,
      "currentPercentByTotalValue" : 15.00,
      "reallocPercentByTotalValue" : 15.00,
      "currentAllocPercent" : 15.00,
      "futureAllocPercent" : 15.00,
      "fundPDFName" : "http://www1.ft.oneamerica.com/account_services/pdfs/fundDescription/factsheet.jpg",
      "minPercentByTotalValue" : 4.0,
      "maxPercentByTotalValue" : 100.0,
      "assetClassName" : "Large-Cap Stocks ",
      "invStyleName" : "Large-Cap Stocks ",
      "employeeMoney" : 0.0,
      "employerMoney" : 0.0,
      "availTransferValue" : 14251.05,
      "availTransferPercent" : 10.0,
      "assetClassValue" : "Large-Cap Stocks",
      "planDefault" : false,
      "planDefPct" : 0.0,
      "redemptionFeePercent" : 0,
      "redemptionFeeDays" : 0,
      "nameShort" : "HINX",
      "moneyMarketInd" : false,
      "frozen" : false,
      "retired" : false,
      "closed" : false,
      "fromValue" : 0.0,
      "toValue" : 0.0,
      "investmentFootNote" : null,
      "investmentFootNoteDesc" : null,
      "investmentDisclosureURL": "https://www.ftwcm.oneamerica.com/wps/wcm/connect/rs/Account+Services/Account+Balance/Morningstar+Disclosure?presentationtemplate=Launch%20Download%20In%20Same%20Window",
      "investmentNameShort" : "HINX"
    }, {
      "id" : "D2",
      "name" : "TRowerPrice Grth Stock Adv",
      "minValue" : 236.98,
      "maxValue" : 93314.13,
      "minAllocPercent" : 0.0,
      "maxAllocPercent" : 100.0,
      "currentValue" : 23652.98,
      "reallocValue" : 23652.98,
      "currentPercentByTotalValue" : 25.00,
      "reallocPercentByTotalValue" : 25.00,
      "currentAllocPercent" : 25.00,
      "futureAllocPercent" : 25.00,
      "fundPDFName" : "http://www1.ft.oneamerica.com/account_services/pdfs/fundDescription/factsheet.jpg",
      "minPercentByTotalValue" : 4.0,
      "maxPercentByTotalValue" : 100.0,
      "assetClassName" : "Large-Cap Stocks ",
      "invStyleName" : "Large-Cap Stocks ",
      "employeeMoney" : 0.0,
      "employerMoney" : 0.0,
      "availTransferValue" : 23652.98,
      "availTransferPercent" : 10.0,
      "assetClassValue" : "Large-Cap Stocks",
      "planDefault" : false,
      "planDefPct" : 0.0,
      "redemptionFeePercent" : 0,
      "redemptionFeeDays" : 0,
      "nameShort" : "TRPS",
      "moneyMarketInd" : false,
      "frozen" : false,
      "retired" : false,
      "closed" : false,
      "fromValue" : 0.0,
      "toValue" : 0.0,
      "investmentFootNote" : null,
      "investmentFootNoteDesc" : null,
      "investmentDisclosureURL": "https://www.ftwcm.oneamerica.com/wps/wcm/connect/rs/Account+Services/Account+Balance/Morningstar+Disclosure?presentationtemplate=Launch%20Download%20In%20Same%20Window",
      "investmentNameShort" : "TRPS"
    }, {
      "id" : "E2",
      "name" : "AmerCent SmCap Val Inv ",
      "minValue" : 46.32,
      "maxValue" : 93314.13,
      "minAllocPercent" : 0.0,
      "maxAllocPercent" : 100.0,
      "currentValue" : 4682.32,
      "reallocValue" : 4682.32,
      "currentPercentByTotalValue" : 5.00,
      "reallocPercentByTotalValue" : 5.00,
      "currentAllocPercent" : 5.00,
      "futureAllocPercent" : 5.00,
      "fundPDFName" : "http://www1.ft.oneamerica.com/account_services/pdfs/fundDescription/factsheet.jpg",
      "minPercentByTotalValue" : 4.0,
      "maxPercentByTotalValue" : 100.0,
      "assetClassName" : "Small-Cap Stocks",
      "invStyleName" : "Small-Cap Stocks",
      "employeeMoney" : 0.0,
      "employerMoney" : 0.0,
      "availTransferValue" : 4682.32,
      "availTransferPercent" : 10.0,
      "assetClassValue" : "Small-Cap Stocks",
      "planDefault" : false,
      "planDefPct" : 0.0,
      "redemptionFeePercent" : 0,
      "redemptionFeeDays" : 0,
      "nameShort" : "ASV2",
      "moneyMarketInd" : false,
      "frozen" : false,
      "retired" : false,
      "closed" : false,
      "fromValue" : 0.0,
      "toValue" : 0.0,
      "investmentFootNote" : null,
      "investmentFootNoteDesc" : null,
      "investmentDisclosureURL": "https://www.ftwcm.oneamerica.com/wps/wcm/connect/rs/Account+Services/Account+Balance/Morningstar+Disclosure?presentationtemplate=Launch%20Download%20In%20Same%20Window",
      "investmentNameShort" : "ASV2"
    }, {
      "id" : "F2",
      "name" : "Templeton Foreign A",
      "minValue" : 152.24,
      "maxValue" : 93314.13,
      "minAllocPercent" : 0.0,
      "maxAllocPercent" : 100.0,
      "currentValue" : 15254.24,
      "reallocValue" : 15254.24,
      "currentPercentByTotalValue" : 16.00,
      "reallocPercentByTotalValue" : 16.00,
      "currentAllocPercent" : 16.00,
      "futureAllocPercent" : 16.00,
      "fundPDFName" : "http://www1.ft.oneamerica.com/account_services/pdfs/fundDescription/factsheet.jpg",
      "minPercentByTotalValue" : 4.0,
      "maxPercentByTotalValue" : 100.0,
      "assetClassName" : "Foreign Value",
      "invStyleName" : "Foreign Value",
      "employeeMoney" : 0.0,
      "employerMoney" : 0.0,
      "availTransferValue" : 15254.24,
      "availTransferPercent" : 10.0,
      "assetClassValue" : "Foreign Value",
      "planDefault" : false,
      "planDefPct" : 0.0,
      "redemptionFeePercent" : 0,
      "redemptionFeeDays" : 0,
      "nameShort" : "TMAA",
      "moneyMarketInd" : false,
      "frozen" : false,
      "retired" : false,
      "closed" : false,
      "fromValue" : 0.0,
      "toValue" : 0.0,
      "investmentFootNote" : null,
      "investmentFootNoteDesc" : null,
      "investmentDisclosureURL": "https://www.ftwcm.oneamerica.com/wps/wcm/connect/rs/Account+Services/Account+Balance/Morningstar+Disclosure?presentationtemplate=Launch%20Download%20In%20Same%20Window",
      "investmentNameShort" : "TMAA"
    }, {
      "id" : "G2",
      "name" : "Oppenheimer Intl Growth Y",
      "minValue" : 75.32,
      "maxValue" : 93314.13,
      "minAllocPercent" : 0.0,
      "maxAllocPercent" : 100.0,
      "currentValue" : 7581.32,
      "reallocValue" : 7581.32,
      "currentPercentByTotalValue" : 9.00,
      "reallocPercentByTotalValue" : 9.00,
      "currentAllocPercent" : 9.00,
      "futureAllocPercent" : 9.00,
      "fundPDFName" : "http://www1.ft.oneamerica.com/account_services/pdfs/fundDescription/factsheet.jpg",
      "minPercentByTotalValue" : 4.0,
      "maxPercentByTotalValue" : 100.0,
      "assetClassName" : "Foreign Growth",
      "invStyleName" : "Foreign Growth",
      "employeeMoney" : 0.0,
      "employerMoney" : 0.0,
      "availTransferValue" : 7581.32,
      "availTransferPercent" : 10.0,
      "assetClassValue" : "Foreign Growth",
      "planDefault" : false,
      "planDefPct" : 0.0,
      "redemptionFeePercent" : 0,
      "redemptionFeeDays" : 0,
      "nameShort" : "OIGY",
      "moneyMarketInd" : false,
      "frozen" : false,
      "retired" : false,
      "closed" : false,
      "fromValue" : 0.0,
      "toValue" : 0.0,
      "investmentFootNote" : null,
      "investmentFootNoteDesc" : null,
      "investmentDisclosureURL": "https://www.ftwcm.oneamerica.com/wps/wcm/connect/rs/Account+Services/Account+Balance/Morningstar+Disclosure?presentationtemplate=Launch%20Download%20In%20Same%20Window",
      "investmentNameShort" : "OIGY"
    }, {
      "id" : "H2",
      "name" : "AUL Stable Value Account",
      "minValue" : 112.58,
      "maxValue" : 93314.13,
      "minAllocPercent" : 0.0,
      "maxAllocPercent" : 100.0,
      "currentValue" : 11231.58,
      "reallocValue" : 11231.58,
      "currentPercentByTotalValue" : 12.00,
      "reallocPercentByTotalValue" : 12.00,
      "currentAllocPercent" : 12.00,
      "futureAllocPercent" : 12.00,
      "fundPDFName" : "http://www1.ft.oneamerica.com/account_services/pdfs/fundDescription/factsheet.jpg",
      "minPercentByTotalValue" : 4.0,
      "maxPercentByTotalValue" : 100.0,
      "assetClassName" : "Fixed Int/Stable Val",
      "invStyleName" : "Fixed Int/Stable Val",
      "employeeMoney" : 0.0,
      "employerMoney" : 0.0,
      "availTransferValue" : 11231.58,
      "availTransferPercent" : 10.0,
      "assetClassValue" : "Fixed Int/Stable Val",
      "planDefault" : false,
      "planDefPct" : 0.0,
      "redemptionFeePercent" : 0,
      "redemptionFeeDays" : 0,
      "nameShort" : "STVL",
      "moneyMarketInd" : false,
      "frozen" : false,
      "retired" : false,
      "closed" : false,
      "fromValue" : 0.0,
      "toValue" : 0.0,
      "investmentFootNote" : null,
      "investmentFootNoteDesc" : null,
      "investmentDisclosureURL": "https://www.ftwcm.oneamerica.com/wps/wcm/connect/rs/Account+Services/Account+Balance/Morningstar+Disclosure?presentationtemplate=Launch%20Download%20In%20Same%20Window",
      "investmentNameShort" : "STVL"
    }],
    "footNotes" : {
      "1" : "A maximum of 20% can be transferred from the Fixed Interest Account per contract year.",
      "RF" : "A redemption fee is assessed to a participant's account if units of a particular fund are purchased and sold within the minimum holding period determined by the fund company. Redemption fees are charged by the mutual fund company and paid out of the participant's account."
    },
    "harrisTrustImportantNotice" : null,
    "generalDisclaimers": [ ],
    "americanFundImportantNotice" : null
  } ],
    "errors": null,
    "count": 1,
    "errorCount": 0
}
