{
    "entry" :
    {
        "id" : "wcmrest:f168ee35-ed68-47ba-960c-9b95090cd03e",
        "title" :
        {
            "lang" : "en",
            "value" : "Products and Services - Voluntary - Worksite Disability"
        },
        "summary" :
        {
            "lang" : "en",
            "value" : "Products Page"
        },
        "name" : "Products-and-services-voluntary-worksite-disability",
        "type" : "Content",
        "updated" : "Tue, 29 Sep 2015 12:12:54.980Z",
        "author" :
        [
            {
                "distinguishedName" : "CN=G160TLS,OU=S,OU=OAFP,dc=ecom,dc=local",
                "name" : "CN=G160TLS,OU=S,OU=OAFP,dc=ecom,dc=local"
            }
        ],
        "owner" :
        [
            {
                "distinguishedName" : "CN=G160TLS,OU=S,OU=OAFP,dc=ecom,dc=local",
                "name" : "CN=G160TLS,OU=S,OU=OAFP,dc=ecom,dc=local"
            }
        ],
        "link" :
        [
            {
                "label" : "Read",
                "rel" : "self",
                "href" : "/wps/contenthandler/!ut/p/digest!qzck_jZfYRzUjaqpm0OC5g/wcmrest/Content/f168ee35-ed68-47ba-960c-9b95090cd03e",
                "lang" : "en-US"
            },
            {
                "label" : "Workflow",
                "rel" : "workflow",
                "href" : "/wps/contenthandler/!ut/p/digest!qzck_jZfYRzUjaqpm0OC5g/wcmrest/item/12372a8048c7af56b45af640c931e4b2",
                "lang" : "en-US"
            },
            {
                "label" : "Workflow Stage",
                "rel" : "workflow-stage",
                "href" : "/wps/contenthandler/!ut/p/digest!qzck_jZfYRzUjaqpm0OC5g/wcmrest/item/2f9f310048c7a892b3a0f740c931e4b2",
                "lang" : "en-US"
            },
            {
                "label" : "Restart",
                "rel" : "restart",
                "href" : "/wps/contenthandler/!ut/p/digest!qzck_jZfYRzUjaqpm0OC5g/wcmrest/item/f168ee35-ed68-47ba-960c-9b95090cd03e/restart",
                "lang" : "en-US"
            },
            {
                "label" : "Access Control",
                "rel" : "access-control",
                "href" : "/wps/contenthandler/!ut/p/digest!qzck_jZfYRzUjaqpm0OC5g/ac/access:oid:Z6QReDe6BCC3SKC5RCAJMKC4JDGJMG6NHO2MM47M1C6MM472BEA3O47GPO86OC653",
                "lang" : "en-US"
            },
            {
                "label" : "Library",
                "rel" : "library",
                "href" : "/wps/contenthandler/!ut/p/digest!qzck_jZfYRzUjaqpm0OC5g/wcmrest/Library/78f9e28047fcd065b72af7c035f151b5",
                "lang" : "en-US"
            },
            {
                "label" : "Parent",
                "rel" : "parent",
                "href" : "/wps/contenthandler/!ut/p/digest!qzck_jZfYRzUjaqpm0OC5g/wcmrest/item/72590588-3129-4a98-8e8c-59f138470a60",
                "lang" : "en-US"
            },
            {
                "label" : "Versions",
                "rel" : "versions",
                "href" : "/wps/contenthandler/!ut/p/digest!qzck_jZfYRzUjaqpm0OC5g/wcmrest/item/f168ee35-ed68-47ba-960c-9b95090cd03e/versions",
                "lang" : "en-US"
            },
            {
                "label" : "Preview",
                "rel" : "preview",
                "href" : "/wps/poc?urile=wcm:oid:f168ee35-ed68-47ba-960c-9b95090cd03e",
                "lang" : "en-US"
            },
            {
                "label" : "Content Template",
                "rel" : "content-template",
                "href" : "/wps/contenthandler/!ut/p/digest!qzck_jZfYRzUjaqpm0OC5g/wcmrest/ContentTemplate/03eb80bd-f121-4885-a1e5-7abf8d6d5ba7",
                "lang" : "en-US"
            },
            {
                "label" : "Elements",
                "rel" : "elements",
                "href" : "/wps/contenthandler/!ut/p/digest!qzck_jZfYRzUjaqpm0OC5g/wcmrest/Content/f168ee35-ed68-47ba-960c-9b95090cd03e/elements",
                "lang" : "en-US"
            }
        ],
        "category" :
        [
            {
                "label" : "Published",
                "scheme" : "wcmrest:workflowState",
                "term" : "PUBLISHED",
                "lang" : "en-US"
            }
        ],
        "content" :
        {
            "type" : "application/vnd.ibm.wcm+xml",
            "content" :
            {
                "elements" :
                {
                    "element" :
                    [
                        {
                            "name" : "SectionContent-Heading",
                            "title" :
                            {
                                "lang" : "en",
                                "value" : "Section Content Heading"
                            },
                            "type" : "ShortTextComponent",
                            "data" :
                            {
                                "type" : "text/plain",
                                "value" : "Overview"
                            }
                        },
                        {
                            "name" : "SectionContent-Text",
                            "title" :
                            {
                                "lang" : "en",
                                "value" : "Section Content - Text"
                            },
                            "type" : "RichTextComponent",
                            "data" :
                            {
                                "type" : "text/html",
                                "value" : "<p dir=\"ltr\">Voluntary disability paid for by the employee (for most or all of the premium) can replace a portion of a full-time employee’s income during a disabling illness or accident. The Voluntary disability contract (also referred as Worksite Disability in some states where a newer contract is available) can provide both short-&nbsp;and long-term coverage. This voluntary group benefit offers flexible plan designs and options and&nbsp;helps employers round out their company’s benefit package&nbsp;while maintaining&nbsp;cost&nbsp;neutrality.<\/p>\n\n<p dir=\"ltr\"><img src=\"/wps/wcm/connect/ac980fc0-b6c8-4d2c-b68f-1b191770699b/1/Worksite+Dis+Grid.jpg?MOD=AJPERES\" ALT=\"\" BORDER=\"0\" title=\"\"/><\/p>\n"
                            }
                        },
                        {
                            "name" : "SubSectionContent-Heading 1",
                            "title" :
                            {
                                "lang" : "en",
                                "value" : "Sub Section Content Heading 1"
                            },
                            "type" : "ShortTextComponent",
                            "data" :
                            {
                                "type" : "text/plain",
                                "value" : "Resources"
                            }
                        },
                        {
                            "name" : "SubSectionContent-Text 1",
                            "title" :
                            {
                                "lang" : "en",
                                "value" : "Sub Section Content Text 1"
                            },
                            "type" : "RichTextComponent",
                            "data" :
                            {
                                "type" : "text/html",
                                "value" : "<p dir=\"ltr\">Documents in this section are available&nbsp;to help you better understand our product offering:<\/p>\n\n<p dir=\"ltr\"><a target=\"_blank\" title=\"\" href=\"/wps/wcm/myconnect/eben/eben2/files/voluntary+disability+sample+policy+3200+contract?contentIDR=9734d5bc-b545-45bc-bcb7-79b7a77bfecf&amp;useDefaultText=0&amp;useDefaultDesc=0\">Voluntary&nbsp;Disability&nbsp;Sample&nbsp;Policy&nbsp;(3200&nbsp;contract)<\/a><br />\nState availability: &nbsp;AK, CO, CT, DC, DE, FL, HI, ID, MA, MD, ME, MN, MT, NE, ND, NH, NJ, NM, NV, OR, RI, SD, VT, WA, WV, WY<\/p>\n\n<p dir=\"ltr\"><a target=\"_blank\" title=\"\" href=\"/wps/wcm/myconnect/eben/eben2/files/worksite+disability+policy+3802+contract?contentIDR=9763a309-c58d-40fa-8168-e47c08cf8a5b&amp;useDefaultText=0&amp;useDefaultDesc=0\">Worksite&nbsp;Disability&nbsp;Sample&nbsp;Policy&nbsp;(3802&nbsp;contract)<\/a><br />\nState availability: &nbsp;AL, AR, AZ, GA, IA, IL, IN, KS, KY, LA, MI, MO, MS, NC, OH, OK, PA, SC, TN, TX, UT, VA, WI&nbsp;<\/p>\n\n<p dir=\"ltr\"><a target=\"_blank\" title=\"\" href=\"http://www1.oneamerica.com/Employee/files/Worksite_Disability_Training_Presentation.ppt\">Worksite Disability Training Presentation<\/a><br />\nState availability: &nbsp;AL, AR, AZ, GA, IA, IL, IN, KS, KY, LA, MI, MO, MS, NC, OH, OK, PA, SC, TN, TX, UT, VA, WI&nbsp;<br />\nSales rep and broker product training presentation for Worksite Disability<\/p>\n"
                            }
                        },
                        {
                            "name" : "SubSectionContent-Permit 1",
                            "title" :
                            {
                                "lang" : "en",
                                "value" : "Sub Section Content Permit 1"
                            },
                            "type" : "ShortTextComponent",
                            "data" :
                            {
                                "type" : "text/plain",
                                "value" : ""
                            }
                        },
                        {
                            "name" : "SubSectionContent-Deny 1",
                            "title" :
                            {
                                "lang" : "en",
                                "value" : "Sub Section Content Deny 1"
                            },
                            "type" : "ShortTextComponent",
                            "data" :
                            {
                                "type" : "text/plain",
                                "value" : "producer producerdelegate"
                            }
                        },
                        {
                            "name" : "SubSectionContent-Heading 2",
                            "title" :
                            {
                                "lang" : "en",
                                "value" : "Sub Section Content Heading 2"
                            },
                            "type" : "ShortTextComponent",
                            "data" :
                            {
                                "type" : "text/plain",
                                "value" : ""
                            }
                        },
                        {
                            "name" : "SubSectionContent-Text 2",
                            "title" :
                            {
                                "lang" : "en",
                                "value" : "Sub Section Content Text 2"
                            },
                            "type" : "RichTextComponent",
                            "data" :
                            {
                                "type" : "text/html",
                                "value" : ""
                            }
                        },
                        {
                            "name" : "SubSectionContent-Heading 3",
                            "title" :
                            {
                                "lang" : "en",
                                "value" : "Sub Section Content Heading 3"
                            },
                            "type" : "ShortTextComponent",
                            "data" :
                            {
                                "type" : "text/plain",
                                "value" : ""
                            }
                        },
                        {
                            "name" : "SubSectionContent-Text 3",
                            "title" :
                            {
                                "lang" : "en",
                                "value" : "Sub Section Content Text 3"
                            },
                            "type" : "RichTextComponent",
                            "data" :
                            {
                                "type" : "text/html",
                                "value" : ""
                            }
                        },
                        {
                            "name" : "SubSectionContent-Heading 4",
                            "title" :
                            {
                                "lang" : "en",
                                "value" : "Sub Section Content Heading 4"
                            },
                            "type" : "ShortTextComponent",
                            "data" :
                            {
                                "type" : "text/plain",
                                "value" : ""
                            }
                        },
                        {
                            "name" : "SubSectionContent-Text 4",
                            "title" :
                            {
                                "lang" : "en",
                                "value" : "Sub Section Content Text 4"
                            },
                            "type" : "RichTextComponent",
                            "data" :
                            {
                                "type" : "text/html",
                                "value" : ""
                            }
                        },
                        {
                            "name" : "SubSectionContent-Heading 5",
                            "title" :
                            {
                                "lang" : "en",
                                "value" : "Sub Section Content Heading 5"
                            },
                            "type" : "ShortTextComponent",
                            "data" :
                            {
                                "type" : "text/plain",
                                "value" : ""
                            }
                        },
                        {
                            "name" : "SubSectionContent-Text 5",
                            "title" :
                            {
                                "lang" : "en",
                                "value" : "Sub Section Content Text 5"
                            },
                            "type" : "RichTextComponent",
                            "data" :
                            {
                                "type" : "text/html",
                                "value" : ""
                            }
                        },
                        {
                            "name" : "GridContent-Heading",
                            "title" :
                            {
                                "lang" : "en",
                                "value" : "Grid Content Heading"
                            },
                            "type" : "ShortTextComponent",
                            "data" :
                            {
                                "type" : "text/plain",
                                "value" : "Marketing Materials"
                            }
                        },
                        {
                            "name" : "GridContent-Text",
                            "title" :
                            {
                                "lang" : "en",
                                "value" : "Grid Content Text"
                            },
                            "type" : "RichTextComponent",
                            "data" :
                            {
                                "type" : "text/html",
                                "value" : "<p dir=\"ltr\">These materials are for use with your various audiences to educate on Voluntary (3200 contract) or Worksite&nbsp;Disability (3802 contract)&nbsp;products. Please contact your assigned Regional Sales Representative with questions about product state availability.&nbsp;Intended audience by piece is noted as follows:&nbsp;B = Broker;&nbsp;ER = Employer;&nbsp;EE = Employee<\/p>\n"
                            }
                        },
                        {
                            "name" : "MediaBlock-Type 1",
                            "title" :
                            {
                                "lang" : "en",
                                "value" : "Media Block Type 1"
                            },
                            "type" : "ShortTextComponent",
                            "data" :
                            {
                                "type" : "text/plain",
                                "value" : "file"
                            }
                        },
                        {
                            "name" : "MediaBlock-Header 1",
                            "title" :
                            {
                                "lang" : "en",
                                "value" : "Media Block Header 1"
                            },
                            "type" : "RichTextComponent",
                            "data" :
                            {
                                "type" : "text/html",
                                "value" : "<p dir=\"ltr\"><a target=\"_blank\" title=\"\" href=\"/wps/wcm/myconnect/eben/eben2/files/g-18450+group+voluntary+disability+brochure?contentIDR=d2e255df-710b-4f7c-a60d-49e95974756d&amp;useDefaultText=0&amp;useDefaultDesc=0\">Group Voluntary Disability Brochure - B-ER (G-18450)<\/a><\/p>\n"
                            }
                        },
                        {
                            "name" : "MediaBlock-Text 1",
                            "title" :
                            {
                                "lang" : "en",
                                "value" : "Media Block Text 1"
                            },
                            "type" : "RichTextComponent",
                            "data" :
                            {
                                "type" : "text/html",
                                "value" : "<p dir=\"ltr\">Introduces brokers and employers to&nbsp;our short- and long-term voluntary disability insurance product offerings; for Voluntary Disability (3200 contract). Contact your Regional Sales Representative for state availability of this product.<\/p>\n"
                            }
                        },
                        {
                            "name" : "MediaBlock-Type 2",
                            "title" :
                            {
                                "lang" : "en",
                                "value" : "Media Block Type 2"
                            },
                            "type" : "ShortTextComponent",
                            "data" :
                            {
                                "type" : "text/plain",
                                "value" : "file"
                            }
                        },
                        {
                            "name" : "MediaBlock-Header 2",
                            "title" :
                            {
                                "lang" : "en",
                                "value" : "Media Block Header 2"
                            },
                            "type" : "RichTextComponent",
                            "data" :
                            {
                                "type" : "text/html",
                                "value" : "<p dir=\"ltr\"><a target=\"_blank\" title=\"\" href=\"/wps/wcm/myconnect/eben/eben2/files/g-21385+voluntary+disability+data+sheet+er?contentIDR=f20ce9d3-e8fc-4dad-b0bf-931f546bc1d4&amp;useDefaultText=0&amp;useDefaultDesc=0\">Voluntary Disability Need Data Sheet - ER (G-21385)<\/a><\/p>\n"
                            }
                        },
                        {
                            "name" : "MediaBlock-Text 2",
                            "title" :
                            {
                                "lang" : "en",
                                "value" : "Media Block Text 2"
                            },
                            "type" : "RichTextComponent",
                            "data" :
                            {
                                "type" : "text/html",
                                "value" : "<p dir=\"ltr\">Educates&nbsp;employers on their employees'&nbsp;need for affordable income protection in the workplace;&nbsp;for Voluntary Disability (3200 contract).&nbsp;Contact your Regional Sales Representative for state availability of this product.<\/p>\n"
                            }
                        },
                        {
                            "name" : "MediaBlock-Type 3",
                            "title" :
                            {
                                "lang" : "en",
                                "value" : "Media Block Type 3"
                            },
                            "type" : "ShortTextComponent",
                            "data" :
                            {
                                "type" : "text/plain",
                                "value" : "file"
                            }
                        },
                        {
                            "name" : "MediaBlock-Header 3",
                            "title" :
                            {
                                "lang" : "en",
                                "value" : "Media Block Header 3"
                            },
                            "type" : "RichTextComponent",
                            "data" :
                            {
                                "type" : "text/html",
                                "value" : "<p dir=\"ltr\"><a target=\"_blank\" title=\"\" href=\"/wps/wcm/myconnect/eben/eben2/files/g-26033+worksite+disability+brochure+br?contentIDR=61a91a73-bc3b-4993-a51f-e096c956ac62&amp;useDefaultText=0&amp;useDefaultDesc=0\">Worksite Disability Brochure - B (G-26033)<\/a><\/p>\n"
                            }
                        },
                        {
                            "name" : "MediaBlock-Text 3",
                            "title" :
                            {
                                "lang" : "en",
                                "value" : "Media Block Text 3"
                            },
                            "type" : "RichTextComponent",
                            "data" :
                            {
                                "type" : "text/html",
                                "value" : "<p dir=\"ltr\">Educates&nbsp;brokers on&nbsp;our&nbsp;Worksite Disability product; for Worksite Disability (3802 contract).&nbsp;Contact your Regional Sales Representative for state availability of this product.<\/p>\n"
                            }
                        },
                        {
                            "name" : "MediaBlock-Type 4",
                            "title" :
                            {
                                "lang" : "en",
                                "value" : "Media Block Type 4"
                            },
                            "type" : "ShortTextComponent",
                            "data" :
                            {
                                "type" : "text/plain",
                                "value" : "file"
                            }
                        },
                        {
                            "name" : "MediaBlock-Header 4",
                            "title" :
                            {
                                "lang" : "en",
                                "value" : "Media Block Header 4"
                            },
                            "type" : "RichTextComponent",
                            "data" :
                            {
                                "type" : "text/html",
                                "value" : "<p dir=\"ltr\"><a target=\"_blank\" title=\"\" href=\"/wps/wcm/myconnect/eben/eben2/files/g-26034+worksite+disability+ds+br?contentIDR=641b72d1-d9dc-4529-9a88-70dbdddd59d4&amp;useDefaultText=0&amp;useDefaultDesc=0\">Worksite Disability Data Sheet - B (G-26034)<\/a><\/p>\n"
                            }
                        },
                        {
                            "name" : "MediaBlock-Text 4",
                            "title" :
                            {
                                "lang" : "en",
                                "value" : "Media Block Text 4"
                            },
                            "type" : "RichTextComponent",
                            "data" :
                            {
                                "type" : "text/html",
                                "value" : "<p dir=\"ltr\">Educates brokers&nbsp;on standard Worksite Disability product features and coverage options; for Worksite Disability (3802 contract).&nbsp;Contact your Regional Sales Representative for state availability of this product.<\/p>\n"
                            }
                        },
                        {
                            "name" : "MediaBlock-Type 5",
                            "title" :
                            {
                                "lang" : "en",
                                "value" : "Media Block Type 5"
                            },
                            "type" : "ShortTextComponent",
                            "data" :
                            {
                                "type" : "text/plain",
                                "value" : "file"
                            }
                        },
                        {
                            "name" : "MediaBlock-Header 5",
                            "title" :
                            {
                                "lang" : "en",
                                "value" : "Media Block Header 5"
                            },
                            "type" : "RichTextComponent",
                            "data" :
                            {
                                "type" : "text/html",
                                "value" : "<p dir=\"ltr\"><a target=\"_blank\" title=\"\" href=\"/wps/wcm/myconnect/eben/eben2/files/g-26026+worksite+disability+brochure+er?contentIDR=1f4a7ab8-baf0-49d1-8893-38f9ea15888b&amp;useDefaultText=0&amp;useDefaultDesc=0\">Worksite Disability Brochure - ER (G-26026)<\/a><\/p>\n"
                            }
                        },
                        {
                            "name" : "MediaBlock-Text 5",
                            "title" :
                            {
                                "lang" : "en",
                                "value" : "Media Block Text 5"
                            },
                            "type" : "RichTextComponent",
                            "data" :
                            {
                                "type" : "text/html",
                                "value" : "<p dir=\"ltr\">Educates employers about&nbsp;four specific reasons to offer Worksite Disability insurance to their employees; for Worksite Disability (3802 contract).&nbsp;Contact your Regional Sales Representative for state availability of this product.<\/p>\n"
                            }
                        },
                        {
                            "name" : "MediaBlock-Type 6",
                            "title" :
                            {
                                "lang" : "en",
                                "value" : "Media Block Type 6"
                            },
                            "type" : "ShortTextComponent",
                            "data" :
                            {
                                "type" : "text/plain",
                                "value" : "file"
                            }
                        },
                        {
                            "name" : "MediaBlock-Header 6",
                            "title" :
                            {
                                "lang" : "en",
                                "value" : "Media Block Header 6"
                            },
                            "type" : "RichTextComponent",
                            "data" :
                            {
                                "type" : "text/html",
                                "value" : "<p dir=\"ltr\"><a target=\"_blank\" title=\"\" href=\"/wps/wcm/myconnect/eben/eben2/files/g-26035+worksite+disability+brochure+ee?contentIDR=a9d5c593-2f64-499c-b9d9-a6bbd0c95b8f&amp;useDefaultText=0&amp;useDefaultDesc=0\">Worksite Disability Brochure - EE (G-26035)<\/a><\/p>\n"
                            }
                        },
                        {
                            "name" : "MediaBlock-Text 6",
                            "title" :
                            {
                                "lang" : "en",
                                "value" : "Media Block Text 6"
                            },
                            "type" : "RichTextComponent",
                            "data" :
                            {
                                "type" : "text/html",
                                "value" : "<p dir=\"ltr\">Provides employees information on the importance of Worksite Disability insurance coverage; for Worksite Disability (3802 contract).&nbsp;Contact your Regional Sales Representative for state availability of this product.<\/p>\n"
                            }
                        }
                    ]
                }
            }
        }
    }
}