{
    "entry" :
    {
        "id" : "wcmrest:bce7b26c-5c72-40bf-a431-92516d94d29a",
        "title" :
        {
            "lang" : "en",
            "value" : "Welcome Page"
        },
        "summary" :
        {
            "lang" : "en",
            "value" : "Home Office/RGO, Policyholder, and Broker views."
        },
        "name" : "Welcome Page",
        "type" : "Content",
        "updated" : "Wed, 23 Sep 2015 02:45:28.590Z",
        "author" :
        [
            {
                "distinguishedName" : "CN=E007943,OU=3,OU=OAFP,dc=ecom,dc=local",
                "uri" : "/wps/contenthandler/!ut/p/digest!qzck_jZfYRzUjaqpm0OC5g/um/users/profiles/Z9eAeLPC46PS6O9E46P861ROIJSG63BE8JQOCK1CC3POCO9C86P07NPD0",
                "name" : "E007943"
            }
        ],
        "owner" :
        [
            {
                "distinguishedName" : "CN=E007943,OU=3,OU=OAFP,dc=ecom,dc=local",
                "uri" : "/wps/contenthandler/!ut/p/digest!qzck_jZfYRzUjaqpm0OC5g/um/users/profiles/Z9eAeLPC46PS6O9E46P861ROIJSG63BE8JQOCK1CC3POCO9C86P07NPD0",
                "name" : "E007943"
            }
        ],
        "link" :
        [
            {
                "label" : "Read",
                "rel" : "self",
                "href" : "/wps/contenthandler/!ut/p/digest!qzck_jZfYRzUjaqpm0OC5g/wcmrest/Content/bce7b26c-5c72-40bf-a431-92516d94d29a",
                "lang" : "en-US"
            },
            {
                "label" : "Workflow",
                "rel" : "workflow",
                "href" : "/wps/contenthandler/!ut/p/digest!qzck_jZfYRzUjaqpm0OC5g/wcmrest/item/12372a8048c7af56b45af640c931e4b2",
                "lang" : "en-US"
            },
            {
                "label" : "Workflow Stage",
                "rel" : "workflow-stage",
                "href" : "/wps/contenthandler/!ut/p/digest!qzck_jZfYRzUjaqpm0OC5g/wcmrest/item/2f9f310048c7a892b3a0f740c931e4b2",
                "lang" : "en-US"
            },
            {
                "label" : "Restart",
                "rel" : "restart",
                "href" : "/wps/contenthandler/!ut/p/digest!qzck_jZfYRzUjaqpm0OC5g/wcmrest/item/bce7b26c-5c72-40bf-a431-92516d94d29a/restart",
                "lang" : "en-US"
            },
            {
                "label" : "Access Control",
                "rel" : "access-control",
                "href" : "/wps/contenthandler/!ut/p/digest!qzck_jZfYRzUjaqpm0OC5g/ac/access:oid:Z6QReDe2ROAMR8CIHD6MMK63RD4JMG6GHOCMM4CKPC2JM47I9D23RGCP1D86P4713",
                "lang" : "en-US"
            },
            {
                "label" : "Library",
                "rel" : "library",
                "href" : "/wps/contenthandler/!ut/p/digest!qzck_jZfYRzUjaqpm0OC5g/wcmrest/Library/78f9e28047fcd065b72af7c035f151b5",
                "lang" : "en-US"
            },
            {
                "label" : "Parent",
                "rel" : "parent",
                "href" : "/wps/contenthandler/!ut/p/digest!qzck_jZfYRzUjaqpm0OC5g/wcmrest/item/ad1d297a-50ee-447c-abcf-a3766bfe1f97",
                "lang" : "en-US"
            },
            {
                "label" : "Versions",
                "rel" : "versions",
                "href" : "/wps/contenthandler/!ut/p/digest!qzck_jZfYRzUjaqpm0OC5g/wcmrest/item/bce7b26c-5c72-40bf-a431-92516d94d29a/versions",
                "lang" : "en-US"
            },
            {
                "label" : "Preview",
                "rel" : "preview",
                "href" : "/wps/poc?urile=wcm:oid:bce7b26c-5c72-40bf-a431-92516d94d29a",
                "lang" : "en-US"
            },
            {
                "label" : "Content Template",
                "rel" : "content-template",
                "href" : "/wps/contenthandler/!ut/p/digest!qzck_jZfYRzUjaqpm0OC5g/wcmrest/ContentTemplate/90cd239b-7a7c-446f-a32a-7ecdf7c6f107",
                "lang" : "en-US"
            },
            {
                "label" : "Elements",
                "rel" : "elements",
                "href" : "/wps/contenthandler/!ut/p/digest!qzck_jZfYRzUjaqpm0OC5g/wcmrest/Content/bce7b26c-5c72-40bf-a431-92516d94d29a/elements",
                "lang" : "en-US"
            }
        ],
        "category" :
        [
            {
                "label" : "Published",
                "scheme" : "wcmrest:workflowState",
                "term" : "PUBLISHED",
                "lang" : "en-US"
            }
        ],
        "content" :
        {
            "type" : "application/vnd.ibm.wcm+xml",
            "content" :
            {
                "elements" :
                {
                    "element" :
                    [
                        {
                            "name" : "Header-Image",
                            "title" :
                            {
                                "lang" : "en",
                                "value" : "Header Image"
                            },
                            "type" : "FileComponent",
                            "data" :
                            {
                                "type" : "application/vnd.ibm.wcm+xml",
                                "resourceUri" :
                                {
                                    "type" : "image/jpeg",
                                    "value" : "/wps/wcm/connect/ee9068e0-2e23-4fe8-b087-532955af2605/h-odit-eb.jpg?MOD=AJPERES"
                                }
                            }
                        },
                        {
                            "name" : "BasicContent-Heading 1",
                            "title" :
                            {
                                "lang" : "en",
                                "value" : "Basic Content Heading 1"
                            },
                            "type" : "ShortTextComponent",
                            "data" :
                            {
                                "type" : "text/plain",
                                "value" : "Welcome to OneAmerica<sup>®<\/sup> Employee Benefits Online"
                            }
                        },
                        {
                            "name" : "BasicContent-Text 1",
                            "title" :
                            {
                                "lang" : "en",
                                "value" : "Basic Content Text 1"
                            },
                            "type" : "RichTextComponent",
                            "data" :
                            {
                                "type" : "text/html",
                                "value" : "<p dir=\"ltr\">Our refreshed eBenefits website aims to provide a \"one-stop shop\" for the tools and resources you need to do business with us. With easy access to information - available on your schedule - paired with access to our local representatives, we're focusing on working alongside you every step of the way. And this is just the beginning of our journey to enhance our online presence to benefit you and your clients!<\/p>\n\n<p dir=\"ltr\">First time on our refreshed website?&nbsp;Click to view a&nbsp;<a target=\"_blank\" title=\"\" href=\"/wps/wcm/myconnect/eben/eben2/files/quick-reference-flyer-producer?contentIDR=2968c198-150c-4f61-a367-e0e96cb18cf7&amp;useDefaultText=0&amp;useDefaultDesc=0\">quick reference flyer<\/a> to help you navigate.<\/p>\n"
                            }
                        },
                        {
                            "name" : "QuickLinks-Permit-RT 1",
                            "title" :
                            {
                                "lang" : "en",
                                "value" : "Quick Links Permit RT1"
                            },
                            "type" : "ShortTextComponent",
                            "data" :
                            {
                                "type" : "text/plain",
                                "value" : "producer producerdelegate delegate"
                            }
                        },
                        {
                            "name" : "QuickLinks-Deny-RT 1",
                            "title" :
                            {
                                "lang" : "en",
                                "value" : "Quick Links Deny RT1"
                            },
                            "type" : "ShortTextComponent",
                            "data" :
                            {
                                "type" : "text/plain",
                                "value" : ""
                            }
                        },
                        {
                            "name" : "BasicContent-Heading 2",
                            "title" :
                            {
                                "lang" : "en",
                                "value" : "Basic Content Heading 2"
                            },
                            "type" : "ShortTextComponent",
                            "data" :
                            {
                                "type" : "text/plain",
                                "value" : "Welcome to OneAmerica<sup>®<\/sup> Employee Benefits Online"
                            }
                        },
                        {
                            "name" : "BasicContent-Text 2",
                            "title" :
                            {
                                "lang" : "en",
                                "value" : "Basic Content Text 2"
                            },
                            "type" : "RichTextComponent",
                            "data" :
                            {
                                "type" : "text/html",
                                "value" : "<p dir=\"ltr\">Our refreshed eBenefits website aims to provide a \"one-stop shop\" for the tools and resources you need to do business with us. With easy access to information --&nbsp;on your time --&nbsp;paired with access to our local representatives, we're focused&nbsp;on working alongside you every step of the way. And this is just the beginning of our journey to enhance our online presence to benefit you -&nbsp;<em>our valued client<\/em>!<\/p>\n\n<p dir=\"ltr\">First time on our refreshed website?&nbsp;Click to view a&nbsp;<a target=\"_blank\" title=\"\" href=\"/wps/wcm/myconnect/eben/eben2/files/quick-reference-flyer-policyholder?contentIDR=85bbb4ae-8f04-4e7b-a84f-e832a02122c4&amp;useDefaultText=0&amp;useDefaultDesc=0\">quick reference flyer<\/a>&nbsp;to help you navigate.<\/p>\n"
                            }
                        },
                        {
                            "name" : "QuickLinks-Permit-RT 2",
                            "title" :
                            {
                                "lang" : "en",
                                "value" : "Quick Links Permit RT2"
                            },
                            "type" : "ShortTextComponent",
                            "data" :
                            {
                                "type" : "text/plain",
                                "value" : "policyholder"
                            }
                        },
                        {
                            "name" : "QuickLinks-Deny-RT 2",
                            "title" :
                            {
                                "lang" : "en",
                                "value" : "Quick Links Deny RT2"
                            },
                            "type" : "ShortTextComponent",
                            "data" :
                            {
                                "type" : "text/plain",
                                "value" : ""
                            }
                        },
                        {
                            "name" : "BasicContent-Heading 3",
                            "title" :
                            {
                                "lang" : "en",
                                "value" : "Basic Content Heading 3"
                            },
                            "type" : "ShortTextComponent",
                            "data" :
                            {
                                "type" : "text/plain",
                                "value" : "Welcome to OneAmerica<sup>®<\/sup> Employee Benefits Online"
                            }
                        },
                        {
                            "name" : "BasicContent-Text 3",
                            "title" :
                            {
                                "lang" : "en",
                                "value" : "Basic Content Text 3"
                            },
                            "type" : "RichTextComponent",
                            "data" :
                            {
                                "type" : "text/html",
                                "value" : "<p dir=\"ltr\">From access to products and service information, frequently asked questions and forms...this refreshed eBenefits website aims to provide a \"one-stop shop\" for the resources you need support our customers with consistency and excellence. And this is just the beginning, as we plan for more enhancements. If you have ideas for ways to improve the site and add functionality to benefit you, our brokers and&nbsp;our clients, please email the <a target=\"\" title=\"\" href=\"mailto:trish.shuhilo@oneamerica.com\">Marketing Team<\/a> at your convenience!<\/p>\n\n<p dir=\"ltr\">First time on our refreshed website?&nbsp;Click to view a <a target=\"_blank\" title=\"\" href=\"/wps/wcm/myconnect/eben/eben2/files/quick-reference-flyer-ho-rgo?contentIDR=d3768a17-3ff7-4c05-aa83-b3684a1f748b&amp;useDefaultText=0&amp;useDefaultDesc=0\">quick reference flyer<\/a> to help you navigate.<\/p>\n"
                            }
                        },
                        {
                            "name" : "QuickLinks-Permit-RT 3",
                            "title" :
                            {
                                "lang" : "en",
                                "value" : "Quick Links Permit RT3"
                            },
                            "type" : "ShortTextComponent",
                            "data" :
                            {
                                "type" : "text/plain",
                                "value" : "homeoffice homeofficeremote"
                            }
                        },
                        {
                            "name" : "QuickLinks-Deny-RT 3",
                            "title" :
                            {
                                "lang" : "en",
                                "value" : "Quick Links Deny RT3"
                            },
                            "type" : "ShortTextComponent",
                            "data" :
                            {
                                "type" : "text/plain",
                                "value" : ""
                            }
                        },
                        {
                            "name" : "QuickLinks-Type 1",
                            "title" :
                            {
                                "lang" : "en",
                                "value" : "Quick Links Type 1"
                            },
                            "type" : "ShortTextComponent",
                            "data" :
                            {
                                "type" : "text/plain",
                                "value" : "money"
                            }
                        },
                        {
                            "name" : "QuickLinks-Header 1",
                            "title" :
                            {
                                "lang" : "en",
                                "value" : "Quick Link Header 1"
                            },
                            "type" : "ShortTextComponent",
                            "data" :
                            {
                                "type" : "text/plain",
                                "value" : "Commissions"
                            }
                        },
                        {
                            "name" : "QuickLinks-Text 1",
                            "title" :
                            {
                                "lang" : "en",
                                "value" : "Quick Links Text 1"
                            },
                            "type" : "RichTextComponent",
                            "data" :
                            {
                                "type" : "text/html",
                                "value" : "<p dir=\"ltr\">View your commission statement<\/p>\n"
                            }
                        },
                        {
                            "name" : "QuickLinks-Link 1",
                            "title" :
                            {
                                "lang" : "en",
                                "value" : "Quick Links Link 1"
                            },
                            "type" : "ShortTextComponent",
                            "data" :
                            {
                                "type" : "text/plain",
                                "value" : "commissions"
                            }
                        },
                        {
                            "name" : "QuickLinks-Permit 1",
                            "title" :
                            {
                                "lang" : "en",
                                "value" : "Quick Links Permit 1"
                            },
                            "type" : "ShortTextComponent",
                            "data" :
                            {
                                "type" : "text/plain",
                                "value" : "delegate producer producerdelegate"
                            }
                        },
                        {
                            "name" : "QuickLinks-Deny 1",
                            "title" :
                            {
                                "lang" : "en",
                                "value" : "Quick Links Deny 1"
                            },
                            "type" : "ShortTextComponent",
                            "data" :
                            {
                                "type" : "text/plain",
                                "value" : ""
                            }
                        },
                        {
                            "name" : "QuickLinks-Type 2",
                            "title" :
                            {
                                "lang" : "en",
                                "value" : "Quick Links Type 2"
                            },
                            "type" : "ShortTextComponent",
                            "data" :
                            {
                                "type" : "text/plain",
                                "value" : "money"
                            }
                        },
                        {
                            "name" : "QuickLinks-Header 2",
                            "title" :
                            {
                                "lang" : "en",
                                "value" : "Quick Link Header 2"
                            },
                            "type" : "ShortTextComponent",
                            "data" :
                            {
                                "type" : "text/plain",
                                "value" : "iBill"
                            }
                        },
                        {
                            "name" : "QuickLinks-Text 2",
                            "title" :
                            {
                                "lang" : "en",
                                "value" : "Quick Links Text 2"
                            },
                            "type" : "RichTextComponent",
                            "data" :
                            {
                                "type" : "text/html",
                                "value" : "<p dir=\"ltr\">Direct link to online billing and administration<\/p>\n"
                            }
                        },
                        {
                            "name" : "QuickLinks-Link 2",
                            "title" :
                            {
                                "lang" : "en",
                                "value" : "Quick Links Link 2"
                            },
                            "type" : "ShortTextComponent",
                            "data" :
                            {
                                "type" : "text/plain",
                                "value" : "iBill"
                            }
                        },
                        {
                            "name" : "QuickLinks-Permit 2",
                            "title" :
                            {
                                "lang" : "en",
                                "value" : "Quick Links Permit 2"
                            },
                            "type" : "ShortTextComponent",
                            "data" :
                            {
                                "type" : "text/plain",
                                "value" : "homeoffice policyholder homeofficeremote"
                            }
                        },
                        {
                            "name" : "QuickLinks-Deny 2",
                            "title" :
                            {
                                "lang" : "en",
                                "value" : "Quick Links Deny 2"
                            },
                            "type" : "ShortTextComponent",
                            "data" :
                            {
                                "type" : "text/plain",
                                "value" : ""
                            }
                        },
                        {
                            "name" : "QuickLinks-Type 3",
                            "title" :
                            {
                                "lang" : "en",
                                "value" : "Quick Links Type 3"
                            },
                            "type" : "ShortTextComponent",
                            "data" :
                            {
                                "type" : "text/plain",
                                "value" : "file-import"
                            }
                        },
                        {
                            "name" : "QuickLinks-Header 3",
                            "title" :
                            {
                                "lang" : "en",
                                "value" : "Quick Link Header 3"
                            },
                            "type" : "ShortTextComponent",
                            "data" :
                            {
                                "type" : "text/plain",
                                "value" : "Forms"
                            }
                        },
                        {
                            "name" : "QuickLinks-Text 3",
                            "title" :
                            {
                                "lang" : "en",
                                "value" : "Quick Links Text 3"
                            },
                            "type" : "RichTextComponent",
                            "data" :
                            {
                                "type" : "text/html",
                                "value" : "<p dir=\"ltr\">View and download forms<\/p>\n"
                            }
                        },
                        {
                            "name" : "QuickLinks-Link 3",
                            "title" :
                            {
                                "lang" : "en",
                                "value" : "Quick Links Link 3"
                            },
                            "type" : "ShortTextComponent",
                            "data" :
                            {
                                "type" : "text/plain",
                                "value" : "forms"
                            }
                        },
                        {
                            "name" : "QuickLinks-Permit 3",
                            "title" :
                            {
                                "lang" : "en",
                                "value" : "Quick Links Permit 3"
                            },
                            "type" : "ShortTextComponent",
                            "data" :
                            {
                                "type" : "text/plain",
                                "value" : "policyholder homeoffice homeofficeremote delegate producer producerdelegate"
                            }
                        },
                        {
                            "name" : "QuickLinks-Deny 3",
                            "title" :
                            {
                                "lang" : "en",
                                "value" : "Quick Links Deny 3"
                            },
                            "type" : "ShortTextComponent",
                            "data" :
                            {
                                "type" : "text/plain",
                                "value" : ""
                            }
                        },
                        {
                            "name" : "QuickLinks-Type 4",
                            "title" :
                            {
                                "lang" : "en",
                                "value" : "Quick Links Type 4"
                            },
                            "type" : "ShortTextComponent",
                            "data" :
                            {
                                "type" : "text/plain",
                                "value" : "circle-info"
                            }
                        },
                        {
                            "name" : "QuickLinks-Header 4",
                            "title" :
                            {
                                "lang" : "en",
                                "value" : "Quick Link Header 4"
                            },
                            "type" : "ShortTextComponent",
                            "data" :
                            {
                                "type" : "text/plain",
                                "value" : "Resources"
                            }
                        },
                        {
                            "name" : "QuickLinks-Text 4",
                            "title" :
                            {
                                "lang" : "en",
                                "value" : "Quick Links Text 4"
                            },
                            "type" : "RichTextComponent",
                            "data" :
                            {
                                "type" : "text/html",
                                "value" : "<p dir=\"ltr\">Answers to your frequently asked questions<\/p>\n"
                            }
                        },
                        {
                            "name" : "QuickLinks-Link 4",
                            "title" :
                            {
                                "lang" : "en",
                                "value" : "Quick Links Link 4"
                            },
                            "type" : "ShortTextComponent",
                            "data" :
                            {
                                "type" : "text/plain",
                                "value" : "resources"
                            }
                        },
                        {
                            "name" : "QuickLinks-Permit 4",
                            "title" :
                            {
                                "lang" : "en",
                                "value" : "Quick Links Permit 4"
                            },
                            "type" : "ShortTextComponent",
                            "data" :
                            {
                                "type" : "text/plain",
                                "value" : "delegate homeoffice homeofficeremote producer producerdelegate"
                            }
                        },
                        {
                            "name" : "QuickLinks-Deny 4",
                            "title" :
                            {
                                "lang" : "en",
                                "value" : "Quick Links Deny 4"
                            },
                            "type" : "ShortTextComponent",
                            "data" :
                            {
                                "type" : "text/plain",
                                "value" : ""
                            }
                        },
                        {
                            "name" : "QuickLinks-Type 5",
                            "title" :
                            {
                                "lang" : "en",
                                "value" : "Quick Links Type 5"
                            },
                            "type" : "ShortTextComponent",
                            "data" :
                            {
                                "type" : "text/plain",
                                "value" : "notes"
                            }
                        },
                        {
                            "name" : "QuickLinks-Header 5",
                            "title" :
                            {
                                "lang" : "en",
                                "value" : "Quick Link Header 5"
                            },
                            "type" : "ShortTextComponent",
                            "data" :
                            {
                                "type" : "text/plain",
                                "value" : "Benefits Pages"
                            }
                        },
                        {
                            "name" : "QuickLinks-Text 5",
                            "title" :
                            {
                                "lang" : "en",
                                "value" : "Quick Links Text 5"
                            },
                            "type" : "RichTextComponent",
                            "data" :
                            {
                                "type" : "text/html",
                                "value" : "<p dir=\"ltr\">Your policyholder and employee&nbsp;documents<\/p>\n"
                            }
                        },
                        {
                            "name" : "QuickLinks-Link 5",
                            "title" :
                            {
                                "lang" : "en",
                                "value" : "Quick Links Link 5"
                            },
                            "type" : "ShortTextComponent",
                            "data" :
                            {
                                "type" : "text/plain",
                                "value" : "benefits-pages"
                            }
                        },
                        {
                            "name" : "QuickLinks-Permit 5",
                            "title" :
                            {
                                "lang" : "en",
                                "value" : "Quick Links Permit 5"
                            },
                            "type" : "ShortTextComponent",
                            "data" :
                            {
                                "type" : "text/plain",
                                "value" : "policyholder"
                            }
                        },
                        {
                            "name" : "QuickLinks-Deny 5",
                            "title" :
                            {
                                "lang" : "en",
                                "value" : "Quick Links Deny 5"
                            },
                            "type" : "ShortTextComponent",
                            "data" :
                            {
                                "type" : "text/plain",
                                "value" : ""
                            }
                        },
                        {
                            "name" : "QuickLinks-Type 6",
                            "title" :
                            {
                                "lang" : "en",
                                "value" : "Quick Links Type 6"
                            },
                            "type" : "ShortTextComponent",
                            "data" :
                            {
                                "type" : "text/plain",
                                "value" : ""
                            }
                        },
                        {
                            "name" : "QuickLinks-Header 6",
                            "title" :
                            {
                                "lang" : "en",
                                "value" : "Quick Link Header 6"
                            },
                            "type" : "ShortTextComponent",
                            "data" :
                            {
                                "type" : "text/plain",
                                "value" : ""
                            }
                        },
                        {
                            "name" : "QuickLinks-Text 6",
                            "title" :
                            {
                                "lang" : "en",
                                "value" : "Quick Links Text 6"
                            },
                            "type" : "RichTextComponent",
                            "data" :
                            {
                                "type" : "text/html",
                                "value" : ""
                            }
                        },
                        {
                            "name" : "QuickLinks-Link 6",
                            "title" :
                            {
                                "lang" : "en",
                                "value" : "Quick Links Link 6"
                            },
                            "type" : "ShortTextComponent",
                            "data" :
                            {
                                "type" : "text/plain",
                                "value" : ""
                            }
                        },
                        {
                            "name" : "QuickLinks-Permit 6",
                            "title" :
                            {
                                "lang" : "en",
                                "value" : "Quick Links Permit 6"
                            },
                            "type" : "ShortTextComponent",
                            "data" :
                            {
                                "type" : "text/plain",
                                "value" : ""
                            }
                        },
                        {
                            "name" : "QuickLinks-Deny 6",
                            "title" :
                            {
                                "lang" : "en",
                                "value" : "Quick Links Deny 6"
                            },
                            "type" : "ShortTextComponent",
                            "data" :
                            {
                                "type" : "text/plain",
                                "value" : ""
                            }
                        },
                        {
                            "name" : "BasicContent-Heading",
                            "title" :
                            {
                                "lang" : "en",
                                "value" : "Basic Content Heading"
                            },
                            "type" : "ShortTextComponent",
                            "data" :
                            {
                                "type" : "text/plain",
                                "value" : ""
                            }
                        },
                        {
                            "name" : "BasicContent-Text",
                            "title" :
                            {
                                "lang" : "en",
                                "value" : "Basic Content Text"
                            },
                            "type" : "RichTextComponent",
                            "data" :
                            {
                                "type" : "text/html",
                                "value" : ""
                            }
                        },
                        {
                            "name" : "Image",
                            "title" :
                            {
                                "lang" : "en",
                                "value" : "Image"
                            },
                            "type" : "ShortTextComponent",
                            "data" :
                            {
                                "type" : "text/plain",
                                "value" : ""
                            }
                        },
                        {
                            "name" : "QuickLinks-Type",
                            "title" :
                            {
                                "lang" : "en",
                                "value" : "Quick Links Type"
                            },
                            "type" : "ShortTextComponent",
                            "data" :
                            {
                                "type" : "text/plain",
                                "value" : ""
                            }
                        },
                        {
                            "name" : "QuickLinks-Header",
                            "title" :
                            {
                                "lang" : "en",
                                "value" : "Quick Link Header"
                            },
                            "type" : "ShortTextComponent",
                            "data" :
                            {
                                "type" : "text/plain",
                                "value" : ""
                            }
                        },
                        {
                            "name" : "QuickLinks-Text",
                            "title" :
                            {
                                "lang" : "en",
                                "value" : "Quick Links Text"
                            },
                            "type" : "RichTextComponent",
                            "data" :
                            {
                                "type" : "text/html",
                                "value" : ""
                            }
                        },
                        {
                            "name" : "QuickLinks-Link",
                            "title" :
                            {
                                "lang" : "en",
                                "value" : "Quick Links Link"
                            },
                            "type" : "ShortTextComponent",
                            "data" :
                            {
                                "type" : "text/plain",
                                "value" : ""
                            }
                        }
                    ]
                }
            }
        }
    }
}