{
    "contentID": "b4f2a5dc-ed9a-4e8d-9adb-696beb99972f",
    "title": "ListFAQs",
    "items": [
        {
            "title": "FAQ-1",
            "question": "<p dir=\"ltr\">Can employees keep their insurance if they leave their job or the employer decides to decrease or eliminate coverage?</p>\n",
            "answer": "<p dir=\"ltr\">Conversion and/or Portability may be available under your plan. &nbsp;Please refer to the- Conversion Privilege of your contract for more details.</p>\n",
            "Categories": "Life-Life Continuity of Coverage"
        },
        {
            "title": "FAQ-2",
            "question": "<p dir=\"ltr\">What is the difference between conversion and portability?</p>\n",
            "answer": "<p dir=\"ltr\">Portability for life coverages is keeping the policy as a term life policy. &nbsp;Portable policies do not have a cash value, rates are not guaranteed, and can terminate upon the attainment of a certain age as defined by the contract. Conversion is converting the policy to an individual Legacy whole life policy which can accumulate cash value over time and premiums do not increase due to age. &nbsp;Both policies are rated differently.</p>\n\n<p dir=\"ltr\">Disability may be continued under some contracts. &nbsp;Please refer to your contract.</p>\n",
            "Categories": "Life-Life Continuity of Coverage"
        },
        {
            "title": "FAQ-1",
            "question": "<p dir=\"ltr\">What is the difference between conversion and portability?</p>\n",
            "answer": "<p dir=\"ltr\">Portability for life coverages is keeping the policy as a term life policy. &nbsp;Portable policies do not have a cash value, rates are not guaranteed, and can terminate upon the attainment of a certain age as defined by the contract. &nbsp;Conversion is converting the policy to an individual Legacy whole life policy which can accumulate cash value over time and premiums do not increase due to age. Both policies are rated differently.</p>\n\n<p dir=\"ltr\">Disability may be continued under some contracts. Please refer to your contract.</p>\n",
            "Categories": "Disability-Disability Continuity of Coverage"
        },
        {
            "title": "FAQ-1",
            "question": "<p dir=\"ltr\">What Billing and Administration Options are available?</p>\n",
            "answer": "<p dir=\"ltr\">AUL offers a variety of billing options as listed below:</p>\n\n<ul dir=\"ltr\">\n\t<li>List Billing: Employer self-administered employee eligibility and billing utilizing the OneAmerica Employee Benefits&nbsp;web-based billing system, iBill. Customers print their bill from iBill and&nbsp;send&nbsp;it in with their payment.&nbsp;</li>\n\t<li>Summary Billing: Employer self-administered and summarized information provided with premium remittance.</li>\n</ul>\n",
            "Categories": "Billing and Payments-Bill Types"
        },
        {
            "title": "FAQ-2",
            "question": "<p dir=\"ltr\">What is Summary Billing?</p>\n",
            "answer": "<p dir=\"ltr\">With this billing option, benefit administration tasks such as additions, benefit changes, terminations, salary updates, etc., are the responsibility of the Employer. With your monthly premium remittance, the total number of lives, total volume and total premium, by coverage is required. AUL provides a form to aid in reporting this information.</p>\n",
            "Categories": "Billing and Payments-Summary Billing"
        },
        {
            "title": "FAQ-3",
            "question": "<p dir=\"ltr\">When should Summary Bills and payments be remitted to AUL?</p>\n",
            "answer": "<p dir=\"ltr\">Payments are due for Summary Bills on the first day of the coverage month.</p>\n",
            "Categories": "Billing and Payments-Summary Billing"
        },
        {
            "title": "FAQ-4",
            "question": "<p dir=\"ltr\">What is ePay (ACH)?</p>\n",
            "answer": "<p dir=\"ltr\">ePay (ACH) is a payment option that allows AUL to automatically withdraw your AUL group insurance premiums directly from the account of your choice, on a specified date. &nbsp;This electronic fund transfer ensures payment will be credited to your group insurance plan within 48 hours.&nbsp;</p>\n",
            "Categories": "Billing and Payments-ePay and iBill"
        },
        {
            "title": "FAQ-5",
            "question": "<p dir=\"ltr\">What is iBill (Internet Billing)?</p>\n",
            "answer": "<p dir=\"ltr\">iBill is our web-based billing system which requires User identification (ID) and a password issued by AUL. Policyholders can access their AUL account to enter employee additions, changes, and salary updates, run numerous administration reports, and accept their bill. Customers will also be able to authorize a payment on-line if they have elected this option. Customers will have the option of retrieving billing statements.</p>\n",
            "Categories": "Billing and Payments-ePay and iBill"
        },
        {
            "title": "FAQ-6",
            "question": "<p dir=\"ltr\">When will ePay (ACH) statements be generated and mailed?</p>\n",
            "answer": "<p dir=\"ltr\">Bills for groups who have elected to pay by ePay (ACH) are printed on the 6th of the coverage month. &nbsp;The ACH payment is then pulled on the 7th of the month following the coverage month.</p>\n",
            "Categories": "Billing and Payments-ePay and iBill"
        },
        {
            "title": "FAQ-8",
            "question": "<p dir=\"ltr\">Does the coverage amount decrease as the employee gets older?</p>\n",
            "answer": "<p dir=\"ltr\">Refer to your contract’s schedule of benefits to see if this provision applies.</p>\n",
            "Categories": "Billing and Payments-Premium"
        },
        {
            "title": "FAQ-9",
            "question": "<p dir=\"ltr\">Can I pay my bill online?</p>\n",
            "answer": "<p dir=\"ltr\">The only online option that is currently available is via ePay (ACH). &nbsp;If you are interested in paying via ePay, please call our Group Contact Center at (800) 553-5318.</p>\n",
            "Categories": "Billing and Payments-Premium"
        },
        {
            "title": "FAQ-10",
            "question": "<p dir=\"ltr\">Will premium late notices be sent through mail or email?</p>\n",
            "answer": "<p dir=\"ltr\">Late notices will be sent via mail. Lapse letters will be generated and sent out as a part of the standard procedures for all groups.&nbsp;</p>\n",
            "Categories": "Billing and Payments-Premium"
        },
        {
            "title": "FAQ-1",
            "question": "<p dir=\"ltr\">Are there guidelines for designating beneficiaries?</p>\n",
            "answer": "<p dir=\"ltr\">Yes. The sample beneficiary designations document contains some guidelines on what is acceptable or not acceptable for beneficiary designations. This does not include all possible designations, but should provide you with enough information to answer questions about the most common types of designations.</p>\n",
            "Categories": "Admin of Benefits-Beneficiary Info"
        },
        {
            "title": "FAQ-2",
            "question": "<p dir=\"ltr\">How does an employee change his or her beneficiary?</p>\n",
            "answer": "<p dir=\"ltr\">The employee should complete <a href=\"/wps/wcm/connect/eben/eben2/files/file-g-13117\" target=\"_blank\" >Beneficiary&nbsp;Designation&nbsp;-&nbsp;Group&nbsp;Life&nbsp;Insurance&nbsp;(G-13117)</a>. The employee should submit their completed Beneficiary Form to the employer for retention.</p>\n\n<p dir=\"ltr\">Beneficiary Forms are not required to be submitted to AUL (OneAmerica).</p>\n",
            "Categories": "Admin of Benefits-Beneficiary Info"
        },
        {
            "title": "FAQ-3",
            "question": "<p dir=\"ltr\">Can I maintain my beneficiary information online?</p>\n",
            "answer": "<p dir=\"ltr\">This is a future enhancement being planned for <a href=\"http://www.employeebenefits.aul.com\" >www.employeebenefits.aul.com</a>. No target date has been established.</p>\n",
            "Categories": "Admin of Benefits-Beneficiary Info"
        },
        {
            "title": "FAQ-4",
            "question": "<p dir=\"ltr\">If an employee’s spouse works at the same company, can they both elect dependent coverage?</p>\n",
            "answer": "<p dir=\"ltr\">The Policyholder should review the policy plan provisions regarding eligibility.</p>\n",
            "Categories": "Admin of Benefits-Dependent Coverage"
        },
        {
            "title": "FAQ-5",
            "question": "<p dir=\"ltr\">May the employee request coverage for his or her spouse and children?</p>\n",
            "answer": "<p dir=\"ltr\">Yes, if offered by the employer through AUL (OneAmerica).</p>\n",
            "Categories": "Admin of Benefits-Dependent Coverage"
        },
        {
            "title": "FAQ-6",
            "question": "<p dir=\"ltr\">When is a child considered a dependent?</p>\n",
            "answer": "<p dir=\"ltr\">Please refer to the definition of a dependent in Section 2 of the Policyholder’s contract with AUL (OneAmerica) if dependent coverage is covered by the employer through AUL (OneAmerica).</p>\n",
            "Categories": "Admin of Benefits-Dependent Coverage"
        },
        {
            "title": "FAQ-7",
            "question": "<p dir=\"ltr\">How many hours does an employee have to work to become and stay eligible for coverage?</p>\n",
            "answer": "<p dir=\"ltr\">The number of hours will vary by employer. Please see your Schedule of Benefits to determine the number of hours your employer requires.</p>\n",
            "Categories": "Admin of Benefits-Eligibility"
        },
        {
            "title": "FAQ-8",
            "question": "<p dir=\"ltr\">When does an employee’s coverage become effective?</p>\n",
            "answer": "<p dir=\"ltr\">The effective date will be the first day of the policy/coverage month after the employee meets the waiting period specified on the Schedule of Benefits. Please see the Eligibility and Effective Date sections of the benefit pages; Requirements may vary per product.</p>\n",
            "Categories": "Admin of Benefits-Eligibility"
        },
        {
            "title": "FAQ-9",
            "question": "<p dir=\"ltr\">Can the insurance company cancel an employee’s coverage or reduce an employee's benefits?</p>\n",
            "answer": "<p dir=\"ltr\">AUL or the employer may cancel coverage or reduce benefits at any time. The employer is responsible for informing employees of any of these changes.</p>\n",
            "Categories": "Admin of Benefits-Terminations"
        },
        {
            "title": "FAQ-10",
            "question": "<p dir=\"ltr\">How do I, as administrator of the group policyholder, notify AUL of an employee termination?</p>\n",
            "answer": "<p dir=\"ltr\">For list-billed and ePay coverages, you may do one of three things:</p>\n\n<ol dir=\"ltr\">\n\t<li>If Self-Administered, make updates within AUL’s (OneAmerica’s) iBill system</li>\n\t<li>Complete and submit the <a href=\"/wps/wcm/connect/eben/eben2/files/file-g-23999\" target=\"_blank\" >Policyholder Request for Employee Changes form (G-23999)</a></li>\n\t<li>Call or email our Group Contact Center at (800) 553-5318 or <a href=\"mailto:GroupContactCenter@oneamerica.com\" >groupcontactcenter@oneamerica.com</a> to report the termination</li>\n</ol>\n\n<p dir=\"ltr\">For summary-billed (self-billed) groups, report the termination on your next summary bill.</p>\n",
            "Categories": "Admin of Benefits-Terminations"
        },
        {
            "title": "FAQ-11",
            "question": "<p dir=\"ltr\">How does an employee withdraw from a voluntary coverage?</p>\n",
            "answer": "<p dir=\"ltr\">The employee needs to complete <a href=\"/wps/wcm/connect/eben/eben2/files/file-g-24000\" target=\"_blank\" >Policyholder&nbsp;Request&nbsp;for&nbsp;Employee&nbsp;Changes&nbsp;form&nbsp;(G-24000)</a> regardless of the Policyholder’s bill type.</p>\n\n<ul dir=\"ltr\">\n\t<li>If self-administered, process the request in iBill</li>\n\t<li>If AUL-administered, submit the form using the contact information found on the form.</li>\n</ul>\n",
            "Categories": "Admin of Benefits-Terminations"
        },
        {
            "title": "FAQ-12",
            "question": "<p dir=\"ltr\">What do I, as administrator of the group policyholder, do when a person has terminated but is still showing up on the bill?</p>\n",
            "answer": "<p dir=\"ltr\">You should pay the amount shown on the bill and make sure AUL Home Office has been notified of the termination. Once that person is terminated, an adjustment will be made to a future bill crediting any necessary premium. &nbsp;</p>\n",
            "Categories": "Admin of Benefits-Terminations"
        },
        {
            "title": "FAQ-13",
            "question": "<p dir=\"ltr\">When does an employee’s coverage terminate?</p>\n",
            "answer": "<p dir=\"ltr\">Terminations vary by coverage type. &nbsp;Refer to the Individual Terminations section of the benefit pages for more details.</p>\n",
            "Categories": "Admin of Benefits-Terminations"
        },
        {
            "title": "FAQ-14",
            "question": "<p dir=\"ltr\">What if the employee terminates employment but returns at a later date?</p>\n",
            "answer": "<p dir=\"ltr\">Employees who return within the contractual reinstatement period may not have to wait the waiting period to become effective again. Employees who do not return within the contractual reinstatement period will be treated as new employees. For more information regarding reinstatements, refer to the Individual Reinstatements section of your life benefit pages.&nbsp;</p>\n",
            "Categories": "Admin of Benefits-Terminations"
        },
        {
            "title": "FAQ-15",
            "question": "<p dir=\"ltr\">What is iBill (Internet Billing)?</p>\n",
            "answer": "<p dir=\"ltr\">iBill is our web-based billing system which requires User identification (ID) and a password issued by AUL. Policyholders can access their AUL account to enter employee additions, changes, and salary updates, run numerous administration reports, and accept their bill. Customers will also be able to authorize a payment on-line if they have elected this option. Customers will have the option of retrieving billing statements.</p>\n",
            "Categories": "Admin of Benefits-iBill Admin"
        },
        {
            "title": "FAQ-16",
            "question": "<p dir=\"ltr\">Can I create additional IDs for my employees and/or agent/broker/TPA and can the access levels vary?</p>\n",
            "answer": "<p dir=\"ltr\">At this time, AUL is able to provide multiple User IDs per policyholder record, however, all access levels are the same. A future enhancement will allow the Policyholder Administrator to assign and manage delegates and specify the access available to each.</p>\n",
            "Categories": "Admin of Benefits-iBill Admin"
        },
        {
            "title": "FAQ-17",
            "question": "<p dir=\"ltr\">Can I import/export information into iBill from my payroll/HR system?</p>\n",
            "answer": "<p dir=\"ltr\">You do not currently have the ability to import/export information into iBill, though it may be a future enhancement.&nbsp;</p>\n",
            "Categories": "Admin of Benefits-iBill Admin"
        },
        {
            "title": "FAQ-18",
            "question": "<p dir=\"ltr\">Can I maintain my beneficiary information online?</p>\n",
            "answer": "<p dir=\"ltr\">This is a future enhancement being planned for <a href=\"http://www.employeebenefits.aul.com\" >www.employeebenefits.aul.com</a>. No target date has been established.</p>\n",
            "Categories": "Admin of Benefits-iBill Admin"
        },
        {
            "title": "FAQ-19",
            "question": "<p dir=\"ltr\">Can I administer my account (i.e. enter employee info) but still have AUL generate my monthly bill and periodic reports?</p>\n",
            "answer": "<p dir=\"ltr\">You will have the ability to generate your own bill and send it into AUL. If you wish, AUL can continue to generate a bill according to the regularly scheduled billing cycle and mail it to you.</p>\n",
            "Categories": "Admin of Benefits-iBill Admin"
        },
        {
            "title": "FAQ-20",
            "question": "<p dir=\"ltr\">Can I send an email directly from iBill to Customer Service?</p>\n",
            "answer": "<p dir=\"ltr\">No, you cannot email directly from iBill at this time. &nbsp;However, the Group Contact Center can be reached at <a href=\"mailto:GroupContactCenter@oneamerica.com\" >GroupContactCenter@oneamerica.com</a>.</p>\n",
            "Categories": "Admin of Benefits-iBill Admin"
        },
        {
            "title": "FAQ-21",
            "question": "<p dir=\"ltr\">How do I change my password?</p>\n",
            "answer": "<p dir=\"ltr\">If you are already registered on the Employee Benefits site, then you will use the same Username and Password to login to <a href=\"http://www.employeebenefits.aul.com\" >www.employeebenefits.aul.com</a>. After logging in there will be a link on the top bar of the page named \"My Info\". Click on that link and follow the instructions to change your password.</p>\n",
            "Categories": "Admin of Benefits-iBill Admin"
        },
        {
            "title": "FAQ-22",
            "question": "<p dir=\"ltr\">Is AUL-initiated ACH payment available?</p>\n",
            "answer": "<p dir=\"ltr\">Yes, this option is available. If you are interested in paying on-line, please call our Group Contact Center at (800) 553-5318.</p>\n",
            "Categories": "Admin of Benefits-iBill Admin"
        },
        {
            "title": "FAQ-23",
            "question": "<p dir=\"ltr\">How do I submit a request to move to self-administration/iBill?</p>\n",
            "answer": "<p dir=\"ltr\">Complete the <a href=\"/wps/wcm/connect/eben/eben2/files/file-g-17577\" target=\"_blank\" >Administrative&nbsp;Options&nbsp;Elections&nbsp;Form&nbsp;for&nbsp;Group&nbsp;Insurance&nbsp;Policyholders&nbsp;(G-17577)</a>. &nbsp;Complete only the fields that reflect changes. Submit the form to AUL (OneAmerica) one of two ways:</p>\n\n<ol dir=\"ltr\">\n\t<li>By fax: (888) 285-1565</li>\n\t<li>By email: <a href=\"mailto:GroupContactCenter@oneamerica.com\" >GroupContactCenter@oneamerica.com</a></li>\n</ol>\n",
            "Categories": "Admin of Benefits-iBill Admin"
        },
        {
            "title": "FAQ-24",
            "question": "<p dir=\"ltr\">How will I be assigned access to iBill (OneAmerica’s billing system)?</p>\n",
            "answer": "<p dir=\"ltr\">Access to the iBill system will be granted by AUL’s (OneAmerica’s) home office. To log in, go to <a href=\"http://www.employeebenefits.aul.com\" >www.employeebenefits.aul.com</a>. If you have already registered on the Employee Benefits site, then you will use the same Username and Password you currently use. If you have not yet registered on the Employee Benefits site, click \"Register Now\" and follow the instructions.</p>\n",
            "Categories": "Admin of Benefits-iBill Admin"
        },
        {
            "title": "FAQ-25",
            "question": "<p dir=\"ltr\">How will I be trained on self-administration/iBill?</p>\n",
            "answer": "<p dir=\"ltr\">Once assigned a User ID and password, you will has access to all iBill training material which includes a series of iBill tutorials (video) and an iBill User Guide (pdf). &nbsp;Both resources are located within iBill at the bottom of the left-hand navigation bar as well as under “Resources” on the main AUL’s employee benefits website.</p>\n",
            "Categories": "Admin of Benefits-iBill Admin"
        },
        {
            "title": "FAQ-26",
            "question": "<p dir=\"ltr\">If the premium amount charged for an employee appears incorrect, can I override it?</p>\n",
            "answer": "<p dir=\"ltr\">All premiums are calculated based on the benefit design and employee information. If you believe the premium amount charged is inaccurate, verify the effective date, volume(s), and salary of the employee. &nbsp;If the premium information still appears incorrect, please call our Group Contact Center at (800) 553-5318.</p>\n",
            "Categories": "Admin of Benefits-iBill Admin"
        },
        {
            "title": "FAQ-27",
            "question": "<p dir=\"ltr\">We have multiple locations and each has their own administrator. Can each of us have our own login ID/password?</p>\n",
            "answer": "<p dir=\"ltr\">Yes, upon set-up of the billing administration, a separate record will be established for each location.&nbsp;</p>\n",
            "Categories": "Admin of Benefits-iBill Admin"
        },
        {
            "title": "FAQ-28",
            "question": "<p dir=\"ltr\">Who can I contact for questions regarding self-administration or general administrative questions?</p>\n",
            "answer": "<p dir=\"ltr\">Any questions regarding the administration of your account may be directed to the Group Contact Center at (800) 553-5318 or via email at <a href=\"mailto:GroupContactCenter@oneamerica.com\" >GroupContactCenter@oneamerica.com</a>.</p>\n",
            "Categories": "Admin of Benefits-iBill Admin"
        },
        {
            "title": "FAQ-29",
            "question": "<p dir=\"ltr\">Will AUL be auditing my account and providing feedback on any errors we make?</p>\n",
            "answer": "<p dir=\"ltr\">AUL reserves the right to audit any account. In agreeing to administer the plan, the administrator is responsible for the maintenance and accuracy of the account.</p>\n",
            "Categories": "Admin of Benefits-iBill Admin"
        },
        {
            "title": "FAQ-30",
            "question": "<p dir=\"ltr\">Will premium late notices be sent through mail or email?</p>\n",
            "answer": "<p dir=\"ltr\">Late notices will be sent via mail. Lapse letters will be generated and sent out as a part of the standard procedures for all groups.</p>\n",
            "Categories": "Admin of Benefits-iBill Admin"
        },
        {
            "title": "FAQ-31",
            "question": "<p dir=\"ltr\">Will this system produce employee enrollment forms, rate exhibits or claim forms?</p>\n",
            "answer": "<p dir=\"ltr\">Rate exhibits are currently available as an Administrative Report. Customized Enrollment Forms and Claim Forms are not currently available but are future enhancements being planned. Enrollment forms will need to be obtained the Group Contact Center. Claims forms can be located under “Forms and Tools” on the Employee Benefits website.&nbsp;</p>\n",
            "Categories": "Admin of Benefits-iBill Admin"
        },
        {
            "title": "FAQ-1",
            "question": "<p dir=\"ltr\">How do I file a death claim?</p>\n",
            "answer": "<p dir=\"ltr\">If a person insured under the American United Life Insurance Company policy passes away, the Group Life Insurance - Proof of Death Claim Form should be completed in full, signed, and dated by the insured’s employer and submitted via email, fax, or mail.&nbsp; For unnatural or accidental deaths, the Authorization for the Release of Health-Related Information Form must be completed by the deceased’s next of kin or the person authorized to make medical decisions for the deceased such as a medical power of attorney, guardian, or trustee.</p>\n\n<p dir=\"ltr\">Email: &nbsp;&nbsp;<a href=\"mailto:lifeclaims.employeebenefits@oneamerica.com\" >lifeclaims.employeebenefits@oneamerica.com</a></p>\n\n<p dir=\"ltr\">Fax:&nbsp; &nbsp;&nbsp;&nbsp;&nbsp;&nbsp; 317-285-7666</p>\n\n<p dir=\"ltr\">Mail:&nbsp; &nbsp;&nbsp;&nbsp; American United Life Insurance Company&nbsp;&nbsp;&nbsp;&nbsp;&nbsp;&nbsp;&nbsp;&nbsp;&nbsp;&nbsp;&nbsp;</p>\n\n<p dir=\"ltr\">&nbsp;&nbsp;&nbsp;&nbsp;&nbsp;&nbsp;&nbsp;&nbsp;&nbsp;&nbsp;&nbsp;&nbsp;&nbsp;&nbsp; PO Box 7106</p>\n\n<p dir=\"ltr\">&nbsp;&nbsp;&nbsp;&nbsp;&nbsp;&nbsp;&nbsp;&nbsp;&nbsp;&nbsp;&nbsp;&nbsp;&nbsp;&nbsp; Indianapolis, IN 46207-7106</p>\n",
            "Categories": "Life Claims-Employer Info"
        },
        {
            "title": "FAQ-2",
            "question": "<p dir=\"ltr\">If I need assistance in completing the Group Life Insurance - Proof of Death Claim form, who should I call?</p>\n",
            "answer": "<p dir=\"ltr\">Please call an American United Life Insurance Company® claim representative from 8:00 AM to 5:00 PM ET Monday-Friday at 1-800-553-3522.</p>\n",
            "Categories": "Life Claims-Employer Info"
        },
        {
            "title": "FAQ-3",
            "question": "<p dir=\"ltr\">When should the death claim be filed?</p>\n",
            "answer": "<p dir=\"ltr\">The death claim should be filed as soon as a certified death certificate is issued, but no later than one year from the date of death of the deceased.</p>\n",
            "Categories": "Life Claims-Employer Info"
        },
        {
            "title": "FAQ-4",
            "question": "<p dir=\"ltr\">What information should be submitted with the death claim?</p>\n",
            "answer": "<p dir=\"ltr\">The following items should be submitted with the completed Group Life Insurance - Proof of Death Claim form:&nbsp;</p>\n\n<ul dir=\"ltr\">\n\t<li>A copy of the certified death certificate</li>\n\t<li>Insured employee’s enrollment information (i.e. initial enrollment form/card, electronic enrollment verifications)</li>\n\t<li>Guaranteed Increase in Benefit enrollment forms, and if applicable,</li>\n\t<li>All beneficiary designations.</li>\n</ul>\n",
            "Categories": "Life Claims-Employer Info"
        },
        {
            "title": "FAQ-5",
            "question": "<p dir=\"ltr\">Does the beneficiary need to sign the claim form?</p>\n",
            "answer": "<p dir=\"ltr\">No, only the signature of the policyholder/employer’s authorized representative is required.</p>\n",
            "Categories": "Life Claims-Employer Info"
        },
        {
            "title": "FAQ-6",
            "question": "<p dir=\"ltr\">If the cause of death is listed as “pending” on the death certificate, should the claim be filed?</p>\n",
            "answer": "<p dir=\"ltr\">Yes. &nbsp;AUL will correspond with the named beneficiary to obtain a copy of the final certified death certificate, which lists the cause and manner of death, once it becomes available.&nbsp;</p>\n",
            "Categories": "Life Claims-Employer Info"
        },
        {
            "title": "FAQ-7",
            "question": "<p dir=\"ltr\">If there is an error in the information on the certified death certificate, what actions should the beneficiary take to obtain a corrected certified death certificate?</p>\n",
            "answer": "<p dir=\"ltr\">Beneficiaries should contact the funeral director or the state public vital records/statistics office to obtain a corrected certified death certificate.</p>\n",
            "Categories": "Life Claims-Employer Info"
        },
        {
            "title": "FAQ-8",
            "question": "<p dir=\"ltr\">When can the beneficiary expect to hear from American United Life Insurance Company® (AUL) and receive benefits?</p>\n",
            "answer": "<p dir=\"ltr\">Upon receipt of a claim, AUL will mail an acknowledgement letter to the beneficiary within 72 hours.&nbsp;</p>\n\n<p dir=\"ltr\">The beneficiary will be advised via letter and phone what additional claim requirements are needed.&nbsp;</p>\n\n<p dir=\"ltr\">Our goal is to complete processing of the claim as quickly as possible after confirming the following:</p>\n\n<ul dir=\"ltr\">\n\t<li>The named beneficiary of record;</li>\n\t<li>The eligibility of the insured and existence of insurance;</li>\n\t<li>Receipt of all claim requirements; and</li>\n\t<li>All conditions of the policy have been met.</li>\n</ul>\n",
            "Categories": "Life Claims-Employer Info"
        },
        {
            "title": "FAQ-9",
            "question": "<p dir=\"ltr\">Does American United Life Insurance Company® accept funeral assignments?</p>\n",
            "answer": "<p dir=\"ltr\">Yes.&nbsp; The funeral home will need to be provided with the employer’s group policy number to complete the assignment.&nbsp; The following must be included on the funeral assignment:</p>\n\n<ul dir=\"ltr\">\n\t<li>The insured’s name;</li>\n\t<li>Insurance policy number;</li>\n\t<li>Assigned amount; and&nbsp;</li>\n\t<li>Beneficiary’s signature.</li>\n</ul>\n",
            "Categories": "Life Claims-Employer Info"
        },
        {
            "title": "FAQ-10",
            "question": "<p dir=\"ltr\">When the beneficiary is the insured’s estate, what additional information must be submitted?</p>\n",
            "answer": "<p dir=\"ltr\">If the beneficiary is the insured’s estate, the following documentation will be needed:</p>\n\n<ul dir=\"ltr\">\n\t<li>Certified Letters of Testamentary appointing the Executor/Administrator of the estate;</li>\n\t<li>The estate tax identification number for the estate -&nbsp; (Per the IRS, we are not permitted to use the insured’s Social Security Number) – File Form W-9; and</li>\n\t<li>Copy of the estate financial institution account information.</li>\n</ul>\n",
            "Categories": "Life Claims-Employer Info"
        },
        {
            "title": "FAQ-11",
            "question": "<p dir=\"ltr\">When the beneficiary is a Trust, what trust-related information will be needed?</p>\n",
            "answer": "<p dir=\"ltr\">If the beneficiary is a trust, the trustee will need to submit the following documents to AUL:</p>\n\n<ul dir=\"ltr\">\n\t<li>Copy of the complete trust document, with names of trustee successors, signatures, and amendments;</li>\n\t<li>Trust Tax Identification Number (EIN) (Per the IRS, we are not permitted to use the insured’s Social Security Number) – File Form W-9;</li>\n\t<li>For Testamentary Trusts, we require:\n\t<ul>\n\t\t<li>Copy of the probated will; and</li>\n\t\t<li>Letters of Testamentary appointing the Executor/Administrator.</li>\n\t</ul>\n\t</li>\n</ul>\n",
            "Categories": "Life Claims-Employer Info"
        },
        {
            "title": "FAQ-12",
            "question": "<p dir=\"ltr\">When the beneficiary is a charitable organization, what additional information must be submitted?</p>\n",
            "answer": "<p dir=\"ltr\">The following must be submitted:</p>\n\n<ul dir=\"ltr\">\n\t<li>Copy of the corporate/charitable organization’s resolution (or its equivalent) indicating the representative is authorized to sign on behalf of the charitable organization; and</li>\n\t<li>Tax Identification Number (TIN) of the charitable organization.</li>\n</ul>\n",
            "Categories": "Life Claims-Employer Info"
        },
        {
            "title": "FAQ-13",
            "question": "<p dir=\"ltr\">Does American United Life Insurance Company® accept funeral or cemetery assignments?</p>\n",
            "answer": "<p dir=\"ltr\">Yes.&nbsp; The following must be included on the funeral or cemetery assignment:</p>\n\n<ul dir=\"ltr\">\n\t<li>Employer’s group policy number;</li>\n\t<li>Insured’s name;</li>\n\t<li>Assigned amount; &nbsp;and&nbsp;</li>\n\t<li>Beneficiary’s signature and signature date.</li>\n</ul>\n",
            "Categories": "Life Claims-Employer Info"
        },
        {
            "title": "FAQ-14",
            "question": "<p dir=\"ltr\">If the employee did not name a beneficiary, who is entitled to the benefit proceeds and what claim documentation must be filed?</p>\n",
            "answer": "<p dir=\"ltr\">The policy outlines how insurance proceeds will be paid in this situation.&nbsp;</p>\n\n<ul dir=\"ltr\">\n\t<li>If state regulations allow, a small estate affidavit may be submitted in lieu of the certified copy of the Letters of Testamentary (check your state regulations).&nbsp;</li>\n\t<li>If state regulations do not allow small estate affidavits or if the claim proceeds exceed the amount permitted for state small estate affidavits, an estate must be opened.&nbsp; After the estate has been established, the following must be submitted to AUL:\n\t<ul>\n\t\t<li>Copy of the certified Letters of Testamentary appointing the Executor/Administrator of the estate;</li>\n\t\t<li>Tax Identification Number (EIN) for the estate (File Form W-9)( Per the IRS, we are not permitted to use the insured’s Social Security Number); and</li>\n\t\t<li>Estate financial institution account information.</li>\n\t</ul>\n\t</li>\n</ul>\n",
            "Categories": "Life Claims-Employer Info"
        },
        {
            "title": "FAQ-15",
            "question": "<p dir=\"ltr\">The primary beneficiary passed away prior to the insured.&nbsp; What claim documents are needed?</p>\n",
            "answer": "<p dir=\"ltr\">A copy of the predeceased beneficiary’s certified death certificate will be required.&nbsp; The contingent beneficiary’s contact information should also be provided.&nbsp; If there is no designated contingent beneficiary, the contact information for the person filing the claim should be provided.&nbsp; AUL will contact the appropriate party for additional information.</p>\n",
            "Categories": "Life Claims-Employer Info"
        },
        {
            "title": "FAQ-16",
            "question": "<p dir=\"ltr\">If the whereabouts of a designated beneficiary are unknown, what action should I take?</p>\n",
            "answer": "<p dir=\"ltr\">The policyholder/employer should submit the Group Life Insurance - Proof of Death Claim form to American United Life Insurance Company® with the best information available.&nbsp;&nbsp; AUL will evaluate the claim and may contact you for additional information, if necessary.</p>\n",
            "Categories": "Life Claims-Employer Info"
        },
        {
            "title": "FAQ-17",
            "question": "<p dir=\"ltr\">If the deceased employee had been approved for waiver of life premium due to disability, should a Group Life Insurance - Proof of Death Claim form be completed and submitted?</p>\n",
            "answer": "<p dir=\"ltr\">In this circumstance, the employer need not submit a Group Life Insurance – Proof of Death Claim form.&nbsp;Rather, the employer can facilitate the death claim process by notifying AUL of the insured’s death via phone, email, or letter.&nbsp;&nbsp; The claim analyst will advise the employer as to any additional documentation needed.</p>\n",
            "Categories": "Life Claims-Employer Info"
        },
        {
            "title": "FAQ-18",
            "question": "<p dir=\"ltr\">How can I check the status of an employee or dependent claim?</p>\n",
            "answer": "<p dir=\"ltr\">To check the claim status, call an American United Life Insurance Company® claim representative from 8:00 AM to 5:00 PM ET at 1-800-553-3522.&nbsp; A message may be left after 5:00 PM ET and you may expect your call to be returned by 10:00 AM ET the following business day.</p>\n",
            "Categories": "Life Claims-Employer Info"
        },
        {
            "title": "FAQ-19",
            "question": "<p dir=\"ltr\">When filing a dependent claim, should the employee’s salary and insurance volumes be provided?</p>\n",
            "answer": "<p dir=\"ltr\">Yes, please complete all fields on the claim form.</p>\n",
            "Categories": "Life Claims-Employer Info"
        },
        {
            "title": "FAQ-20",
            "question": "<p dir=\"ltr\">Who is the beneficiary of a dependent life insurance claim?</p>\n",
            "answer": "<p dir=\"ltr\">The policy states the insured (employee) is always the beneficiary of the covered dependent.</p>\n",
            "Categories": "Life Claims-Employer Info"
        },
        {
            "title": "FAQ-21",
            "question": "<p dir=\"ltr\">When the beneficiary is a minor, what additional information must be submitted?</p>\n",
            "answer": "<p dir=\"ltr\">The following must be submitted:</p>\n\n<ul dir=\"ltr\">\n\t<li>Copy of the certified Letters of Guardianship for the minor’s estate; and</li>\n\t<li>The minor’s Tax Identification Number (TIN).</li>\n</ul>\n\n<p dir=\"ltr\">If the beneficiary is a minor and the insured names a custodian for the minor under the Uniform Transfers or the Uniform Gifts to Minors Acts (UTMA or UGMA ), as permitted under state law,&nbsp; AUL will&nbsp; pay the proceeds under the UTMA for an eligible claim upon receipt of the following:</p>\n\n<ul dir=\"ltr\">\n\t<li>UTMA financial institution account statement showing an account has been opened in the name of the minor’s custodian;</li>\n\t<li>Copy of the minor’s birth certificate; and</li>\n\t<li>IRS form W-9 listing the guardianship of the minor’s estate Tax Identification Number; or</li>\n\t<li>The minor’s Social Security Number.</li>\n</ul>\n",
            "Categories": "Life Claims-Employer Info"
        },
        {
            "title": "FAQ-22",
            "question": "<p dir=\"ltr\">As the Policyholder/employer, what are my options if the claim is denied?</p>\n",
            "answer": "<p dir=\"ltr\">If an appeal of the claim decision is desired, the beneficiary (or their legal representative) must submit a written appeal to AUL within 60 days of the date of the denial letter.</p>\n\n<ul dir=\"ltr\">\n\t<li>The appeal letter should include written comments and any new information that was not previously submitted.</li>\n\t<li>Employers are permitted to submit additional comments and documents, but may not appeal the denial of a claim on behalf of the beneficiary.</li>\n</ul>\n",
            "Categories": "Life Claims-Employer Info"
        },
        {
            "title": "FAQ-23",
            "question": "<p dir=\"ltr\">When the insured employee or covered dependent passes away due to accidental or unnatural causes, what additional information is commonly required to complete processing of the claim?</p>\n",
            "answer": "<p dir=\"ltr\">The following should be submitted:</p>\n\n<ul dir=\"ltr\">\n\t<li>Newspaper accounts;</li>\n\t<li>Medical examiner autopsy and reports;</li>\n\t<li>Police reports; and</li>\n\t<li>Toxicology reports</li>\n</ul>\n",
            "Categories": "Life Claims-Employer Info"
        },
        {
            "title": "FAQ-24",
            "question": "<p dir=\"ltr\">Is there a filing limitation/requirement for an accidental death?</p>\n",
            "answer": "<p dir=\"ltr\">Yes. Please refer to your policy language to identify the following:</p>\n\n<ul dir=\"ltr\">\n\t<li>Amount of time in which American United Life Insurance Company® must be notified of the accident;</li>\n\t<li>Timeframe in which the loss must occur and</li>\n\t<li>Timeframe for filing the claim.</li>\n</ul>\n",
            "Categories": "Life Claims-Employer Info"
        },
        {
            "title": "FAQ-25",
            "question": "<p dir=\"ltr\">What claim information must be submitted for an Accelerated Life Benefit claim?</p>\n",
            "answer": "<p dir=\"ltr\">The Group Life Insurance Request For Accelerated Life Benefit Packet will need to be completed and submitted.</p>\n",
            "Categories": "Life Claims-Employer Info"
        },
        {
            "title": "FAQ-1",
            "question": "<p dir=\"ltr\">How do I file a Disability claim?</p>\n",
            "answer": "<p dir=\"ltr\">Your disability claim can be submitted via phone, email, fax, or mail.</p>\n\n<p dir=\"ltr\">Telephonic: (855) 517-6365<br />\nEmail: &nbsp;OneAmerica.Claims@customdisability.com<br />\nFax: &nbsp;&nbsp;&nbsp; &nbsp;(844) 287-9499<br />\nMail: &nbsp;&nbsp;&nbsp; P.O. Box 9060 &nbsp; Portland, ME 04104</p>\n\n<p dir=\"ltr\">You will not need to submit a new claim when moving from short-term disability to long-term disability. Our goal is to provide integrated claim processing to streamline claim administration. Some of the features of our integrated process include: single notification of claim, smooth and timely transition from short-term disability to long-term disability whenever possible, early claim review&nbsp;and case management to allow long-term disability decision to be made timely.&nbsp;We will contact you to discuss your claim, prognosis, your ability to return to work, policy provisions and limitations, as well as the need for additional information.</p>\n",
            "Categories": "Disability Claims-Employer Info"
        },
        {
            "title": "FAQ-2",
            "question": "<p dir=\"ltr\">Does American United Life Insurance Company (AUL) have a Call Center to assist me with general questions?</p>\n",
            "answer": "<p dir=\"ltr\">Dedicated Call Center representatives are available to assist you with general questions, but calls related to a specific claim may be transferred directly to your employee’s claim representative.&nbsp;&nbsp; Confidential information can only be shared with the employee or his/her authorized third party representative.</p>\n",
            "Categories": "Disability Claims-Employer Info"
        },
        {
            "title": "FAQ-3",
            "question": "<p dir=\"ltr\">Who may submit a disability claim?</p>\n",
            "answer": "<p dir=\"ltr\">The employee’s disability claim may be initiated by:</p>\n\n<ul dir=\"ltr\">\n\t<li>The employer</li>\n\t<li>The employee</li>\n\t<li>The employee’s third-party representative (e.g., attorney, power of attorney, etc.)</li>\n</ul>\n",
            "Categories": "Disability Claims-Employer Info"
        },
        {
            "title": "FAQ-4",
            "question": "<p dir=\"ltr\">When should the disability claim be filed?</p>\n",
            "answer": "<p dir=\"ltr\">The disability claim should be filed as soon as the employee or their medical provider believes the employee’s disability will extend beyond your policy’s elimination period. &nbsp;The claim may be submitted during the policy-defined elimination period.</p>\n",
            "Categories": "Disability Claims-Employer Info"
        },
        {
            "title": "FAQ-5",
            "question": "<p dir=\"ltr\">What paper work needs to be submitted with the disability claim?</p>\n",
            "answer": "<p dir=\"ltr\">If the claim is not submitted via telephone, the following disability claim forms must be completed and submitted:</p>\n\n<ul dir=\"ltr\">\n\t<li>Claimant Statement</li>\n\t<li>Authorization for Release of Information</li>\n\t<li>Attending Physician’s Statement (Not required for non-complicated maternity claims)</li>\n\t<li>Employer Statement</li>\n</ul>\n\n<p dir=\"ltr\">If additional information is needed, a claim representative will notify the employee.</p>\n\n<p dir=\"ltr\">If your claim is submitted via telephone, the employee will be required to complete and submit an Authorization for Release of Information&nbsp;.&nbsp; The claim representative will advise what additional information is needed to evaluate the claim.</p>\n",
            "Categories": "Disability Claims-Employer Info"
        },
        {
            "title": "FAQ-6",
            "question": "<p dir=\"ltr\">If an&nbsp;employee has short-term&nbsp;(STD)&nbsp;and long-term disability (LTD) insurance with AUL, am I required to submit a LTC&nbsp;claim if I have already submitted a STD&nbsp;claim?&nbsp;</p>\n",
            "answer": "<p dir=\"ltr\">You will not need to submit a new claim when moving from short-term disability to long-term disability. We will provide integrated claim processing to streamline claim administration. Some of the features of our integrated process include: single notification of claim, smooth and timely transition from short-term disability to long-term disability whenever possible, early claim review, and claim management to allow long-term disability decision to be made timely.&nbsp; We will contact the employee to discuss their:</p>\n\n<ul dir=\"ltr\">\n\t<li>Claim</li>\n\t<li>Prognosis</li>\n\t<li>Ability to return to work</li>\n\t<li>Policy provisions and limitations; as well as</li>\n\t<li>Need for additional information</li>\n</ul>\n",
            "Categories": "Disability Claims-Employer Info"
        },
        {
            "title": "FAQ-7",
            "question": "<p dir=\"ltr\">What should the employee expect after filing a claim?</p>\n",
            "answer": "<p dir=\"ltr\">A claim representative will correspond with the employee via the telephone and mail throughout the claim review process.</p>\n",
            "Categories": "Disability Claims-Employer Info"
        },
        {
            "title": "FAQ-8",
            "question": "<p dir=\"ltr\">How long will it take to make a decision after a short-term disability claim is filed?</p>\n",
            "answer": "<p dir=\"ltr\">Short-term disability claim decisions are generally made within an average of 5 days from the receipt of all the necessary claim requirements and documentation.&nbsp;&nbsp;</p>\n",
            "Categories": "Disability Claims-Employer Info"
        },
        {
            "title": "FAQ-9",
            "question": "<p dir=\"ltr\">How long will it take to make a decision after a long-term disability claim is filed?</p>\n",
            "answer": "<p dir=\"ltr\">A long-term disability claim decision will generally be made within 45 days from the receipt of all necessary claim requirements and documents.</p>\n",
            "Categories": "Disability Claims-Employer Info"
        },
        {
            "title": "FAQ-10",
            "question": "<p dir=\"ltr\">How will I and my employee be notified when a claim decision has been made?</p>\n",
            "answer": "<p dir=\"ltr\">The claim representative will notify the employee via telephone and mail and you will receive a written communication.&nbsp; If the claim is approved, a written communication will outline benefits payable.&nbsp; If the claim is denied, you and the employee will receive written notification of the denial.</p>\n",
            "Categories": "Disability Claims-Employer Info"
        },
        {
            "title": "FAQ-11",
            "question": "<p dir=\"ltr\">When will benefit payments begin?</p>\n",
            "answer": "<p dir=\"ltr\">If the claim is approved, benefits will begin after completion of the elimination period.&nbsp; Please reference your policy for provisions that may reduce the benefits payable.</p>\n",
            "Categories": "Disability Claims-Employer Info"
        },
        {
            "title": "FAQ-12",
            "question": "<p dir=\"ltr\">What is an elimination period?</p>\n",
            "answer": "<p dir=\"ltr\">An elimination period is a period of time as defined by your policy, that must be satisfied before benefits are payable.&nbsp; The elimination period begins on the first date of disability. The elimination period is stated in the “Schedule of Benefits” section of your policy.</p>\n",
            "Categories": "Disability Claims-Employer Info"
        },
        {
            "title": "FAQ-13",
            "question": "<p dir=\"ltr\">Will the disability benefit replace all of the employee’s income?</p>\n",
            "answer": "<p dir=\"ltr\">Your policy is designed to replace a percentage of the employee’s regular pay. Please review your policy for details and terms of the specific coverage for which your employee may be eligible.</p>\n",
            "Categories": "Disability Claims-Employer Info"
        },
        {
            "title": "FAQ-14",
            "question": "<p dir=\"ltr\">When is the employee considered disabled?</p>\n",
            "answer": "<p dir=\"ltr\">The definition of disability is defined in your policy.&nbsp; Information will be requested from you your employee, and the employee’s physician(s) to determine his/her abilities, restrictions, and limitations.&nbsp; This information will aide in determining if the employee meets the definition of “disability” as defined by your policy.</p>\n",
            "Categories": "Disability Claims-Employer Info"
        },
        {
            "title": "FAQ-15",
            "question": "<p dir=\"ltr\">How frequently will the short-term disability benefit checks be issued?</p>\n",
            "answer": "<p dir=\"ltr\">Approved short-term disability benefits are paid on a weekly basis, for the prior week. &nbsp;As a service to the employee, benefits for routine maternities and some routine surgeries are paid via lump sum payout.</p>\n",
            "Categories": "Disability Claims-Employer Info"
        },
        {
            "title": "FAQ-16",
            "question": "<p dir=\"ltr\">How frequently will the long-term disability benefit checks be issued?</p>\n",
            "answer": "<p dir=\"ltr\">Approved long-term disability benefits are paid on a monthly basis, for the prior month, after the elimination period has been satisfied.&nbsp; For example, if the elimination period is satisfied on 05/15, the monthly benefits will be issued on 06/15 for the benefit period of 05/16 through 06/15.&nbsp; Benefits will continue to be issued on the 15th of each month, subject to policy provisions and limitations.</p>\n",
            "Categories": "Disability Claims-Employer Info"
        },
        {
            "title": "FAQ-17",
            "question": "<p dir=\"ltr\">What benefit payment options are available?</p>\n",
            "answer": "<p dir=\"ltr\">The following two payment options are available:</p>\n\n<ul dir=\"ltr\">\n\t<li>Check; and &nbsp;</li>\n\t<li>Electronic Funds Transfer (EFT) to a bank account designated by your employee</li>\n</ul>\n",
            "Categories": "Disability Claims-Employer Info"
        },
        {
            "title": "FAQ-18",
            "question": "<p dir=\"ltr\">Are the employee’s disability benefits taxable?</p>\n",
            "answer": "<p dir=\"ltr\">Disability benefits may have taxes withheld if you contributed premiums on a pre-tax basis.</p>\n",
            "Categories": "Disability Claims-Employer Info"
        },
        {
            "title": "FAQ-19",
            "question": "<p dir=\"ltr\">Will the disability benefit be reduced by income and other benefits the employee receives while disabled?</p>\n",
            "answer": "<p dir=\"ltr\">Other benefits and other income for which the employee is eligible to receive could reduce the benefit amount.&nbsp; Please review your policy for a list of other income and benefits that may reduce the disability payment.</p>\n",
            "Categories": "Disability Claims-Employer Info"
        },
        {
            "title": "FAQ-20",
            "question": "<p dir=\"ltr\">How are work-related injuries handled?</p>\n",
            "answer": "<p dir=\"ltr\">Most short-term disability policies do not insure and cover work-related injuries.&nbsp; You should review your policy’s limitations and exclusions sections to determine if work-related injuries are covered.</p>\n\n<p dir=\"ltr\">Most long-term disability policies cover work-related injuries, but reduce the monthly benefits by&nbsp;&nbsp;&nbsp; Workers’ Compensation benefits received.&nbsp; Please review your policy’s limitations and exclusions sections to determine if work-related injuries are covered.</p>\n",
            "Categories": "Disability Claims-Employer Info"
        },
        {
            "title": "FAQ-21",
            "question": "<p dir=\"ltr\">How many weeks of benefits are paid for a maternity claim?</p>\n",
            "answer": "<p dir=\"ltr\">Up to six (6) weeks of post-partum disability is allowed for routine pregnancies and up to eight (8) weeks of post-partum disability is allowed for C-section deliveries.&nbsp; Please note that the elimination period still applies and therefore, the six (6) and eight (8) week disability periods are reduced by the elimination period when determining the time period benefits are payable.&nbsp; &nbsp;The approved disability period may be less or greater in length depending on the employee’s medical and vocational factors.</p>\n",
            "Categories": "Disability Claims-Employer Info"
        },
        {
            "title": "FAQ-22",
            "question": "<p dir=\"ltr\">What will happen to my employee’s disability claim if the employee is terminated while disabled?</p>\n",
            "answer": "<p dir=\"ltr\">If employment ends during a period of disability for which benefits are approved, benefits may continue in accordance with your policy’s “Extended Benefits” provision.</p>\n",
            "Categories": "Disability Claims-Employer Info"
        },
        {
            "title": "FAQ-23",
            "question": "<p dir=\"ltr\">If my employee returns to work on a part-time basis, what information is required from me to calculate the partial disability benefits?</p>\n",
            "answer": "<p dir=\"ltr\">You are required to submit the employee’s earnings statements on a weekly basis for a short-term disability claim and a monthly basis for a long-term disability claim. &nbsp;You will also be required to submit the number of hours worked each week/month and the employee’s rate of pay.&nbsp; The partial disability benefit will be calculated upon receipt of this information.</p>\n",
            "Categories": "Disability Claims-Employer Info"
        },
        {
            "title": "FAQ-24",
            "question": "<p dir=\"ltr\">As the employer, what are my responsibilities when the employee returns to work?</p>\n",
            "answer": "<p dir=\"ltr\">You should notify the Claims department immediately regarding an employee’s return to work in order to prevent an overpayment of benefits.</p>\n",
            "Categories": "Disability Claims-Employer Info"
        },
        {
            "title": "FAQ-25",
            "question": "<p dir=\"ltr\">If the employee returns to work after receiving benefits,&nbsp;then ceases work again for the same reason, must&nbsp;a new claim be filed?</p>\n",
            "answer": "<p dir=\"ltr\">In this situation, the employee will not need to re-satisfy the elimination period if the same illness or injury recurs within the recurrent period outlined in the policy.&nbsp; In this situation, the employee’s claim is a continuation of his/her previous claim and benefits may or may not be payable.&nbsp; If the maximum benefits were previously paid, the employee will not be eligible for further benefits under your disability policy.</p>\n\n<p dir=\"ltr\">A new disability claim elimination period would be required when:</p>\n\n<ul dir=\"ltr\">\n\t<li>The employee recovers from his/her disability, returns to work, and a new disabling sickness or injury occurs; or</li>\n\t<li>The same disabling sickness or injury recurs outside of the recurrent disability period outlined in your policy.</li>\n</ul>\n",
            "Categories": "Disability Claims-Employer Info"
        },
        {
            "title": "FAQ-26",
            "question": "<p dir=\"ltr\">What options does my employee have if his/her claim is denied?</p>\n",
            "answer": "<p dir=\"ltr\">If an appeal of the claim decision is desired, the employee (or their legal representative) must submit a written appeal to AUL within 180 days of the date of the denial letter.&nbsp;&nbsp;&nbsp;</p>\n\n<ul dir=\"ltr\">\n\t<li>The appeal letter should include written comments and any new information that was not previously submitted.</li>\n\t<li>Employers are permitted to submit additional comments and documents, but may not appeal the denial of a claim on behalf of the employee.</li>\n</ul>\n",
            "Categories": "Disability Claims-Employer Info"
        },
        {
            "title": "FAQ-32",
            "question": "<p dir=\"ltr\">What do I, as administrator of the group policyholder, do if a change needs to be made to the group policy?</p>\n",
            "answer": "<p dir=\"ltr\">A formal written request (on your company's letterhead by an authorized representative to make changes to the contact) should be sent to either your OneAmerica Account Manager or your Agent of Record. The change will not be in effect until approved by AUL.</p>\n",
            "Categories": "Admin of Benefits-Policy/Employee Changes"
        },
        {
            "title": "FAQ-33",
            "question": "<p dir=\"ltr\">What does an employee do for a name change?</p>\n",
            "answer": "<p dir=\"ltr\">The employee should complete the \"Change of Name\" section of the <a href=\"/wps/wcm/connect/eben/eben2/files/file-g-24000\" target=\"_blank\" >Employee Request for Change (G-24000)</a>&nbsp;CHANGE&nbsp;form. Also take into consideration that many times when there is a name change, there is also a beneficiary change.</p>\n",
            "Categories": "Admin of Benefits-Policy/Employee Changes"
        },
        {
            "title": "FAQ-34",
            "question": "<p dir=\"ltr\">When should salary changes be reported?</p>\n",
            "answer": "<p dir=\"ltr\">Please refer to your plan documents regarding the frequency of salary updates. Please contact the Group Contact Center with any questions.</p>\n",
            "Categories": "Admin of Benefits-Policy/Employee Changes"
        },
        {
            "title": "FAQ-35",
            "question": "<p dir=\"ltr\">How do I, as administrator of the group policyholder, request additional copies of certificates?</p>\n",
            "answer": "<p dir=\"ltr\">Plan certificates may be printed from the \"Benefit Pages\" section of the website.</p>\n",
            "Categories": "Admin of Benefits-Forms/Certificates"
        },
        {
            "title": "FAQ-11",
            "question": "<p dir=\"ltr\">When is a Summary payment considered late?</p>\n",
            "answer": "<p dir=\"ltr\">Summary Payments are considered late at the end of the coverage month.</p>\n",
            "Categories": "Billing and Payments-Summary Billing"
        },
        {
            "title": "eBen2 FAQ-12",
            "question": "<p dir=\"ltr\">What are policyholder and OneAmerica responsibilities under the List Billing option?</p>\n",
            "answer": "<p dir=\"ltr\">The <a href=\"/wps/wcm/connect/eben/eben2/files/list+bill+reference+guide\" target=\"_blank\" >List Bill Reference Guide</a> outlines policyholder and carrier responsibilities under the List Billing administrative option.</p>\n",
            "Categories": "Billing and Payments-Bill Types"
        },
        {
            "title": "eBen2 FAQ-13",
            "question": "<p dir=\"ltr\">What are policyholder and OneAmerica responsibilities under the Summary Billing option?</p>\n",
            "answer": "<p dir=\"ltr\">The <a href=\"/wps/wcm/connect/eben/eben2/files/summary+bill+reference+guide\" target=\"_blank\" >Summary Bill Reference Guide</a> outlines policyholder and carrier responsibilities under the Summary Billing administrative option.</p>\n",
            "Categories": "Billing and Payments-Bill Types"
        }
    ]
}
