{
  "questions" : [
    {
      "id" : "4",
      "type" : "yesNo",
      "question" : "4. Are you currently taking prescribed or non-prescribed medications or have you taken any in the last 12 months?",
      "subQuestions" : [
        {
          "id" : "4a",
          "type" : "medications"
        }
      ]
    },
    {
      "id" : "5",
      "type" : "yesNo",
      "question" : "5. Have you in the last 5 years had any illness, disease or injury not mentioned above?",
      "subQuestions" : [
        {
          "id" : "5a",
          "type" : "details"
        }
      ]
    },
    {
      "id" : "6",
      "type" : "yesNo",
      "question" : "6. Have you in the last 5 years been advised to have any diagnostic test, hospitalization or surgery which has not been completed?",
      "subQuestions" : [
        {
          "id" : "6a",
          "type" : "details"
        }
      ]
    },
    {
      "id" : "7",
      "type" : "yesNo",
      "question" : "7. Have you ever had life insurance declined, postponed, rated or had reinstatement refused?",
      "subQuestions" : [
        {
          "id" : "7a",
          "type" : "details"
        }
      ]
    },
    {
      "id" : "8",
      "type" : "yesNo",
      "question" : "8. Have you missed more than 5 consecutive days of active work, been unable to attend school or perform the normal activities of like age, or been confined at home in the past 6 months.",
      "subQuestions" : [
        {
          "id" : "8a",
          "type" : "details"
        }
      ]
    },
    {
      "id" : "9",
      "type" : "yesNo",
      "question" : "9. Have you ever received medical treatment or counseling for, or been advised by a member of the medical profession to discontinue the use of alcohol?",
      "subQuestions" : [
        {
          "id" : "9a",
          "type" : "details"
        }
      ]
    },
    {
      "id" : "10",
      "type" : "yesNo",
      "question" : "10. Have you ever received medical treatment or counseling for, or been advised by a member of the medical profession to discontinue the use of prescribed or non-prescribed drugs?",
      "subQuestions" : [
        {
          "id" : "10a",
          "type" : "details"
        }
      ]
    }
  ]
}
