{
  "id": 1,
  "personType": {
    "value": "Employee",
    "editable": false
  },
  "firstName": {
    "value": "William",
    "editable": true
  },
  "lastName": {
    "value": "Brown",
    "editable": true
  },
  "middleName": {
    "value": "Igor",
    "editable": true
  },
  "maritalStatus": {
    "value": "Married",
    "editable": true
  },
  "gender": {
    "value": "Male",
    "editable": true
  },
  "ssn": {
    "value": "846-32-6621",
    "editable": true
  },
  "birthDate": {
    "value": "03/02/1979",
    "editable": true
  },
  "addressLine1": {
    "value": "324 Real St",
    "editable": true
  },
  "city": {
    "value": "Shelbyville",
    "editable": true
  },
  "state": {
    "value": "IN",
    "editable": true
  },
  "zip": {
    "value": "46111",
    "editable": true
  },
  "phoneNumber": {
    "value": "317-223-4569",
    "editable": true
  },
  "phoneType": {
    "value": "Cell",
    "editable": true
  },
  "emailAddress": {
    "value": "willie_brown@company.com",
    "editable": true
  },
  "dependentEnrollment": [
    {
	  "personType" : {
        "value": "Spouse",
        "editable":false
      },
      "firstName": {
        "value": "Ashley",
        "editable":false
      },
      "lastName": {
        "value": "Brown",
        "editable":false
      },
      "middleName":{
        "value":"",
        "editable":false
      },
	  "emailAddress": {
	    "value": null,
	    "editable": false
      }
    }
  ]
}