{
  "id": 1,
  "personType": {
    "value": "Spouse",
    "editable": true
  },
  "firstName": {
    "value": "Ashley",
    "editable": true
  },
  "lastName": {
    "value": "Brown",
    "editable": true
  },
  "middleName": {
    "value": "Kalashnikov",
    "editable": true
  },
  "maritalStatus": {
    "value": "Married",
    "editable": true
  },
  "gender": {
    "value": "Female",
    "editable": true
  },
  "ssn": {
    "value": "847-33-6622",
    "editable": true
  },
  "birthDate": {
    "value": "12/07/1980",
    "editable": true
  },
  "heightFeet": {
    "value": "5",
    "editable": true
  },
  "heightInches": {
    "value": "4",
    "editable": true
  },
  "weight": {
    "value": "130",
    "editable": true
  },
  "nicotineUse": {
    "value": false,
    "editable": true
  },
  "addressLine1": {
    "value": "324 Real St",
    "editable": true
  },
  "city": {
    "value": "Shelbyville",
    "editable": true
  },
  "state": {
    "value": "IN",
    "editable": true
  },
  "zip": {
    "value": "46111",
    "editable": true
  },
  "phoneNumber": {
    "value": "317-223-4570",
    "editable": true
  },
  "phoneType": {
    "value": "Cell",
    "editable": true
  },
  "emailAddress": {
    "value": "ashley_brown@aol.com",
    "editable": true
  }
}
