{
  "id": 1,
  "personType": {
    "value": "Employee",
    "editable": true
  },
  "firstName": {
    "value": "Jane",
    "editable": true
  },
  "lastName": {
    "value": "Doe",
    "editable": true
  },
  "middleName": {
    "value": "",
    "editable": true
  },
  "maritalStatus": {
    "value": "Single",
    "editable": true
  },
  "gender": "<script>alert('xss')</script>",
  "ssn": {
    "value": "010-00-0001",
    "editable": true
  },
  "birthDate": {
    "value": "01/01/1960",
    "editable": true
  },
  "heightFeet": {
    "value": "5",
    "editable": true
  },
  "heightInches": {
    "value": "6",
    "editable": true
  },
  "weight": {
    "value": "230",
    "editable": true
  },
  "nicotineUse": {
    "value": true,
    "editable": true
  },
  "addressLine1": {
    "value": "123 Fake St",
    "editable": true
  },
  "city": {
    "value": "Indianapolis",
    "editable": true
  },
  "state": {
    "value": "IN",
    "editable": true
  },
  "zip": {
    "value": "46250-1234",
    "editable": true
  },
  "phoneNumber": {
    "value": "317-123-4567",
    "editable": true
  },
  "phoneType": {
    "value": "Cell",
    "editable": true
  },
  "emailAddress": {
    "value": "jane.doe@company.com",
    "editable": true
  },
  "occupation": {
    "value": "Analyst",
    "editable": true
  },
  "hireDate": {
    "value": "06/06/1995",
    "editable": false
  },
  "annualSalary": {
    "value": "120,000",
    "editable": false
  }  
}
