{
  "id": 1,
  "personType": {
    "value": "Employee",
    "editable": true
  },
  "firstName": {
    "value": "James",
    "editable": true
  },
  "lastName": {
    "value": "Smith",
    "editable": true
  },
  "middleName": {
    "value": "Quincy",
    "editable": true
  },
  "maritalStatus": {
    "value": "Married",
    "editable": true
  },
  "gender": {
    "value": null,
    "editable": true
  },
  "ssn": {
    "value": "020-00-0001",
    "editable": true
  },
  "birthDate": {
    "value": "02/01/1960",
    "editable": true
  },
  "heightFeet": {
    "value": "6",
    "editable": true
  },
  "heightInches": {
    "value": "2",
    "editable": true
  },
  "weight": {
    "value": "220",
    "editable": true
  },
  "nicotineUse": {
    "value": false,
    "editable": true
  },
  "addressLine1": {
    "value": "321 Real St",
    "editable": true
  },
  "city": {
    "value": "Shelbyville",
    "editable": true
  },
  "state": {
    "value": "IN",
    "editable": true
  },
  "zip": {
    "value": "46111",
    "editable": true
  },
  "phoneNumber": {
    "value": "317-223-4568",
    "editable": true
  },
  "phoneType": {
    "value": "Home",
    "editable": true
  },
  "emailAddress": {
    "value": "james.smith@company.com",
    "editable": true
  },
  "occupation": {
    "value": "Analyst",
    "editable": true
  },
  "hireDate": {
    "value": "06/02/1994",
    "editable": false
  },
  "annualSalary": {
    "value": "125,000",
    "editable": false
  },
  "dependentEnrollment": [
    {
      "personType" : {
        "value": "Spouse",
        "editable":false
      },
      "firstName": {
        "value": "Mary",
        "editable":false
      },
      "lastName": {
        "value": "Smith",
        "editable":false
      },
      "middleName":{
        "value":"",
        "editable":false
      },
      "emailAddress": {
        "value": "mary4321@aol.com",
        "editable": false
      }
    }
  ]
}