{
  "id": 1,
  "personType": {
    "value": "Spouse",
    "editable": true
  },
  "firstName": {
    "value": "Mary",
    "editable": true
  },
  "lastName": {
    "value": "Smith",
    "editable": true
  },
  "middleName": {
    "value": "Cornelia",
    "editable": true
  },
  "maritalStatus": {
    "value": "Married",
    "editable": true
  },
  "gender": {
    "value": "Female",
    "editable": true
  },
  "ssn": {
    "value": "020-00-0002",
    "editable": true
  },
  "birthDate": {
    "value": "02/02/1970",
    "editable": true
  },
  "heightFeet": {
    "value": "5",
    "editable": true
  },
  "heightInches": {
    "value": "7",
    "editable": true
  },
  "weight": {
    "value": "120",
    "editable": true
  },
  "nicotineUse": {
    "value": true,
    "editable": true
  },
  "addressLine1": {
    "value": "321 Real St",
    "editable": true
  },
  "city": {
    "value": "Shelbyville",
    "editable": true
  },
  "state": {
    "value": "IN",
    "editable": true
  },
  "zip": {
    "value": "46111",
    "editable": true
  },
  "phoneNumber": {
    "value": "317-223-4569",
    "editable": true
  },
  "phoneType": {
    "value": "Cell",
    "editable": true
  },
  "emailAddress": {
    "value": "mary.smith4321@aol.com",
    "editable": true
  },
  "occupation": {
    "value": "Construction Worker",
    "editable": true
  },
  "hireDate": {
    "value": "08/02/2004",
    "editable": false
  },
  "annualSalary": {
    "value": "35,000",
    "editable": false
  }
}
