{
  "id":1,
  "personType":{
    "value":"Employee",
    "editable":true
  },
  "firstName":{
    "value":"Jon",
    "editable":true
  },
  "lastName":{
    "value":"Jones",
    "editable":true
  },
  "middleName":{
    "value":"",
    "editable":true
  },
  "maritalStatus":{
    "value":"Married",
    "editable":true
  },
  "gender":{
    "value":"Male",
    "editable":true
  },
  "ssn":{
    "value":"123-45-6789",
    "editable":true
  },
  "birthDate":{
    "value":"02/01/1960",
    "editable":true
  },
  "heightFeet":{
    "value":"6",
    "editable":true
  },
  "heightInches":{
    "value":"2",
    "editable":true
  },
  "weight":{
    "value":"220",
    "editable":true
  },
  "nicotineUse":{
    "value":true,
    "editable":true
  },
  "addressLine1":{
    "value":"322 Real St",
    "editable":true
  },
  "city":{
    "value":"Shelbyville",
    "editable":true
  },
  "state":{
    "value":"IN",
    "editable":true
  },
  "zip":{
    "value":"46111",
    "editable":true
  },
  "phoneNumber":{
    "value":"317-223-3222",
    "editable":true
  },
  "phoneType":{
    "value":"Cell",
    "editable":true
  },
  "emailAddress":{
    "value":"Jon.Jones@test.com",
    "editable":true
  },
  "occupation":{
    "value":"Test Data",
    "editable":true
  },
  "hireDate":{
    "value":"07/22/2016",
    "editable":false
  },
  "annualSalary":{
    "value":"10,000",
    "editable":false
  },
  "dependentEnrollment":[
    {
      "personType" : {
        "value": "Spouse",
        "editable":false
      },
      "firstName": {
        "value": "Emily",
        "editable":false
      },
      "lastName": {
        "value": "Jones",
        "editable":false
      },
      "middleName":{
        "value":"",
        "editable":false
      },
      "emailAddress":{
        "value":"emily-jones@aol.com",
        "editable":true
      }
    }
  ]
}