{
  "id": 1,
  "personType": {
    "value": "Spouse",
    "editable": true
  },
  "firstName": {
    "value": "Emily",
    "editable": true
  },
  "lastName": {
    "value": "Jones",
    "editable": true
  },
  "middleName": {
    "value": "Hildagard",
    "editable": true
  },
  "maritalStatus": {
    "value": "Married",
    "editable": true
  },
  "gender": {
    "value": "Female",
    "editable": true
  },
  "ssn": {
    "value": "873-65-0192",
    "editable": true
  },
  "birthDate": {
    "value": "03/13/1988",
    "editable": true
  },
  "heightFeet": {
    "value": "6",
    "editable": true
  },
  "heightInches": {
    "value": "2",
    "editable": true
  },
  "weight": {
    "value": "170",
    "editable": true
  },
  "nicotineUse": {
    "value": true,
    "editable": true
  },
  "addressLine1": {
    "value": "322 Real St",
    "editable": true
  },
  "city": {
    "value": "Shelbyville",
    "editable": true
  },
  "state": {
    "value": "IN",
    "editable": true
  },
  "zip": {
    "value": "46111",
    "editable": true
  },
  "phoneNumber": {
    "value": "317-223-4519",
    "editable": true
  },
  "phoneType": {
    "value": "Cell",
    "editable": true
  },
  "emailAddress": {
    "value": "emily.jones1222@aol.com",
    "editable": true
  },
  "occupation": {
    "value": "Test Data",
    "editable": true
  },
  "hireDate": {
    "value": "07/22/2016",
    "editable": false
  },
  "annualSalary": {
    "value": "20,000",
    "editable": false
  }
}
