{
  "id":1,
  "personType":{
    "value":"Employee",
    "editable":true
  },
  "firstName":{
    "value":"Robert",
    "editable":true
  },
  "lastName":{
    "value":"Johnson",
    "editable":true
  },
  "middleName":{
    "value":"Capablanca",
    "editable":true
  },
  "maritalStatus":{
    "value":"Single",
    "editable":true
  },
  "gender":{
    "value":"Male",
    "editable":true
  },
  "ssn":{
    "value":"328-47-6633",
    "editable":true
  },
  "birthDate":{
    "value":"03/10/1970",
    "editable":true
  },
  "heightFeet":{
    "value":null,
    "editable":true
  },
  "heightInches":{
    "value":null,
    "editable":true
  },
  "weight":{
    "value":null,
    "editable":true
  },
  "nicotineUse":{
    "value":null,
    "editable":true
  },
  "addressLine1":{
    "value":"323 Real St",
    "editable":true
  },
  "city":{
    "value":"Shelbyville",
    "editable":true
  },
  "state":{
    "value":"IN",
    "editable":true
  },
  "zip":{
    "value":"46111",
    "editable":true
  },
  "phoneNumber":{
    "value":"317-223-3443",
    "editable":true
  },
  "phoneType":{
    "value":"Cell",
    "editable":true
  },
  "emailAddress":{
    "value":"robertjohnson@test.com",
    "editable":true
  },
  "occupation":{
    "value":"Tester",
    "editable":true
  },
  "hireDate":{
    "value":"08/01/2000",
    "editable":true
  },
  "annualSalary":{
    "value":"200,000",
    "editable":true
  },
  "dependentEnrollment":[
    {
	  "personType" : "Spouse",
      "firstName": "Linda",
	  "middleName": "Nancy",
      "lastName": "Johnson",
      "emailAddress":{
        "value":"lindajohnson@aol.com",
        "editable":true
      }
    }
  ]
}