{
  "account" : {
    "excludedPolicyPlan" : false,
    "adminSystemId" : "OMNI",
    "affiliate" : "AUL",
    "divisionId" : "PEN",
    "name" : "LAKE HOSPITAL SYSTEM, INC. 403(B) RETIREMENT SAVINGS PLAN",
    "number" : "G74645",
    "homePlan" : false,
    "retirement" : true,
    "individual" : false,
    "accountAnnuity" : false,
    "accountAnnuityCare" : false,
    "accountAssetCare" : false,
    "accountFDIA" : false,
    "accountFixedAnnuity" : false,
    "accountHealth" : false,
    "accountIndexAnnuity" : false,
    "accountISL" : false,
    "accountProceedsAnnuity" : false,
    "accountRA" : false,
    "accountSPFA" : false,
    "accountSPVUL" : false,
    "accountTerm" : false,
    "accountTraditional" : false,
    "accountUL" : false,
    "accountUniversal" : false,
    "accountVariableUniversal" : false,
    "accountVariableAnnuity" : false,
    "accountWholeLife" : false
  },
  "items" : [ {
    "accountTransferStatus" : {
      "hasPartPendingXfer" : false,
      "hasPartPendingRecurringXfer" : false,
      "hasRebPending" : false,
      "hasDeferralPending" : true,
      "allowDollarXferStatus" : true,
      "allowDollarXferReason" : null,
      "allowPercentXferStatus" : true,
      "allowPercentXferReason" : null,
      "allowDcaXferStatus" : true,
      "allowDcaXferReason" : null,
      "allowIntSweepXferStatus" : true,
      "allowIntSweepXferReason" : null,
      "allowAutoRebalXferStatus" : true,
      "allowAutoRebalXferReason" : null,
      "allowOneTimeTransferStatus" : false,
      "allowOneTimePartTransferStatus" : true,
      "allowOneTimePartTransferReason" : null
    }
  } ],
  "count" : 1,
  "errors" : null,
  "errorCount" : 0
}
