{
 "account" : {
   "excludedPolicyPlan" : false,
   "adminSystemId" : "OMNI",
   "affiliate" : "AUL",
   "divisionId" : "PEN",
   "name" : "RIA AND ADVICE PLUS 401(K) PLAN",
   "number" : "O36930",
   "homePlan" : false,
   "retirement" : true,
   "individual" : false,
   "accountAnnuity" : false,
   "accountAnnuityCare" : false,
   "accountAssetCare" : false,
   "accountFDIA" : false,
   "accountFixedAnnuity" : false,
   "accountHealth" : false,
   "accountIndexAnnuity" : false,
   "accountISL" : false,
   "accountProceedsAnnuity" : false,
   "accountRA" : false,
   "accountSPFA" : false,
   "accountSPVUL" : false,
   "accountTerm" : false,
   "accountTraditional" : false,
   "accountUL" : false,
   "accountUniversal" : false,
   "accountVariableUniversal" : false,
   "accountVariableAnnuity" : false,
   "accountWholeLife" : false
 },
 "items" : [ {
   "accountTransferStatus" : {
     "allowDollarXferStatus" : false,
     "allowDollarXferReason" : "foo",
     "allowPercentXferStatus" : false,
     "allowPercentXferReason" : null,
     "hasPartPendingXfer" : false,
     "hasPartPendingRecurringXfer" : false,
     "hasRebPending" : false,
     "allowDcaXferStatus" : false,
     "allowDcaXferReason" : null,
     "allowIntSweepXferStatus" : false,
     "allowIntSweepXferReason" : null,
     "allowAutoRebalXferStatus" : false,
     "allowAutoRebalXferReason" : null,
     "allowOneTimeTransferStatus" : false,
     "allowOneTimePartTransferStatus" : false,
     "allowOneTimePartTransferReason" : null
   }
 } ],
 "count" : 1,
 "errors" : null,
 "errorCount" : 0
}
