{
    "account":    {
        "excludedPolicyPlan": false,
        "adminSystemId":      "OMNI",
        "affiliate":          "AUL",
        "divisionId":         "PEN",
        "name":               "LAKE HOSPITAL SYSTEM - SUPRIYA 403(B) RETIREMENT SAVINGS PLAN",
        "number":             "P74645",
        "homePlan":           false
    },
    "items":      [
        {
            "accountTransferStatus" : {
                "allowDollarXferStatus" : true,
                "allowDollarXferReason" : null,
                "allowPercentXferStatus" : true,
                "allowPercentXferReason" : null,
                "allowDcaXferStatus" : true,
                "allowDcaXferReason" : null,
                "allowIntSweepXferStatus" : false,
                "allowIntSweepXferReason" : null,
                "allowAutoRebalXferStatus" : true,
                "allowAutoRebalXferReason" : null
            }
        }
    ],
    "count":      1,
    "errors":     null,
    "errorCount": 0
}
