{
    "items": null,
    "errors": [
        {
            "field": "updates[0].terminationDate",
            "code": "Specified value is not a valid date/time."
        }
		  
    ],
    "count": 0,
    "errorCount": 1
}
