[ {
  "reason" : "Address incorrect"
}, {
  "reason" : "Check damaged"
}, {
  "reason" : "Check not due payee"
}, {
  "reason" : "Check returned"
}, {
  "reason" : "Ck not rec'd - reissue"
}, {
  "reason" : "Payee deceased"
}, {
  "reason" : "Stale date - no response"
}, {
  "reason" : "Stale date - reissue"
}, {
  "reason" : "Test Add Record"
}, {
  "reason" : "Unable to locate payee"
},
 {
  "reason" : "Other"
} 
]