{
  "questions" : [
    {
      "id" : "1",
      "type" : "radio",
      "question" : "1. Have you ever been diagnosed by a member of the medical profession as having or tested positive for Human Immunodeficiency Virus (AIDS virus) or Acquired Immune Deficiency Syndrome (AIDS)?"
    },
    {
      "id" : "2",
      "type" : "responseless",
      "question" : "2. Within the last 7 years have you been diagnosed by a member of the medical profession as having, or been treated for:",
      "subQuestions" : [
        {
          "id" : "1a",
          "type" : "radio",
          "question" : "a. Mental or Nervous Disorder (Excluding Anxiety / Mild Depression)"
        },
        {
          "id" : "1b",
          "type" : "radio",
          "question" : "b. Cancer (Excluding Basal Cell Carcinoma)"
        },
        {
          "id" : "1c",
          "type" : "radio",
          "question" : "c. Cardiomyopathy"
        },
        {
          "id" : "1d",
          "type" : "radio",
          "question" : "d. Cirrhosis"
        },
        {
          "id" : "1e",
          "type" : "radio",
          "question" : "e. Clotting Disorder"
        },
        {
          "id" : "1f",
          "type" : "radio",
          "question" : "f. COPD (Chronic Obstructive Pulminary Disease) / Emphysema"
        },
        {
          "id" : "1g",
          "type" : "radio",
          "question" : "g. Chron's Disease / Ulcerative Colitis"
        },
        {
          "id" : "1h",
          "type" : "radio",
          "question" : "h. Diabetes, Type 1 (Insulin Dependent)"
        },
        {
          "id" : "1i",
          "type" : "radio",
          "question" : "i. Heart Attack"
        },
        {
          "id" : "1j",
          "type" : "radio",
          "question" : "j. Heart Disease, including with surgery (Stent/Bypass)"
        },
        {
          "id" : "1k",
          "type" : "radio",
          "question" : "k. Hepatitis"
        },
        {
          "id" : "1l",
          "type" : "radio",
          "question" : "l. Lupus"
        },
        {
          "id" : "1m",
          "type" : "radio",
          "question" : "m. Heart Disease/murmur"
        },
        {
          "id" : "1n",
          "type" : "radio",
          "question" : "n. Mental or Nervous Disorder"
        },
        {
          "id" : "1o",
          "type" : "radio",
          "question" : "o. Organ Transplant"
        },
        {
          "id" : "1p",
          "type" : "radio",
          "question" : "p. Pancreatitis"
        },
        {
          "id" : "1q",
          "type" : "radio",
          "question" : "q. Paralysis"
        },
        {
          "id" : "1r",
          "type" : "radio",
          "question" : "r. Parkinson's"
        },
        {
          "id" : "1s",
          "type" : "radio",
          "question" : "s. PVD (Peripheral Vascular Disease)"
        },
        {
          "id" : "1t",
          "type" : "radio",
          "question" : "t. Seizures / Epilepsy"
        },
        {
          "id" : "1u",
          "type" : "radio",
          "question" : "u. Stroke"
        }
      ]
    }
  ]
}
