{
    "account": null,
    "items": [
        {
            "errorCode": null,
            "errorDescription": null,
            "confirmationNumber": "20140428.R813O36930162943530"
        }
    ],
    "count": 1,
    "errors": null,
    "errorCount": 0
}
