{
    "account" : null,
    "items" : [ {
        "errorCode" : null,
        "errorDescription" : null,
        "deferralDetails" : [ {
            "sourceTaxType" : null,
            "sourceId" : "A",
            "sourceDescription" : "401(K) DEFERRAL",
            "amount" : 6.0,
            "deferralAmountType" : "PERCENTAGE",
            "deferralSourceType" : "NORMAL",
            "deferralAction" : "ENROLLMENT",
            "eligibilityDate" : "10/01/2015",
            "tradeDate" : "10/01/2015",
            "deferralAmountTypes" : [ ]
        }, {
            "sourceTaxType" : null,
            "sourceId" : "M",
            "sourceDescription" : "ROTH DEFERRAL",
            "amount" : 6.0,
            "deferralAmountType" : "PERCENTAGE",
            "deferralSourceType" : "NORMAL",
            "deferralAction" : "ENROLLMENT",
            "eligibilityDate" : "10/01/2015",
            "tradeDate" : "10/01/2015",
            "deferralAmountTypes" : [ ]
        } ],
        "confirmationNumber" : "2015.06111256"
    } ],
    "count" : 1,
    "errors" : null,
    "errorCount" : 0
}
