{
    "employeeName":"Jane Doe",
    "groupName":"SEP",
    "groupNumber":"G 123-456-7890",
    "statusItems":[
    {
        "personType":"Employee",
        "statusCode":"Pending",
        "progressCode":"Results",
        "firstName":"Jane",
        "lastName":"Doe",
        "reason":"None",
        "coverage" : [
        {
			"id":1,
			"coverageDescription":"Employee Life",
			"currentCoverageAmount":250000,
			"electedCoverageAmount":525000,
			"decision":"Approved",
			"reason":"Auto"
        }
        ]
    }
    ]
}
