{
    "employeeName":"William Brown",
    "groupName":"SEP",
    "groupNumber":"G 123-456-7890",
    "statusItems":[
    {
        "personType":"Employee",
        "statusCode":"Pending",
        "progressCode":"Questionnaire",
        "firstName":"William",
        "lastName":"Brown",
        "reason":"Not Required"
    },
    {
        "personType":"Spouse",
        "statusCode":"Pending",
        "progressCode":"Questionnaire",
        "firstName":"Ashley",
        "lastName":"Brown",
        "reason":"Not Required",
        "coverage":[
        {
        "coverageDescription":"Spouse Life",
        "currentCoverageAmount":25000,
        "electedCoverageAmount":50000,
        "decision":"In Progress",
        "reason":"Auto"
        }
        ]
    }
    ]
}
