{
    "employeeName":"William Brown",
    "groupName":"SEP",
    "groupNumber":"G 123-456-7890",
    "statusItems":[
    {
        "personType":"Spouse",
        "statusCode":"Void",
        "progressCode":"CoverageReview",
        "firstName":"Ashley",
        "lastName":"Brown",
        "reason":"Referred",
        "coverage":[
        {
        "coverageDescription":"Spouse Life",
        "currentCoverageAmount":25000,
        "electedCoverageAmount":50000,
        "decision":"Referred",
        "reason":"Auto"
        }
        ]
    }
    ]
}
