{
    "employeeName":"William Brown",
    "groupName":"SEP",
    "groupNumber":"G 123-456-7890",
    "statusItems":[
    {
        "personType":"Employee",
        "statusCode":"Completed",
        "progressCode":"Results",
        "firstName":"William",
        "lastName":"Brown",
        "reason":"Not Required"
    },
    {
        "personType":"Spouse",
        "statusCode":"Not Started",
        "progressCode":"Results",
        "firstName":"Ashley",
        "lastName":"Brown",
        "reason":"None",
        "coverage":[
        {
			"coverageDescription":"Spouse Life",
			"currentCoverageAmount":25000,
			"electedCoverageAmount":50000,
			"decision":"None",
			"reason":"Auto"
        }
        ]
    }
    ]
}
