{
    "employeeName":"Jane Doe",
    "groupName":"SEP",
    "groupNumber":"G 123-456-7890",
    "statusItems":[
    {
        "personType":"Employee",
        "statusCode":"Void",
        "progressCode":"CoverageReview",
        "firstName":"Jane",
        "lastName":"Doe",
        "reason":"Not Required",
        "coverage" : [
        {
        "id":1,
        "coverageDescription":"Employee Life",
        "currentCoverageAmount":250000,
        "electedCoverageAmount":525000,
        "decision":"Declined",
        "reason":"Not Required"
        }
        ]
    }
    ]
}
