{
    "employeeName":"James Smith",
    "groupName":"SEP",
    "groupNumber":"G 123-456-7890",
    "statusItems":[
    {
        "personType":"Employee",
        "statusCode":"Pending",
        "progressCode":"Results",
        "firstName":"James",
        "lastName":"Smith",
        "reason":"Referred",
        "coverage" : [
        {
			"id":1,
			"coverageDescription":"Employee Life",
			"currentCoverageAmount":200000,
			"electedCoverageAmount":400000,
			"decision":"Referred",
			"reason":"Auto"
        }
        ]
    },
    {
        "personType":"Spouse",
        "statusCode":"Pending",
        "progressCode":"Results",
        "firstName":"Mary",
        "lastName":"Smith",
        "coverage" : [
        {
			"id":2,
			"coverageDescription":"Spouse Life",
			"currentCoverageAmount":25000,
			"electedCoverageAmount":50000,
			"decision":"Approved",
			"reason":"Auto"
        }
        ]
    }
    ]
}
