{
    "employeeName":"James Smith",
    "groupName":"SEP",
    "groupNumber":"G 123-456-7890",
    "statusItems":[
    {
        "personType":"Spouse",
        "statusCode":"Void",
        "progressCode":"Signing",
        "firstName":"Mary",
        "lastName":"Smith",
        "reason":"Expired",
        "coverage" : [
        {
        "id":1,
        "coverageDescription":"Spouse Life",
        "currentCoverageAmount":25000,
        "electedCoverageAmount":50000,
        "decision":"None",
        "reason":"Auto"
        }
        ]
    }
    ]
}
