{
    "employeeName":"Jon Jones",
    "groupName":"SEP",
    "groupNumber":"G 123-456-7890",
    "statusItems":[
    {
        "personType":"Employee",
        "statusCode":"Pending",
        "progressCode":"Results",
        "firstName":"Jon",
        "lastName":"Jones",
        "reason":"None",
        "coverage" : [
        {
			"id":1,
			"coverageDescription":"Employee Life",
			"currentCoverageAmount":300000,
			"electedCoverageAmount":600000,
			"decision":"Approved",
			"reason":"Auto"
        }
        ]
    },
    {
        "personType":"Spouse",
        "statusCode":"Pending",
        "progressCode":"Results",
        "firstName":"Emily",
        "lastName":"Jones",
        "reason":"Auto",
        "coverage" : [
        {
			"id":2,
			"coverageDescription":"Spouse Life",
			"currentCoverageAmount":30000,
			"electedCoverageAmount":60000,
			"decision":"In Progress",
			"reason":"Auto"
        },
        {
        "id":3,
        "coverageDescription":"Spouse Life",
        "currentCoverageAmount":35000,
        "electedCoverageAmount":55000,
        "decision":"In Progress",
        "reason":"Auto"
        }
        ]
    }
    ]
}
