{
    "employeeName":"Jon Jones",
    "groupName":"SEP",
    "groupNumber":"G 123-456-7890",
    "statusItems":[
    {
        "personType":"Spouse",
        "statusCode":"Void",
        "progressCode":"CoverageReview",
        "firstName":"Emily",
        "lastName":"Jones",
        "reason":"None",
        "coverage" : [
        {
        "id":2,
        "coverageDescription":"Spouse Life",
        "currentCoverageAmount":30000,
        "electedCoverageAmount":60000,
        "decision":"None",
        "reason":"Auto"
        },
        {
        "id":3,
        "coverageDescription":"Spouse Life",
        "currentCoverageAmount":35000,
        "electedCoverageAmount":55000,
        "decision":"None",
        "reason":"Auto"
        }
        ]
    }
    ]
}
