{
  "account" : {
    "excludedPolicyPlan" : false,
    "adminSystemId" : "OMNI",
    "affiliate" : "AUL",
    "divisionId" : "PEN",
    "name" : "MOM365, INC. PROFIT SHARING RETIREMENT PLAN",
    "number" : "S100166",
    "type" : "0",
    "homePlan" : false,
    "retirement" : true,
    "individual" : false
  },
  "items" : [ {
    "hasFrozen" : false,
    "hasMoneyMarket" : false,
    "hasFixedFund" : false,
    "fixedAccountSection" : null,
    "fundPerformanceTables" : [ {
      "tableType" : "01",
      "tableTitle" : "Annualized Performance by Fund Inception Date",
      "isAnnualized" : true,
      "isStandardized" : false,
      "registeredPlan" : false,
      "fundPerformances" : [ {
        "inceptionDate" : "1992-10-01",
        "lastCalcDate" : "2015-02-28",
        "oneYearPerformance" : 0.0,
        "threeYearPerformance" : -3.03,
        "fiveYearPerformance" : 0.0,
        "tenYearPerformance" : 0.0,
        "moneyMarketYield" : 0.0,
        "expRatio" : 0.99,
        "superscript" : [ "1" ],
        "type" : 0,
        "subType" : 0,
        "assetClass" : 2,
        "invStyleId" : 0,
        "assetClassSeq" : 2,
        "invStyleIdSeq" : 3,
        "assetClassName" : "Short-Term Bonds",
        "fundId" : null,
        "fundShortName" : "TLTI",
        "fundPdfName" : "https://www1.ft.oneamerica.com/account_services/pdfs/fundDescription/R-17672.pdf",
        "fundName" : "Thornburg Ltd-Term Inc R3",
        "invStyleName" : "Short Term Bond",
        "positiveBalance" : false,
        "grossExpenseRatio" : 1.12,
        "expenseWaiverExpireDateVerbiage" : "02/01/2016",
        "moneyMarket" : false,
        "percentageTotalValue" : 0.0,
        "oneYearIsNull" : false,
        "threeYearIsNull" : false,
        "fiveYearIsNull" : true,
        "tenYearIsNull" : true,
        "investmentDisclosureURL" : "https://www.ftwcm.oneamerica.com/wps/wcm/connect/rs/Account+Services/Account+Balance/Morningstar+Disclosure?presentationtemplate=Launch%20Download%20In%20Same%20Window",
        "ytdperformance" : 0.7,
        "ytdisNull" : false
      }, {
        "inceptionDate" : "1995-01-10",
        "lastCalcDate" : "2015-02-28",
        "oneYearPerformance" : -6.13,
        "threeYearPerformance" : 4.55,
        "fiveYearPerformance" : 6.13,
        "tenYearPerformance" : -6.04,
        "moneyMarketYield" : 0.0,
        "expRatio" : 0.83,
        "superscript" : [ ],
        "type" : 0,
        "subType" : 0,
        "assetClass" : 3,
        "invStyleId" : 0,
        "assetClassSeq" : 3,
        "invStyleIdSeq" : 7,
        "assetClassName" : "Intermediate-Term Bonds",
        "fundId" : null,
        "fundShortName" : "PBAA",
        "fundPdfName" : "https://www1.ft.oneamerica.com/account_services/pdfs/fundDescription/R-22304.pdf",
        "fundName" : "Prudential Total Return Bond A",
        "invStyleName" : "Int Term Bond",
        "positiveBalance" : false,
        "grossExpenseRatio" : 0.88,
        "expenseWaiverExpireDateVerbiage" : "02/29/2016",
        "moneyMarket" : false,
        "percentageTotalValue" : 0.0,
        "oneYearIsNull" : false,
        "threeYearIsNull" : false,
        "fiveYearIsNull" : false,
        "tenYearIsNull" : false,
        "investmentDisclosureURL" : "https://www.ftwcm.oneamerica.com/wps/wcm/connect/rs/Account+Services/Account+Balance/Morningstar+Disclosure?presentationtemplate=Launch%20Download%20In%20Same%20Window",
        "ytdperformance" : 1.66,
        "ytdisNull" : false
      }, {
        "inceptionDate" : "1990-01-22",
        "lastCalcDate" : "2015-02-28",
        "oneYearPerformance" : 2.6,
        "threeYearPerformance" : 6.92,
        "fiveYearPerformance" : -8.79,
        "tenYearPerformance" : 7.57,
        "moneyMarketYield" : 0.0,
        "expRatio" : 0.82,
        "superscript" : [ "1", "2" ],
        "type" : 0,
        "subType" : 0,
        "assetClass" : 4,
        "invStyleId" : 0,
        "assetClassSeq" : 4,
        "invStyleIdSeq" : 9,
        "assetClassName" : "High Yield Bonds",
        "fundId" : null,
        "fundShortName" : "PAAA",
        "fundPdfName" : "https://www1.ft.oneamerica.com/account_services/pdfs/fundDescription/R-22300.pdf",
        "fundName" : "Prudential High-Yield A",
        "invStyleName" : "High Yield Bond",
        "positiveBalance" : false,
        "grossExpenseRatio" : 0.82,
        "expenseWaiverExpireDateVerbiage" : "Voluntary",
        "moneyMarket" : false,
        "percentageTotalValue" : 0.0,
        "oneYearIsNull" : false,
        "threeYearIsNull" : false,
        "fiveYearIsNull" : false,
        "tenYearIsNull" : false,
        "investmentDisclosureURL" : "https://www.ftwcm.oneamerica.com/wps/wcm/connect/rs/Account+Services/Account+Balance/Morningstar+Disclosure?presentationtemplate=Launch%20Download%20In%20Same%20Window",
        "ytdperformance" : 2.66,
        "ytdisNull" : false
      } ],
      "lastCalcDate" : "2015-02-28"
    } ],
    "disclaimers" : [ {
      "superscript" : "0",
      "disclaimerText" : "Variable products are sold by prospectus. Both the product prospectus and underlying fund prospectuses can be accessed at <a href='http://www.oneamerica.com/prospectuses'>http://www.oneamerica.com/prospectuses</a>.",
      "section" : "Annualized Performance",
      "boldIndicator" : true,
      "renderSuperscript" : false,
      "investment" : false,
      "assetClass" : false,
      "investmentOrAssetClass" : false,
      "aul" : false
    }, {
      "superscript" : "0",
      "disclaimerText" : "Returns are historical and past performance does not guarantee future results. Current performance may be lower or higher than the performance quoted. The investment return and principal value of the investment accounts will fluctuate, thus a participant's units may be worth more or less than their  original cost when redeemed.",
      "section" : "Annualized Performance",
      "boldIndicator" : false,
      "renderSuperscript" : false,
      "investment" : false,
      "assetClass" : false,
      "investmentOrAssetClass" : false,
      "aul" : false
    }, {
      "superscript" : "0",
      "disclaimerText" : "Any performance reported before AUL first offered an investment account is hypothetical and was calculated by adjusting the underlying fund's performance by current applicable contract charges.",
      "section" : "General Notes",
      "boldIndicator" : false,
      "renderSuperscript" : false,
      "investment" : false,
      "assetClass" : false,
      "investmentOrAssetClass" : false,
      "aul" : false
    }, {
      "superscript" : "0",
      "disclaimerText" : "Unit values given in this statement are based on net asset values provided by the funds and are not independently verified by AUL. If AUL receives inaccurate information, the unit value may be affected accordingly. If an error is subsequently discovered by any fund and reported to AUL, a participant's account will be recalculated to reflect the correct fund value, provided that the error was material under federal securities laws.",
      "section" : "General Notes",
      "boldIndicator" : false,
      "renderSuperscript" : false,
      "investment" : false,
      "assetClass" : false,
      "investmentOrAssetClass" : false,
      "aul" : false
    }, {
      "superscript" : "1",
      "disclaimerText" : "Bond funds have the same interest rate, inflation and credit risks associated with the individual securities owned by the fund.",
      "section" : "Asset Class",
      "boldIndicator" : false,
      "renderSuperscript" : true,
      "investment" : false,
      "assetClass" : true,
      "investmentOrAssetClass" : true,
      "aul" : false
    }, {
      "superscript" : "2",
      "disclaimerText" : "An investment in high yield securities may be subject to more credit risks and greater defaults than higher quality securities.",
      "section" : "Asset Class",
      "boldIndicator" : false,
      "renderSuperscript" : true,
      "investment" : false,
      "assetClass" : true,
      "investmentOrAssetClass" : true,
      "aul" : false
    } ]
  } ],
  "count" : 1,
  "errors" : null,
  "errorCount" : 0
}