{
  "questions" : [
    {
      "id" : "1",
      "type" : "yesNo",
      "question" : "1. Have you ever eaten at Taco Bell?"
    },
    {
      "id" : "2",
      "type" : "responseless",
      "question" : "2. Within the last 7 years have you:",
      "subQuestions" : [
        {
          "id" : "2a",
          "type" : "yesNo",
          "question" : "a. Been diagnosed with a life threatening illness"
        },
        {
          "id" : "2b",
          "type" : "yesNo",
          "question" : "b. Faked your own death to claim a life insurance benefit"
        },
        {
          "id" : "2c",
          "type" : "yesNo",
          "question" : "c. Injested raioactive materials"
        },
        {
          "id" : "2d",
          "type" : "yesNo",
          "question" : "d. Served a prison sentence"
        },
        {
          "id" : "2e",
          "type" : "yesNo",
          "question" : "e. Filed bankruptcy"
        }
      ]
    }
  ]
}
