{
    "producer": {
        "id": 144586,
        "fullName": "JEFFREY R SEMLER  "
    },
    "lastRefreshDate": "2016-11-03T10:00:00.000",
    "error": null,
    "draw": null,
    "recordsTotal": 60,
    "recordsFiltered": 60,
    "dataSrc": "data",
    "data": [
        {
            "policyId": 7709525,
            "customer": {
                "lexicalName": "DAWES, MARGARET",
                "customerId": 25834594
            },
            "dateOfBirth": "1944-05-05",
            "relationship": "Owner",
            "policyNumber": "5200044280",
            "productName": "Continuation Of Benefit",
            "servicingProducer": {
                "lexicalName": "SMITH, WILLIAM"
            },
            "pendingRequirementCount": 0,
            "policyStatus": {
                "status": "Issued",
                "statusDetail": "Premium paying",
                "description": "Unknown"
            }
        },
        {
            "policyId": 7714495,
            "customer": {
                "lexicalName": "COOPER GRIFFITH, CAROLYN",
                "customerId": 25193410
            },
            "dateOfBirth": "1959-04-28",
            "relationship": "Owner",
            "policyNumber": "5200146690",
            "productName": "Continuation Of Benefit",
            "servicingProducer": {
                "lexicalName": "TISDALE, BRADLEY"
            },
            "pendingRequirementCount": 0,
            "policyStatus": {
                "status": "Issued",
                "statusDetail": "Premium paying"
            }
        },
        {
            "policyId": 7725131,
            "customer": {
                "lexicalName": "CLANCY, JEAN",
                "customerId": 22453017
            },
            "dateOfBirth": "1945-05-13",
            "relationship": "Owner",
            "caseId": "2012-04-10-12.10.07.902001",
            "policyNumber": "5200261680",
            "productName": "Continuation Of Benefit",
            "application": {
                "received": "2012-04-10",
                "paid": "2017-12-19"
            },
            "servicingProducer": {
                "lexicalName": "TISDALE, BRADLEY"
            },
            "pendingRequirementCount": 0,
            "policyStatus": {
                "status": "Issued",
                "statusDetail": "Premium paying",
                "workflowStatus": "In Process",
                "description": "In Process"
            }
        },
        {
            "policyId": 7740425,
            "customer": {
                "lexicalName": "DAWES, MARGARET",
                "customerId": 25834594
            },
            "dateOfBirth": "1944-05-05",
            "relationship": "Owner",
            "policyNumber": "5820038230",
            "productName": "Annuity Care ",
            "servicingProducer": {
                "lexicalName": "TISDALE, BRADLEY"
            },
            "pendingRequirementCount": 0,
            "policyStatus": {
                "status": "Issued",
                "statusDetail": "Premium paying",
                "description": "Withdrawn"
            }
        },
        {
            "policyId": 7744362,
            "customer": {
                "lexicalName": "COOPER GRIFFITH LVG TRUST",
                "customerId": 22507253
            },
            "relationship": "Owner",
            "policyNumber": "5820140120",
            "productName": "Annuity Care ",
            "servicingProducer": {
                "lexicalName": "TISDALE, BRADLEY"
            },
            "pendingRequirementCount": 0,
            "policyStatus": {
                "status": "Issued",
                "statusDetail": "Premium paying",
                "description": "Postponed"
            }
        },
        {
            "policyId": 7744868,
            "customer": {
                "lexicalName": "HALL, TERRI",
                "customerId": 22537691
            },
            "dateOfBirth": "1952-03-15",
            "relationship": "Owner",
            "policyNumber": "5820146800",
            "productName": "Annuity Care ",
            "servicingProducer": {
                "lexicalName": "TISDALE, BRADLEY"
            },
            "pendingRequirementCount": 0,
            "policyStatus": {
                "status": "Issued",
                "statusDetail": "Premium paying",
                "description": "Declined"
            }
        },
        {
            "policyId": 7744869,
            "customer": {
                "lexicalName": "HALL, CARY",
                "customerId": 22479141
            },
            "dateOfBirth": "1952-04-11",
            "relationship": "Owner",
            "policyNumber": "5820146810",
            "productName": "Annuity Care ",
            "servicingProducer": {
                "lexicalName": "TISDALE, BRADLEY"
            },
            "pendingRequirementCount": 0,
            "policyStatus": {
                "status": "Issued",
                "statusDetail": "Premium paying",
                "description": "Incomplete"
            }
        },
        {
            "policyId": 7745494,
            "customer": {
                "lexicalName": "HARVEY, ANN",
                "customerId": 26517363
            },
            "dateOfBirth": "1957-08-31",
            "relationship": "Owner",
            "policyNumber": "5820154710",
            "productName": "Annuity Care II",
            "servicingProducer": {
                "lexicalName": "TISDALE, BRADLEY"
            },
            "pendingRequirementCount": 0,
            "policyStatus": {
                "status": "Issued",
                "statusDetail": "Premium paying",
                "description": "Terminated"
            }
        },
        {
            "policyId": 7745527,
            "customer": {
                "lexicalName": "ROBERTS, GERALD",
                "customerId": 22266714
            },
            "dateOfBirth": "1949-02-01",
            "relationship": "Owner",
            "policyNumber": "5820155050",
            "productName": "Annuity Care ",
            "servicingProducer": {
                "lexicalName": "TISDALE, BRADLEY"
            },
            "pendingRequirementCount": 0,
            "policyStatus": {
                "status": "Issued",
                "statusDetail": "Premium paying",
                "description": "Expired"
            }
        },
        {
            "policyId": 7745620,
            "customer": {
                "lexicalName": "BLAU, MARJORIE",
                "customerId": 22148171
            },
            "dateOfBirth": "1939-05-30",
            "relationship": "Owner",
            "policyNumber": "5820156190",
            "productName": "Annuity Care ",
            "servicingProducer": {
                "lexicalName": "TISDALE, BRADLEY"
            },
            "pendingRequirementCount": 0,
            "policyStatus": {
                "status": "Issued",
                "statusDetail": "Premium paying",
                "description": "Surrendered"
            }
        },
        {
            "policyId": 7745760,
            "customer": {
                "lexicalName": "PUTNAM, THOMAS",
                "customerId": 22555876
            },
            "dateOfBirth": "1945-01-03",
            "relationship": "Owner",
            "policyNumber": "5820157890",
            "productName": "Annuity Care ",
            "servicingProducer": {
                "lexicalName": "TISDALE, BRADLEY"
            },
            "pendingRequirementCount": 0,
            "policyStatus": {
                "status": "Issued",
                "statusDetail": "Premium paying",
                "description": "Lapse"
            }
        },
        {
            "policyId": 7746014,
            "customer": {
                "lexicalName": "LIFSHITZ, FIMA",
                "customerId": 26390315
            },
            "dateOfBirth": "1938-04-24",
            "relationship": "Owner",
            "policyNumber": "5820160870",
            "productName": "Annuity Care ",
            "servicingProducer": {
                "lexicalName": "TISDALE, BRADLEY"
            },
            "pendingRequirementCount": 0,
            "policyStatus": {
                "status": "Issued",
                "statusDetail": "Premium paying",
                "description": "Not Taken"
            }
        },
        {
            "policyId": 7746246,
            "customer": {
                "lexicalName": "LIFSHITZ, FIMA",
                "customerId": 26390315
            },
            "dateOfBirth": "1938-04-24",
            "relationship": "Owner",
            "policyNumber": "5820163520",
            "productName": "Annuity Care ",
            "servicingProducer": {
                "lexicalName": "TISDALE, BRADLEY"
            },
            "pendingRequirementCount": 0,
            "policyStatus": {
                "status": "Issued",
                "statusDetail": "Premium paying",
                "description": "Application Received"
            }
        },
        {
            "policyId": 7749178,
            "customer": {
                "lexicalName": "MYERS, KAREN",
                "customerId": 26367558
            },
            "dateOfBirth": "1962-11-08",
            "relationship": "Owner",
            "policyNumber": "5820197700",
            "productName": "Annuity Care II",
            "servicingProducer": {
                "lexicalName": "TISDALE, BRADLEY"
            },
            "pendingRequirementCount": 0,
            "policyStatus": {
                "status": "Issued",
                "statusDetail": "Premium paying",
                "description": "In Underwriting"
            }
        },
        {
            "policyId": 7749761,
            "customer": {
                "lexicalName": "AMER, CAROLINE",
                "customerId": 26068389
            },
            "dateOfBirth": "1957-04-03",
            "relationship": "Owner",
            "policyNumber": "5820204170",
            "productName": "Annuity Care ",
            "servicingProducer": {
                "lexicalName": "TISDALE, BRADLEY"
            },
            "pendingRequirementCount": 0,
            "policyStatus": {
                "status": "Issued",
                "statusDetail": "Premium paying",
                "description": "Requirements Outstanding, Underwriting Complete"
            }
        },
        {
            "policyId": 8989898911,
            "customer": {
                "lexicalName": "HODGES, JAY",
                "customerId": 22197256
            },
            "dateOfBirth": "1937-08-01",
            "relationship": "Owner",
            "policyNumber": "5820206620",
            "productName": "Asset-Care III",
            "servicingProducer": {
                "lexicalName": "TISDALE, BRADLEY"
            },
            "pendingRequirementCount": 5,
            "policyStatus": {
                "status": "Issued",
                "statusDetail": "Premium paying",
                "description": "Requirements Outstanding, Not Issued"
            }
        },
        {
            "policyId": 7750537,
            "customer": {
                "lexicalName": "CLANCY, JEAN",
                "customerId": 22453017
            },
            "dateOfBirth": "1945-05-13",
            "relationship": "Owner",
            "caseId": "2012-04-09-12.35.28.673001",
            "policyNumber": "5820213120",
            "productName": "Annuity Care ",
            "application": {
                "received": "2012-04-09",
                "paid": "2012-12-19"
            },
            "servicingProducer": {
                "lexicalName": "TISDALE, BRADLEY"
            },
            "pendingRequirementCount": 0,
            "policyStatus": {
                "status": "Issued",
                "statusDetail": "Premium paying",
                "workflowStatus": "In Process",
                "description": "In Process"
            }
        },
        {
            "policyId": 7964126,
            "customer": {
                "lexicalName": "KEANE, EUGENE",
                "customerId": 25787008
            },
            "dateOfBirth": "1956-08-02",
            "relationship": "Owner",
            "policyNumber": "5200280380",
            "productName": "Asset-Care I",
            "servicingProducer": {
                "lexicalName": "TISDALE, BRADLEY"
            },
            "pendingRequirementCount": 0,
            "policyStatus": {
                "status": "Issued",
                "statusDetail": "Paid-up",
                "description": "Issued Not Paid"
            }
        },
        {
            "policyId": 7964127,
            "customer": {
                "lexicalName": "KEANE, EUGENE",
                "customerId": 25787008
            },
            "dateOfBirth": "1956-08-02",
            "relationship": "Owner",
            "policyNumber": "5200280390",
            "productName": "Continuation Of Benefit",
            "servicingProducer": {
                "lexicalName": "TISDALE, BRADLEY"
            },
            "pendingRequirementCount": 0,
            "policyStatus": {
                "status": "Issued",
                "statusDetail": "Premium paying",
                "description": "Ready for Issue"
            }
        },
        {
            "policyId": 7968962,
            "customer": {
                "lexicalName": "STEED, JOHN",
                "customerId": 26531752
            },
            "dateOfBirth": "1952-03-01",
            "relationship": "Owner",
            "policyNumber": "5200284640",
            "productName": "Asset-Care I",
            "servicingProducer": {
                "lexicalName": "TISDALE, BRADLEY"
            },
            "pendingRequirementCount": 0,
            "policyStatus": {
                "status": "Issued",
                "statusDetail": "Paid-up",
                "description": "Issued Not Paid"
            }
        },
        {
            "policyId": 8013791,
            "customer": {
                "lexicalName": "BOYD, GANNON",
                "customerId": 22448704
            },
            "dateOfBirth": "1971-12-20",
            "relationship": "Owner",
            "caseId": "2014-04-23-13.00.39.098000",
            "policyNumber": "5200505090",
            "productName": "Asset-Care I",
            "application": {
                "received": "2012-04-23",
                "paid": "2016-12-10"
            },
            "servicingProducer": {
                "lexicalName": "TISDALE, BRADLEY"
            },
            "pendingRequirementCount": 0,
            "policyStatus": {
                "status": "Issued",
                "statusDetail": "Paid-up",
                "workflowStatus": "In Process",
                "description": "In Process"
            }
        },
        {
            "policyId": 8013792,
            "customer": {
                "lexicalName": "BOYD, GANNON",
                "customerId": 22448704
            },
            "dateOfBirth": "1971-12-20",
            "relationship": "Owner",
            "caseId": "2014-04-23-13.01.06.974000",
            "policyNumber": "5200505100",
            "productName": "Continuation Of Benefit",
            "application": {
                "received": "2012-04-10",
                "paid": "2012-12-19"
            },
            "servicingProducer": {
                "lexicalName": "TISDALE, BRADLEY"
            },
            "pendingRequirementCount": 0,
            "policyStatus": {
                "status": "Issued",
                "statusDetail": "Premium paying",
                "workflowStatus": "In Process",
                "description": "In Process"
            }
        },
        {
            "policyId": 8016348,
            "customer": {
                "lexicalName": "NYE, NANCY",
                "customerId": 25798079
            },
            "dateOfBirth": "1949-04-05",
            "relationship": "Owner",
            "caseId": "2014-05-05-11.30.09.924160",
            "policyNumber": "5820360220",
            "productName": "Annuity Care II",
            "application": {
                "received": "2012-05-05",
                "paid": "2012-10-19"
            },
            "servicingProducer": {
                "lexicalName": "TISDALE, BRADLEY"
            },
            "pendingRequirementCount": 0,
            "policyStatus": {
                "status": "Withdrawn",
                "statusDetail": "Cancelled",
                "workflowStatus": "In Process",
                "description": "Withdrawn"
            }
        },
        {
            "policyId": 8035955,
            "customer": {
                "lexicalName": "SMITH, CONNIE",
                "customerId": 26362414
            },
            "dateOfBirth": "1952-07-14",
            "relationship": "Owner",
            "caseId": "2014-09-04-21.50.19.782240",
            "policyNumber": "5200537110",
            "productName": "Asset-Care II",
            "application": {
                "received": "2012-09-10",
                "paid": "2012-10-15"
            },
            "servicingProducer": {
                "lexicalName": "TISDALE, BRADLEY"
            },
            "pendingRequirementCount": 0,
            "policyStatus": {
                "status": "Issued",
                "statusDetail": "Premium paying",
                "workflowStatus": "In Process",
                "description": "In Process"
            }
        },
        {
            "customer": {
                "lexicalName": "SMITH, CONNIE",
                "customerId": 26362414
            },
            "dateOfBirth": "1952-07-14",
            "relationship": "Owner",
            "caseId": "1212121212",
            "productName": "Continuation Of Benefit",
            "application": {
                "received": "2014-09-05",
                "paid": "2014-12-19"
            },
            "servicingProducer": {
                "lexicalName": "TISDALE, BRADLEY"
            },
            "pendingRequirementCount": 3,
            "policyStatus": {
                "status": "Issued",
                "statusDetail": "Premium paying",
                "workflowStatus": "In Process",
                "description": "Requirements Outstanding, Not Issued"
            }
        },
        {
            "policyId": 8037811,
            "customer": {
                "lexicalName": "JENKINS, CRETIES",
                "customerId": 22852239
            },
            "dateOfBirth": "1958-06-14",
            "relationship": "Owner",
            "caseId": "2014-11-14-12.06.41.079740",
            "policyNumber": "5200556240",
            "productName": "Asset-Care IV",
            "application": {
                "received": "2014-11-14",
                "paid": "2014-12-19"
            },
            "servicingProducer": {
                "lexicalName": "TISDALE, BRADLEY"
            },
            "pendingRequirementCount": 0,
            "policyStatus": {
                "status": "Issued",
                "statusDetail": "Premium paying",
                "workflowStatus": "In Process",
                "description": "In Process"
            }
        },
        {
            "policyId": 8037812,
            "customer": {
                "lexicalName": "JENKINS, CRETIES",
                "customerId": 22852239
            },
            "dateOfBirth": "1958-06-14",
            "relationship": "Owner",
            "caseId": "2014-11-14-13.05.49.522740",
            "policyNumber": "5200556250",
            "productName": "Continuation Of Benefit",
            "application": {
                "received": "2014-11-14",
                "paid": "2014-12-09"
            },
            "servicingProducer": {
                "lexicalName": "TISDALE, BRADLEY"
            },
            "pendingRequirementCount": 0,
            "policyStatus": {
                "status": "Issued",
                "statusDetail": "Premium paying",
                "workflowStatus": "In Process",
                "description": "In Process"
            }
        },
        {
            "policyId": 8038970,
            "customer": {
                "lexicalName": "MCNEILLEY, LEEANA",
                "customerId": 22843074
            },
            "dateOfBirth": "1950-12-20",
            "relationship": "Owner",
            "caseId": "2015-01-07-20.20.35.726640",
            "policyNumber": "5200568210",
            "productName": "Asset-Care I",
            "application": {
                "received": "2015-01-07",
                "paid": "2015-02-19"
            },
            "servicingProducer": {
                "lexicalName": "TISDALE, BRADLEY"
            },
            "pendingRequirementCount": 0,
            "policyStatus": {
                "status": "Issued",
                "statusDetail": "Paid-up",
                "workflowStatus": "In Process",
                "description": "In Process"
            }
        },
        {
            "policyId": 8038971,
            "customer": {
                "lexicalName": "MCNEILLEY, LEEANA",
                "customerId": 22843074
            },
            "dateOfBirth": "1950-12-20",
            "relationship": "Owner",
            "caseId": "2015-01-07-19.33.36.660640",
            "policyNumber": "5200568220",
            "productName": "Asset-Care I",
            "application": {
                "received": "2015-01-07",
                "paid": "2015-03-09"
            },
            "servicingProducer": {
                "lexicalName": "TISDALE, BRADLEY"
            },
            "pendingRequirementCount": 0,
            "policyStatus": {
                "status": "Issued",
                "statusDetail": "Paid-up",
                "workflowStatus": "In Process",
                "description": "In Process"
            }
        },
        {
            "policyId": 8038972,
            "customer": {
                "lexicalName": "MCNEILLEY, LEEANA",
                "customerId": 22843074
            },
            "dateOfBirth": "1950-12-20",
            "relationship": "Owner",
            "caseId": "2015-01-08-09.38.56.428640",
            "policyNumber": "5200568230",
            "productName": "Continuation Of Benefit",
            "application": {
                "received": "2015-01-08",
                "paid": "2015-02-15"
            },
            "servicingProducer": {
                "lexicalName": "TISDALE, BRADLEY"
            },
            "pendingRequirementCount": 0,
            "policyStatus": {
                "status": "Issued",
                "statusDetail": "Premium paying",
                "workflowStatus": "In Process",
                "description": "In Process"
            }
        },
        {
            "policyId": 8039384,
            "customer": {
                "lexicalName": "HARDY, DENNIS",
                "customerId": 22854378
            },
            "dateOfBirth": "1953-09-03",
            "relationship": "Owner",
            "caseId": "2015-01-28-13.57.17.000840",
            "policyNumber": "5200572440",
            "productName": "Asset-Care I",
            "application": {
                "received": "2015-01-28",
                "paid": "2015-02-11"
            },
            "servicingProducer": {
                "lexicalName": "TISDALE, BRADLEY"
            },
            "pendingRequirementCount": 0,
            "policyStatus": {
                "status": "Issued",
                "statusDetail": "Paid-up",
                "workflowStatus": "In Process",
                "description": "In Process"
            }
        },
        {
            "policyId": 8039385,
            "customer": {
                "lexicalName": "HARDY, DENNIS",
                "customerId": 22854378
            },
            "dateOfBirth": "1953-09-03",
            "relationship": "Owner",
            "caseId": "2015-01-28-14.56.25.382840",
            "policyNumber": "5200572450",
            "productName": "Continuation Of Benefit",
            "application": {
                "received": "2015-01-28",
                "paid": "2015-02-01"
            },
            "servicingProducer": {
                "lexicalName": "TISDALE, BRADLEY"
            },
            "pendingRequirementCount": 0,
            "policyStatus": {
                "status": "Issued",
                "statusDetail": "Premium paying",
                "workflowStatus": "In Process",
                "description": "In Process"
            }
        },
        {
            "policyId": 8041580,
            "customer": {
                "lexicalName": "SMITH, CONNIE",
                "customerId": 26362414
            },
            "dateOfBirth": "1952-07-14",
            "relationship": "Owner",
            "caseId": "2014-09-05-10.12.21.760240",
            "policyNumber": "5820370140",
            "productName": "Asset-Care III",
            "application": {
                "received": "2014-09-05",
                "paid": "2014-10-19"
            },
            "servicingProducer": {
                "lexicalName": "TISDALE, BRADLEY"
            },
            "pendingRequirementCount": 0,
            "policyStatus": {
                "status": "Issued",
                "statusDetail": "Premium paying",
                "workflowStatus": "In Process",
                "description": "In Process"
            }
        },
        {
            "policyId": 8047283,
            "customer": {
                "lexicalName": "ARIEL, JOAN",
                "customerId": 26657772
            },
            "dateOfBirth": "1946-03-22",
            "relationship": "Owner",
            "caseId": "2015-05-15-22.10.22.042100",
            "policyNumber": "5200605320",
            "productName": "Asset-Care I",
            "application": {
                "received": "2015-05-15",
                "paid": "2015-06-19"
            },
            "servicingProducer": {
                "lexicalName": "TISDALE, BRADLEY"
            },
            "pendingRequirementCount": 0,
            "policyStatus": {
                "status": "Issued",
                "statusDetail": "Paid-up",
                "workflowStatus": "In Process",
                "description": "In Process"
            }
        },
        {
            "policyId": 8047288,
            "customer": {
                "lexicalName": "ARIEL, JOAN",
                "customerId": 26657772
            },
            "dateOfBirth": "1946-03-22",
            "relationship": "Owner",
            "caseId": "2015-05-17-10.22.05.673080",
            "policyNumber": "5200605370",
            "productName": "Continuation Of Benefit",
            "application": {
                "received": "2015-05-17",
                "paid": "2015-06-19"
            },
            "servicingProducer": {
                "lexicalName": "TISDALE, BRADLEY"
            },
            "pendingRequirementCount": 0,
            "policyStatus": {
                "status": "Issued",
                "statusDetail": "Premium paying",
                "workflowStatus": "In Process",
                "description": "In Process"
            }
        },
        {
            "policyId": 8096728,
            "customer": {
                "lexicalName": "BUCHANAN, PEGGY",
                "customerId": 32430538
            },
            "dateOfBirth": "1950-02-27",
            "relationship": "Owner",
            "caseId": "2016-05-16-10.03.20.967780",
            "policyNumber": "5200735720",
            "productName": "Continuation Of Benefit",
            "application": {
                "received": "2016-05-16",
                "paid": "2016-06-19"
            },
            "servicingProducer": {
                "lexicalName": "TISDALE, BRADLEY"
            },
            "pendingRequirementCount": 0,
            "policyStatus": {
                "status": "Pending",
                "statusDetail": "In Underwriting",
                "workflowStatus": "In Process",
                "date": "2016-05-18",
                "description": "In Process"
            }
        },
        {
            "policyId": 8096728,
            "customer": {
                "lexicalName": "BUCHANAN, PEGGY",
                "customerId": 35148959
            },
            "dateOfBirth": "1950-02-27",
            "relationship": "Owner",
            "caseId": "2016-05-16-10.03.20.967780",
            "policyNumber": "5200735720",
            "productName": "Continuation Of Benefit",
            "application": {
                "received": "2016-05-16",
                "paid": "2016-06-20"
            },
            "servicingProducer": {
                "lexicalName": "TISDALE, BRADLEY"
            },
            "pendingRequirementCount": 0,
            "policyStatus": {
                "status": "Pending",
                "statusDetail": "In Underwriting",
                "workflowStatus": "In Process",
                "date": "2016-05-18",
                "description": "In Process"
            }
        },
        {
            "policyId": 8096982,
            "customer": {
                "lexicalName": "WIGGINS, PHYLENE",
                "customerId": 32431889
            },
            "dateOfBirth": "1960-05-17",
            "relationship": "Owner",
            "caseId": "2016-05-17-19.43.23.342800",
            "policyNumber": "5200738290",
            "productName": "Asset-Care IV",
            "application": {
                "received": "2016-05-17",
                "paid": "2016-06-25"
            },
            "servicingProducer": {
                "lexicalName": "TISDALE, BRADLEY"
            },
            "pendingRequirementCount": 0,
            "policyStatus": {
                "status": "Pending",
                "statusDetail": "In Underwriting",
                "workflowStatus": "Requirements Outstanding, Underwriting Complete",
                "date": "2016-05-24",
                "description": "Requirements Outstanding, Underwriting Complete"
            }
        },
        {
            "policyId": 8096982,
            "customer": {
                "lexicalName": "WIGGINS, PHYLENE",
                "customerId": 35153023
            },
            "dateOfBirth": "1960-05-17",
            "relationship": "Owner",
            "caseId": "2016-05-17-19.43.23.342800",
            "policyNumber": "5200738290",
            "productName": "Asset-Care IV",
            "application": {
                "received": "2016-05-15",
                "paid": "2016-06-25"
            },
            "servicingProducer": {
                "lexicalName": "TISDALE, BRADLEY"
            },
            "pendingRequirementCount": 0,
            "policyStatus": {
                "status": "Pending",
                "statusDetail": "In Underwriting",
                "workflowStatus": "Requirements Outstanding, Underwriting Complete",
                "date": "2016-05-24",
                "description": "Requirements Outstanding, Underwriting Complete"
            }
        },
        {
            "policyId": 8096983,
            "customer": {
                "lexicalName": "WIGGINS, PHYLENE",
                "customerId": 32431889
            },
            "dateOfBirth": "1960-05-17",
            "relationship": "Owner",
            "caseId": "2016-05-18-15.06.21.395780",
            "policyNumber": "5200738300",
            "productName": "Continuation Of Benefit",
            "application": {
                "received": "2016-05-18",
                "paid": "2016-06-30"
            },
            "servicingProducer": {
                "lexicalName": "TISDALE, BRADLEY"
            },
            "pendingRequirementCount": 0,
            "policyStatus": {
                "status": "Pending",
                "statusDetail": "In Underwriting",
                "workflowStatus": "Requirements Outstanding, Underwriting Complete",
                "date": "2016-05-23",
                "description": "Requirements Outstanding, Underwriting Complete"
            }
        },
        {
            "policyId": 8096983,
            "customer": {
                "lexicalName": "WIGGINS, PHYLENE",
                "customerId": 35153023
            },
            "dateOfBirth": "1960-05-17",
            "relationship": "Owner",
            "caseId": "2016-05-18-15.06.21.395780",
            "policyNumber": "5200738300",
            "productName": "Continuation Of Benefit",
            "application": {
                "received": "2016-05-19",
                "paid": "2016-06-25"
            },
            "servicingProducer": {
                "lexicalName": "TISDALE, BRADLEY"
            },
            "pendingRequirementCount": 0,
            "policyStatus": {
                "status": "Pending",
                "statusDetail": "In Underwriting",
                "workflowStatus": "Requirements Outstanding, Underwriting Complete",
                "date": "2016-05-23",
                "description": "Requirements Outstanding, Underwriting Complete"
            }
        },
        {
            "policyId": 8097766,
            "customer": {
                "lexicalName": "BUCHANAN, PEGGY",
                "customerId": 32430538
            },
            "dateOfBirth": "1950-02-27",
            "relationship": "Owner",
            "caseId": "2016-05-13-14.55.11.265740",
            "policyNumber": "5820417680",
            "productName": "Annuity Care ",
            "application": {
                "received": "2016-05-13",
                "paid": "2016-06-06"
            },
            "servicingProducer": {
                "lexicalName": "TISDALE, BRADLEY"
            },
            "pendingRequirementCount": 0,
            "policyStatus": {
                "status": "Pending",
                "statusDetail": "In Underwriting",
                "workflowStatus": "In Process",
                "date": "2016-05-23",
                "description": "In Process"
            }
        },
        {
            "policyId": 8097766,
            "customer": {
                "lexicalName": "BUCHANAN, PEGGY",
                "customerId": 35148959
            },
            "dateOfBirth": "1950-02-27",
            "relationship": "Owner",
            "caseId": "2016-05-13-14.55.11.265740",
            "policyNumber": "5820417680",
            "productName": "Annuity Care ",
            "application": {
                "received": "2016-05-18",
                "paid": "2016-06-30"
            },
            "servicingProducer": {
                "lexicalName": "TISDALE, BRADLEY"
            },
            "pendingRequirementCount": 0,
            "policyStatus": {
                "status": "Pending",
                "statusDetail": "In Underwriting",
                "workflowStatus": "In Process",
                "date": "2016-05-23",
                "description": "In Process"
            }
        },
        {
            "policyId": 7716061,
            "customer": {
                "lexicalName": "ROBERTS, GERALD",
                "customerId": 22266714
            },
            "dateOfBirth": "1949-02-01",
            "relationship": "Owner",
            "policyNumber": "5200168250",
            "productName": "Continuation Of Benefit",
            "servicingProducer": {
                "lexicalName": "TISDALE, BRADLEY"
            },
            "pendingRequirementCount": 0,
            "policyStatus": {
                "status": "Issued",
                "statusDetail": "Premium paying",
                "description": "Paid"
            }
        },
        {
            "policyId": 7717482,
            "customer": {
                "lexicalName": "ULLERY, SCOTT",
                "customerId": 26525019
            },
            "dateOfBirth": "1951-02-16",
            "relationship": "Owner",
            "policyNumber": "5200182900",
            "productName": "Continuation Of Benefit",
            "servicingProducer": {
                "lexicalName": "TISDALE, BRADLEY"
            },
            "pendingRequirementCount": 0,
            "policyStatus": {
                "status": "Issued",
                "statusDetail": "Premium paying",
                "description": "Paid"
            }
        },
        {
            "policyId": 7717505,
            "customer": {
                "lexicalName": "ULLERY, SCOTT",
                "customerId": 26525019
            },
            "dateOfBirth": "1951-02-16",
            "relationship": "Owner",
            "policyNumber": "5200183130",
            "productName": "Asset-Care I",
            "servicingProducer": {
                "lexicalName": "TISDALE, BRADLEY"
            },
            "pendingRequirementCount": 0,
            "policyStatus": {
                "status": "Issued",
                "statusDetail": "Paid-up",
                "description": "Paid"
            }
        },
        {
            "policyId": 7718584,
            "customer": {
                "lexicalName": "RUSSO, CHRISTOPHER",
                "customerId": 22508133
            },
            "dateOfBirth": "1960-09-30",
            "relationship": "Owner",
            "policyNumber": "5200194110",
            "productName": "Asset-Care I",
            "servicingProducer": {
                "lexicalName": "TISDALE, BRADLEY"
            },
            "pendingRequirementCount": 0,
            "policyStatus": {
                "status": "Issued",
                "statusDetail": "Paid-up",
                "description": "Paid"
            }
        },
        {
            "policyId": 7718585,
            "customer": {
                "lexicalName": "RUSSO, CHRISTOPHER",
                "customerId": 22508133
            },
            "dateOfBirth": "1960-09-30",
            "relationship": "Owner",
            "policyNumber": "5200194120",
            "productName": "Continuation Of Benefit",
            "servicingProducer": {
                "lexicalName": "TISDALE, BRADLEY"
            },
            "pendingRequirementCount": 0,
            "policyStatus": {
                "status": "Issued",
                "statusDetail": "Premium paying",
                "description": "Paid"
            }
        },
        {
            "policyId": 7723199,
            "customer": {
                "lexicalName": "AMER, CAROLINE",
                "customerId": 26068389
            },
            "dateOfBirth": "1957-04-03",
            "relationship": "Owner",
            "policyNumber": "5200241760",
            "productName": "Continuation Of Benefit",
            "servicingProducer": {
                "lexicalName": "TISDALE, BRADLEY"
            },
            "pendingRequirementCount": 0,
            "policyStatus": {
                "status": "Issued",
                "statusDetail": "Premium paying",
                "description": "Paid"
            }
        },
        {
            "policyId": 7723624,
            "customer": {
                "lexicalName": "OLIVER, GLENN",
                "customerId": 22512422
            },
            "dateOfBirth": "1957-09-16",
            "relationship": "Owner",
            "policyNumber": "5200246140",
            "productName": "Asset-Care I",
            "servicingProducer": {
                "lexicalName": "TISDALE, BRADLEY"
            },
            "pendingRequirementCount": 0,
            "policyStatus": {
                "status": "Issued",
                "statusDetail": "Paid-up",
                "description": "Paid"
            }
        },
        {
            "policyId": 7723666,
            "customer": {
                "lexicalName": "HODGES, JAY",
                "customerId": 22197256
            },
            "dateOfBirth": "1937-08-01",
            "relationship": "Owner",
            "policyNumber": "5200246560",
            "productName": "Asset-Care II",
            "servicingProducer": {
                "lexicalName": "TISDALE, BRADLEY"
            },
            "pendingRequirementCount": 0,
            "policyStatus": {
                "status": "Issued",
                "statusDetail": "Premium paying",
                "description": "Paid"
            }
        },
        {
            "policyId": 7738654,
            "customer": {
                "lexicalName": "CARSWELL, BOWDRE",
                "customerId": 25884658
            },
            "dateOfBirth": "1926-01-18",
            "relationship": "Owner",
            "policyNumber": "5820017620",
            "productName": "Annuity Care ",
            "servicingProducer": {
                "lexicalName": "TISDALE, BRADLEY"
            },
            "pendingRequirementCount": 0,
            "policyStatus": {
                "status": "Issued",
                "statusDetail": "Premium paying",
                "description": "Paid"
            }
        },
        {
            "policyId": 7968963,
            "customer": {
                "lexicalName": "STEED, JOHN",
                "customerId": 26531752
            },
            "dateOfBirth": "1952-03-01",
            "relationship": "Owner",
            "policyNumber": "5200284650",
            "productName": "Continuation Of Benefit",
            "servicingProducer": {
                "lexicalName": "TISDALE, BRADLEY"
            },
            "pendingRequirementCount": 0,
            "policyStatus": {
                "status": "Issued",
                "statusDetail": "Premium paying",
                "description": "Paid"
            }
        },
        {
            "policyId": 7974310,
            "customer": {
                "lexicalName": "AVRICK, DAVID",
                "customerId": 25788620
            },
            "dateOfBirth": "1938-01-10",
            "relationship": "Owner",
            "policyNumber": "5200308680",
            "productName": "Asset-Care I",
            "servicingProducer": {
                "lexicalName": "TISDALE, BRADLEY"
            },
            "pendingRequirementCount": 0,
            "policyStatus": {
                "status": "Issued",
                "statusDetail": "Paid-up",
                "description": "Paid"
            }
        },
        {
            "policyId": 7974311,
            "customer": {
                "lexicalName": "AVRICK, DAVID",
                "customerId": 25788620
            },
            "dateOfBirth": "1938-01-10",
            "relationship": "Owner",
            "policyNumber": "5200308690",
            "productName": "Continuation Of Benefit",
            "servicingProducer": {
                "lexicalName": "TISDALE, BRADLEY"
            },
            "pendingRequirementCount": 0,
            "policyStatus": {
                "status": "Issued",
                "statusDetail": "Premium paying",
                "description": "Paid"
            }
        },
        {
            "policyId": 7999183,
            "customer": {
                "lexicalName": "RUSSELL, EVA",
                "customerId": 22425764
            },
            "dateOfBirth": "1950-10-02",
            "relationship": "Owner",
            "policyNumber": "5200343880",
            "productName": "Asset-Care IV",
            "servicingProducer": {
                "lexicalName": "TISDALE, BRADLEY"
            },
            "pendingRequirementCount": 0,
            "policyStatus": {
                "status": "Issued",
                "statusDetail": "Premium paying",
                "description": "Paid"
            }
        },
        {
            "policyId": 7999184,
            "customer": {
                "lexicalName": "RUSSELL, EVA",
                "customerId": 22425764
            },
            "dateOfBirth": "1950-10-02",
            "relationship": "Owner",
            "policyNumber": "5200343890",
            "productName": "Continuation Of Benefit",
            "servicingProducer": {
                "lexicalName": "TISDALE, BRADLEY"
            },
            "pendingRequirementCount": 0,
            "policyStatus": {
                "status": "Issued",
                "statusDetail": "Premium paying",
                "description": "Paid"
            }
        },
        {
            "policyId": 8012912,
            "customer": {
                "lexicalName": "BORGATELLO, DAVID",
                "customerId": 22464629
            },
            "dateOfBirth": "1942-05-19",
            "relationship": "Owner",
            "policyNumber": "5200495880",
            "productName": "Asset-Care I",
            "servicingProducer": {
                "lexicalName": "TISDALE, BRADLEY"
            },
            "pendingRequirementCount": 0,
            "policyStatus": {
                "status": "Issued",
                "statusDetail": "Paid-up",
                "description": "Paid"
            }
        },
        {
            "policyId": 8012913,
            "customer": {
                "lexicalName": "BORGATELLO, DAVID",
                "customerId": 22464629
            },
            "dateOfBirth": "1942-05-19",
            "relationship": "Owner",
            "policyNumber": "5200495890",
            "productName": "Continuation Of Benefit",
            "servicingProducer": {
                "lexicalName": "TISDALE, BRADLEY"
            },
            "pendingRequirementCount": 0,
            "policyStatus": {
                "status": "Terminated",
                "statusDetail": "Terminated by Cyberdyne Systems Model 101 unit",
                "description": "Paid"
            }
        },
        {
            "policyId": 8989898913,
            "customer": {
                "lexicalName": "BAGGINS, FRODO",
                "customerId": 2564783
            },
            "dateOfBirth": "1937-09-22",
            "relationship": "Owner",
            "policyNumber": "720459752",
            "productName": "Continuation Of Benefit",
            "servicingProducer": {
                "lexicalName": "STEPHEN, JOHN"
            },
            "pendingRequirementCount": 0,
            "policyStatus": {
                "status": "Issued",
                "statusDetail": "Premium paying",
                "description": "Paid"
            }
        }
    ]
}