{
    "account": {
        "adminSystemId": "OMNI",
        "affiliate": "AUL",
        "divisionId": "PEN",
        "excludedPolicyPlan": false,
        "homePlan": false,
        "name": "RIA AND ADVICE PLUS 401(K) PLAN",
        "number": "O36930"
    },
    "count": 1,
    "errorCount": 0,
    "errors": null,
    "items": [
        {
            "pendingTransactions": [
                {
                    "autoRebalance": true,
                    "beneficiaryChange": false,
                    "confirmationNumber": null,
                    "dollarCostAvgFixed": false,
                    "dollarCostAvgMoneyMrkt": false,
                    "electionChange": false,
                    "folderId": "IRB032669384",
                    "hasTransactionDetail": true,
                    "interestSweep": false,
                    "loan": false,
                    "nextProcessDate": "2013-12-31T00:00:00.000-0500",
                    "nextScheduledDate": null,
                    "omniWebRole": null,
                    "omniWebStatus": "PENDING",
                    "participantName": "Participant Joe",
                    "periodicFlag": "Y",
                    "periodicFrequency": "1",
                    "periodicFrequencyDescription": "Yearly",
                    "previousProcessDate": null,
                    "propagateTrans": false,
                    "recurringTemplate": true,
                    "sequenceNumber": "1",
                    "stopDate": null,
                    "systemId": "acctServices",
                    "tradeDate": "2013-10-29T00:00:00.000-0400",
                    "transCategory": "Transfer",
                    "transDescription": "Automatic Rebalance",
                    "transactionCode": "381",
                    "transactionSubCategory": "AutoRebalance",
                    "transfer": true
                },
                {
                    "autoRebalance": false,
                    "beneficiaryChange": false,
                    "confirmationNumber": null,
                    "dollarCostAvgFixed": false,
                    "dollarCostAvgMoneyMrkt": false,
                    "electionChange": false,
                    "folderId": "IRB032669384",
                    "hasTransactionDetail": true,
                    "interestSweep": false,
                    "loan": false,
                    "nextProcessDate": "2013-12-31T00:00:00.000-0500",
                    "nextScheduledDate": null,
                    "omniWebRole": null,
                    "omniWebStatus": "PENDING",
                    "participantName": "Participant Joe",
                    "periodicFlag": "Y",
                    "periodicFrequency": "1",
                    "periodicFrequencyDescription": "Yearly",
                    "previousProcessDate": null,
                    "propagateTrans": false,
                    "recurringTemplate": true,
                    "sequenceNumber": "1",
                    "stopDate": null,
                    "systemId": "acctServices",
                    "tradeDate": "2013-10-29T00:00:00.000-0400",
                    "transCategory": "Transfer",
                    "transDescription": "Dollar Cost Average",
                    "transactionCode": "381",
                    "transactionSubCategory": "DollarCostAverage",
                    "transfer": true
                },
                {
                    "autoRebalance": false,
                    "beneficiaryChange": false,
                    "confirmationNumber": null,
                    "dollarCostAvgFixed": false,
                    "dollarCostAvgMoneyMrkt": false,
                    "electionChange": false,
                    "folderId": "IRB032669384",
                    "hasTransactionDetail": true,
                    "interestSweep": true,
                    "loan": false,
                    "nextProcessDate": "2013-12-31T00:00:00.000-0500",
                    "nextScheduledDate": null,
                    "omniWebRole": null,
                    "omniWebStatus": "PENDING",
                    "participantName": "Participant Joe",
                    "periodicFlag": "Y",
                    "periodicFrequency": "1",
                    "periodicFrequencyDescription": "Yearly",
                    "previousProcessDate": null,
                    "propagateTrans": false,
                    "recurringTemplate": true,
                    "sequenceNumber": "1",
                    "stopDate": null,
                    "systemId": "acctServices",
                    "tradeDate": "2013-10-29T00:00:00.000-0400",
                    "transCategory": "Transfer",
                    "transDescription": "Interest Sweep",
                    "transactionCode": "381",
                    "transactionSubCategory": "InterestSweep",
                    "transfer": true
                },
                {
                    "autoRebalance": false,
                    "beneficiaryChange": false,
                    "confirmationNumber": null,
                    "dollarCostAvgFixed": false,
                    "dollarCostAvgMoneyMrkt": false,
                    "electionChange": false,
                    "folderId": "20131003.I815",
                    "hasTransactionDetail": false,
                    "interestSweep": false,
                    "loan": false,
                    "nextProcessDate": null,
                    "nextScheduledDate": null,
                    "omniWebRole": null,
                    "omniWebStatus": "PENDING",
                    "participantName": "Participant Joe",
                    "periodicFlag": null,
                    "periodicFrequency": null,
                    "periodicFrequencyDescription": "",
                    "previousProcessDate": null,
                    "propagateTrans": false,
                    "recurringTemplate": false,
                    "sequenceNumber": "1",
                    "stopDate": null,
                    "systemId": "acctServices",
                    "tradeDate": "2013-10-03T00:00:00.000-0400",
                    "transCategory": "Transfer",
                    "transDescription": "Dollar Transfer",
                    "transactionCode": "815",
                    "transactionSubCategory": "Dollar",
                    "transfer": true
                },
                {
                    "autoRebalance": false,
                    "beneficiaryChange": false,
                    "confirmationNumber": null,
                    "dollarCostAvgFixed": false,
                    "dollarCostAvgMoneyMrkt": false,
                    "electionChange": false,
                    "folderId": "20131003.I815",
                    "hasTransactionDetail": false,
                    "interestSweep": false,
                    "loan": false,
                    "nextProcessDate": null,
                    "nextScheduledDate": null,
                    "omniWebRole": null,
                    "omniWebStatus": "PENDING",
                    "participantName": "Participant Joe",
                    "periodicFlag": null,
                    "periodicFrequency": null,
                    "periodicFrequencyDescription": "",
                    "previousProcessDate": null,
                    "propagateTrans": false,
                    "recurringTemplate": false,
                    "sequenceNumber": "1",
                    "stopDate": null,
                    "systemId": "acctServices",
                    "tradeDate": "2013-10-03T00:00:00.000-0400",
                    "transCategory": "Transfer",
                    "transDescription": "Percent Transfer",
                    "transactionCode": "815",
                    "transactionSubCategory": "Percent",
                    "transfer": true
                },
                {
                    "autoRebalance": false,
                    "beneficiaryChange": false,
                    "confirmationNumber": null,
                    "dollarCostAvgFixed": false,
                    "dollarCostAvgMoneyMrkt": false,
                    "electionChange": true,
                    "folderId": "20131003.I815",
                    "hasTransactionDetail": true,
                    "interestSweep": false,
                    "loan": false,
                    "nextProcessDate": null,
                    "nextScheduledDate": null,
                    "omniWebRole": null,
                    "omniWebStatus": "PENDING",
                    "participantName": "Participant Joe",
                    "periodicFlag": null,
                    "periodicFrequency": null,
                    "periodicFrequencyDescription": "",
                    "previousProcessDate": null,
                    "propagateTrans": false,
                    "recurringTemplate": false,
                    "sequenceNumber": "1",
                    "stopDate": null,
                    "systemId": "acctServices",
                    "tradeDate": "2013-10-03T00:00:00.000-0400",
                    "transCategory": "IOE",
                    "transDescription": "Investment Option Election",
                    "transactionCode": "815",
                    "transactionSubCategory": "",
                    "transfer": false
                },
                {
                    "autoRebalance": false,
                    "beneficiaryChange": false,
                    "confirmationNumber": null,
                    "dollarCostAvgFixed": false,
                    "dollarCostAvgMoneyMrkt": false,
                    "electionChange": false,
                    "folderId": "20131003.I815",
                    "hasTransactionDetail": true,
                    "interestSweep": false,
                    "loan": true,
                    "nextProcessDate": null,
                    "nextScheduledDate": null,
                    "omniWebRole": null,
                    "omniWebStatus": "PENDING",
                    "participantName": "Participant Joe",
                    "periodicFlag": null,
                    "periodicFrequency": null,
                    "periodicFrequencyDescription": "",
                    "previousProcessDate": null,
                    "propagateTrans": false,
                    "recurringTemplate": false,
                    "sequenceNumber": "1",
                    "stopDate": null,
                    "systemId": "acctServices",
                    "tradeDate": "2013-10-03T00:00:00.000-0400",
                    "transCategory": "Loan",
                    "transDescription": "Loan",
                    "transactionCode": "815",
                    "transactionSubCategory": "",
                    "transfer": false
                },
                {
                    "autoRebalance": false,
                    "beneficiaryChange": true,
                    "confirmationNumber": null,
                    "dollarCostAvgFixed": false,
                    "dollarCostAvgMoneyMrkt": false,
                    "electionChange": false,
                    "folderId": "20131003.I815",
                    "hasTransactionDetail": true,
                    "interestSweep": false,
                    "loan": false,
                    "nextProcessDate": null,
                    "nextScheduledDate": null,
                    "omniWebRole": null,
                    "omniWebStatus": "PENDING",
                    "participantName": "CParticipant Joe",
                    "periodicFlag": null,
                    "periodicFrequency": null,
                    "periodicFrequencyDescription": "",
                    "previousProcessDate": null,
                    "propagateTrans": false,
                    "recurringTemplate": false,
                    "sequenceNumber": "1",
                    "stopDate": null,
                    "systemId": "acctServices",
                    "tradeDate": "2013-10-03T00:00:00.000-0400",
                    "transCategory": "BeneficiaryChange",
                    "transDescription": "Beneficiary Change",
                    "transactionCode": "815",
                    "transactionSubCategory": "",
                    "transfer": false
                },
                {
                    "autoRebalance": false,
                    "beneficiaryChange": false,
                    "confirmationNumber": null,
                    "dollarCostAvgFixed": false,
                    "dollarCostAvgMoneyMrkt": false,
                    "electionChange": false,
                    "folderId": "20131003.I815",
                    "hasTransactionDetail": false,
                    "interestSweep": false,
                    "loan": false,
                    "nextProcessDate": null,
                    "nextScheduledDate": null,
                    "omniWebRole": null,
                    "omniWebStatus": "PENDING",
                    "participantName": "Participant Joe",
                    "periodicFlag": null,
                    "periodicFrequency": null,
                    "periodicFrequencyDescription": "",
                    "previousProcessDate": null,
                    "propagateTrans": false,
                    "recurringTemplate": false,
                    "sequenceNumber": "1",
                    "stopDate": null,
                    "systemId": "acctServices",
                    "tradeDate": "2013-10-03T00:00:00.000-0400",
                    "transCategory": "Deferral",
                    "transDescription": "Change Deferral Election",
                    "transactionCode": "815",
                    "transactionSubCategory": "",
                    "transfer": false
                }
            ]
        }
    ]
}
